{
"id": "TASK_readZisoStatPrebin_e8be2e77-e419-4aec-b500-49478c18c51d",
"owner_id": "SCENARIO_prebinnedScenario_1ee1f01a-7025-4658-8b6f-526c883778bb",
"parent_ids": [
"SCENARIO_prebinnedScenario_1ee1f01a-7025-4658-8b6f-526c883778bb"
],
"config_id": "readZisoStatPrebin",
"input_ids": [
"DATANODE_ZisoPathPrebin_31e39836-faa8-47a0-99b0-8e10f368dca4",
"DATANODE_WorkingPointID_3140e339-f37e-4ae1-ab8b-f50c7e2da057",
"DATANODE_RemoveNeg_29c8222a-82eb-4c1c-8204-e9f1c5f029ef"
],
"function_name": "readZisoStat",
"function_module": "algos.ziso",
"output_ids": [
"DATANODE_ZisoStatUncorrCorrPrebin_33495355-2abf-41c5-804a-84b76fe936f1"
],
"version": "0.1",
"skippable": true,
"properties": {}
}