{
"id": "TASK_convertGeVtoMeVZmassPrebin_b2bb9dad-116a-4bf1-a32c-a89a9bccd6a7",
"owner_id": "SCENARIO_prebinnedScenario_b8e48400-1ead-43af-8b47-0e5564d1e919",
"parent_ids": [
"SCENARIO_prebinnedScenario_b8e48400-1ead-43af-8b47-0e5564d1e919"
],
"config_id": "convertGeVtoMeVZmassPrebin",
"input_ids": [
"DATANODE_Zmass_xPrebin_879b4317-aada-411e-9974-e60414dc8a45"
],
"function_name": "convertGeVtoMeV",
"function_module": "algos.ziso",
"output_ids": [
"DATANODE_Zmass_xMeVPrebin_70483876-fef2-4dc3-8aea-e5c00c777f0b"
],
"version": "0.2",
"skippable": true,
"properties": {}
}