{
"id": "TASK_readZisoStat_f819e14d-0ea1-4ffd-a2e5-c224e85d12f0",
"owner_id": "SCENARIO_prebinnedScenario_e78cb6e6-8b08-444f-90b5-7ce70b99d3ce",
"parent_ids": [
"SCENARIO_prebinnedScenario_e78cb6e6-8b08-444f-90b5-7ce70b99d3ce"
],
"config_id": "readZisoStat",
"input_ids": [
"DATANODE_ZisoPath_88ffc6cf-8f3a-4146-bb1e-014dd9280184",
"DATANODE_WorkingPointID_f730a7a1-d403-430e-aa02-6a71faf3df35"
],
"function_name": "readZisoStat",
"function_module": "algos.ziso",
"output_ids": [
"DATANODE_ZisoStatUncorrCorr_a342ef13-ba62-4683-8e71-c2ab4636ea90"
],
"version": "0.2",
"skippable": true,
"properties": {}
}