{
"id": "TASK_combineHera_d6a689c8-6ccf-42b1-a2ad-d664607e24d7",
"owner_id": "SCENARIO_prebinnedScenario_1f54044e-3af6-4c97-a24b-229ebfb4bf9b",
"parent_ids": [
"SCENARIO_prebinnedScenario_1f54044e-3af6-4c97-a24b-229ebfb4bf9b"
],
"config_id": "combineHera",
"input_ids": [
"DATANODE_ZcombSystDecorr_ffc345a0-7438-4152-9a2c-b011e1f8b011",
"DATANODE_JpsiSystDecorr_a9d13b09-9f70-4b90-bf5e-96e575f29e68",
"DATANODE_Jpsi_xMeV_d7bda6ab-4c7b-4042-8c1f-d964ae657f7d",
"DATANODE_Jpsi_y_b0ff65f6-0528-49d0-896c-94b9b9313f26"
],
"function_name": "combineHera",
"function_module": "algos.combineZmethods",
"output_ids": [
"DATANODE_ZJpsicomb_1b637edc-00fa-4614-9ab6-bb71aeed772a"
],
"version": "0.1",
"skippable": true,
"properties": {}
}