{
"id": "TASK_readZmassStatPrebin_7653228b-f395-45be-abad-687c30b68965",
"owner_id": "SCENARIO_prebinnedScenario_1ee1f01a-7025-4658-8b6f-526c883778bb",
"parent_ids": [
"SCENARIO_prebinnedScenario_1ee1f01a-7025-4658-8b6f-526c883778bb"
],
"config_id": "readZmassStatPrebin",
"input_ids": [
"DATANODE_ZmassPathPrebin_a7eb0703-3895-4bb6-b0fd-903a87fdf239",
"DATANODE_WorkingPointID_3140e339-f37e-4ae1-ab8b-f50c7e2da057",
"DATANODE_RemoveNeg_29c8222a-82eb-4c1c-8204-e9f1c5f029ef"
],
"function_name": "readZmassStat",
"function_module": "algos.zmass",
"output_ids": [
"DATANODE_ZmassStatUncorrCorrPrebin_6253d056-8630-4367-ac63-bddc257a2a84"
],
"version": "0.1",
"skippable": true,
"properties": {}
}