{
"id": "TASK_readZmass_bbf78065-c259-4b7b-a6b9-2c3c34676ffe",
"owner_id": "SCENARIO_prebinnedScenario_1ee1f01a-7025-4658-8b6f-526c883778bb",
"parent_ids": [
"SCENARIO_prebinnedScenario_1ee1f01a-7025-4658-8b6f-526c883778bb"
],
"config_id": "readZmass",
"input_ids": [
"DATANODE_ZmassPath_ead4df99-8b59-4858-b7d5-a23ebf68db72",
"DATANODE_WorkingPointID_3140e339-f37e-4ae1-ab8b-f50c7e2da057",
"DATANODE_Year_7cfade39-fea8-4c6e-a935-e09f50833e8f"
],
"function_name": "readZmass",
"function_module": "algos.zmass",
"output_ids": [
"DATANODE_Zmass_e0840089-4c49-4e8d-a53e-73d4d8b883f0",
"DATANODE_Zmass_x_ce42cb30-d7d3-499d-8cc9-72035f39900f",
"DATANODE_Zmass_y_eee37733-0081-4993-b75e-ecc8ca2126f6"
],
"version": "0.1",
"skippable": true,
"properties": {}
}