{
"id": "TASK_SetPaths_312664e8-5f79-4630-9a62-05a9ae6f2d14",
"owner_id": "SCENARIO_prebinnedScenario_1ee1f01a-7025-4658-8b6f-526c883778bb",
"parent_ids": [
"SCENARIO_prebinnedScenario_1ee1f01a-7025-4658-8b6f-526c883778bb"
],
"config_id": "SetPaths",
"input_ids": [
"DATANODE_Year_7cfade39-fea8-4c6e-a935-e09f50833e8f"
],
"function_name": "pathFinder",
"function_module": "algos.pathFinder",
"output_ids": [
"DATANODE_ZisoPath_2ebe0747-7ea6-406d-bcfa-42e4a439362f",
"DATANODE_ZmassPath_ead4df99-8b59-4858-b7d5-a23ebf68db72",
"DATANODE_JpsiPath_93d9fee2-57e2-4217-b872-fcbf27dfbb5a"
],
"version": "0.1",
"skippable": false,
"properties": {}
}