{
"id": "TASK_convertGeVtoMeVZiso_83ad5c59-4946-4ef5-8b9f-f98a353a265a",
"owner_id": "SCENARIO_prebinnedScenario_1f54044e-3af6-4c97-a24b-229ebfb4bf9b",
"parent_ids": [
"SCENARIO_prebinnedScenario_1f54044e-3af6-4c97-a24b-229ebfb4bf9b"
],
"config_id": "convertGeVtoMeVZiso",
"input_ids": [
"DATANODE_Ziso_x_a32acee9-cd54-4d52-af03-469ca5dd25e3"
],
"function_name": "convertGeVtoMeV",
"function_module": "algos.ziso",
"output_ids": [
"DATANODE_Ziso_xMeV_f4344129-6f13-4c02-bfb3-bdceb5f9dd59"
],
"version": "0.1",
"skippable": true,
"properties": {}
}