{
"id": "TASK_readZiso_67df75a4-ee53-4338-b276-42d8589065fd",
"owner_id": "SCENARIO_prebinnedScenario_9c4765b1-5665-4e4a-b728-1f530ef8131e",
"parent_ids": [
"SCENARIO_prebinnedScenario_9c4765b1-5665-4e4a-b728-1f530ef8131e"
],
"config_id": "readZiso",
"input_ids": [
"DATANODE_ZisoPath_e9b71d66-fd55-47ad-b6c2-109aa911a598",
"DATANODE_WorkingPointID_37cba8d3-8c8d-4805-b8fa-a71f79e6b1c1",
"DATANODE_Year_d8b0356c-837c-46ea-9df3-9db53273da25"
],
"function_name": "readZiso",
"function_module": "algos.ziso",
"output_ids": [
"DATANODE_Ziso_0ea4ad95-948a-4606-b07c-9a22510e3b57",
"DATANODE_Ziso_x_243db565-d4c3-4b9c-952c-357e4478f703",
"DATANODE_Ziso_y_075cfc30-eebc-47b1-9d88-07658be0fe8c"
],
"version": "0.2",
"skippable": true,
"properties": {}
}