{
"id": "TASK_combineZmethodslo_6f8df7fb-9c85-4f8c-b600-0f757e7d46ea",
"owner_id": "SCENARIO_prebinnedScenario_1f54044e-3af6-4c97-a24b-229ebfb4bf9b",
"parent_ids": [
"SCENARIO_prebinnedScenario_1f54044e-3af6-4c97-a24b-229ebfb4bf9b"
],
"config_id": "combineZmethodslo",
"input_ids": [
"DATANODE_Zmasslo_3155ebfd-4bab-485d-b3ed-a4837c1a557d",
"DATANODE_Zisolo_ac045702-3f8f-4d5a-b752-6a5d06b9f485",
"DATANODE_Zisolox_aad3bf81-ba91-4518-aa52-00377b0c5cb6",
"DATANODE_Zisoloy_5a9da1a8-fe2b-4a0d-80a6-1c3ceda620bf"
],
"function_name": "combineZmethods",
"function_module": "algos.combineZmethods",
"output_ids": [
"DATANODE_Zcomblo_6235f6e5-0267-480d-81f8-f52065e8d37f"
],
"version": "0.1",
"skippable": true,
"properties": {}
}