{
"id": "TASK_decorrelateStatZmass_93a4a0d0-93a1-4db0-8a01-b817079fdba4",
"owner_id": "SCENARIO_prebinnedScenario_9c4765b1-5665-4e4a-b728-1f530ef8131e",
"parent_ids": [
"SCENARIO_prebinnedScenario_9c4765b1-5665-4e4a-b728-1f530ef8131e"
],
"config_id": "decorrelateStatZmass",
"input_ids": [
"DATANODE_Zmass_8cb3feda-ac7c-45c2-964e-8b515cfe5cc5",
"DATANODE_ZmassStatUncorrCorr_75ed1714-c524-4c90-a720-e24da492f21a",
"DATANODE_Zmass_xMeV_611a58c0-b493-4fdf-90ee-1de62e0cb19d",
"DATANODE_Zmass_y_1fca2bd1-b7d1-4fa8-b446-bfadcfa4eb56"
],
"function_name": "decorrelateStat",
"function_module": "algos.correlation",
"output_ids": [
"DATANODE_ZmassDecorr_a8f97a2b-33ea-4e64-9582-053c7bc282fa"
],
"version": "0.2",
"skippable": true,
"properties": {}
}