{
"id": "TASK_readZisoPrebin_8eeec13b-dbfe-498c-8c89-0c2db54d0dab",
"owner_id": "SCENARIO_prebinnedScenario_9c4765b1-5665-4e4a-b728-1f530ef8131e",
"parent_ids": [
"SCENARIO_prebinnedScenario_9c4765b1-5665-4e4a-b728-1f530ef8131e"
],
"config_id": "readZisoPrebin",
"input_ids": [
"DATANODE_ZisoPathPrebin_7d6e60ce-a6cd-4915-a493-1dad8bb0dff4",
"DATANODE_WorkingPointID_37cba8d3-8c8d-4805-b8fa-a71f79e6b1c1",
"DATANODE_Year_d8b0356c-837c-46ea-9df3-9db53273da25",
"DATANODE_RemoveNeg_723f80e5-31f9-4804-ad9b-5f4f34ec071d"
],
"function_name": "readZiso",
"function_module": "algos.ziso",
"output_ids": [
"DATANODE_ZisoPrebin_e9a0cc79-3430-4f35-b0c7-192c31e565d4",
"DATANODE_Ziso_xPrebin_c0684372-eea0-4205-8550-07de9744a92f",
"DATANODE_Ziso_yPrebin_278bd348-571a-4252-8ed8-6dc0902316f7"
],
"version": "0.2",
"skippable": true,
"properties": {}
}