{
"id": "TASK_consistentBinning_96a6870e-9093-4df5-868f-d0025b30722d",
"owner_id": "SCENARIO_prebinnedScenario_605c438e-8a57-4267-9d67-ba7a0cafa6b3",
"parent_ids": [
"SCENARIO_prebinnedScenario_605c438e-8a57-4267-9d67-ba7a0cafa6b3"
],
"config_id": "consistentBinning",
"input_ids": [
"DATANODE_Zmass_xMeV_4e7442a0-44c1-4078-b63f-894c8b0faee6",
"DATANODE_Zmass_y_dc362fa9-57f8-4a92-bdfb-2c36bebc1dcb",
"DATANODE_Ziso_xMeV_4cb43cb6-9a98-4fe9-b5d9-c52d2a79bf6d",
"DATANODE_Ziso_y_43d38aca-36b0-43c9-947d-1c581fc7aa0c"
],
"function_name": "consistentBinning",
"function_module": "algos.consistent",
"output_ids": [
"DATANODE_Zcomb_x_86305e09-1f34-4e7d-91bf-c6785ec6f432",
"DATANODE_Zcomb_y_f065e292-6af2-409a-ac57-9ffea3a2b123"
],
"version": "0.2",
"skippable": true,
"properties": {}
}