{
"id": "TASK_SetPaths_2018a917-096f-4d05-9701-3d51238e2892",
"owner_id": "SCENARIO_prebinnedScenario_9c4765b1-5665-4e4a-b728-1f530ef8131e",
"parent_ids": [
"SCENARIO_prebinnedScenario_9c4765b1-5665-4e4a-b728-1f530ef8131e"
],
"config_id": "SetPaths",
"input_ids": [
"DATANODE_Year_d8b0356c-837c-46ea-9df3-9db53273da25"
],
"function_name": "pathFinder",
"function_module": "algos.pathFinder",
"output_ids": [
"DATANODE_ZisoPath_e9b71d66-fd55-47ad-b6c2-109aa911a598",
"DATANODE_ZmassPath_17cc2816-a975-4aff-aff6-a77caabca90d",
"DATANODE_JpsiPath_ae3162a5-25e8-4ff6-a126-203aacd0c025"
],
"version": "0.2",
"skippable": false,
"properties": {}
}