{
"id": "TASK_combineZmethodslo_3689ac95-f039-45c7-8e43-88534b847e06",
"owner_id": "SCENARIO_prebinnedScenario_2605fed3-6b68-43a5-bc8f-9c2de7cb4e68",
"parent_ids": [
"SCENARIO_prebinnedScenario_2605fed3-6b68-43a5-bc8f-9c2de7cb4e68"
],
"config_id": "combineZmethodslo",
"input_ids": [
"DATANODE_Zmasslo_725f6326-e391-49b7-a749-bc1a6d5a9560",
"DATANODE_Zisolo_f566ec2f-dc07-4c7a-8c79-4889173c636c",
"DATANODE_Zisolox_856d5724-e2aa-4444-a636-55da9a9b8290",
"DATANODE_Zisoloy_49d2b306-ca73-427d-9282-6615ff38c6e5"
],
"function_name": "combineZmethods",
"function_module": "algos.combineZmethods",
"output_ids": [
"DATANODE_Zcomblo_d25344b5-9117-461d-90ff-7a1fe1d5d959"
],
"version": "0.2",
"skippable": true,
"properties": {}
}