{
"id": "TASK_combineZmethodshi_1d8ef296-b44b-40f7-a122-ee2230c62f0b",
"owner_id": "SCENARIO_prebinnedScenario_b8e48400-1ead-43af-8b47-0e5564d1e919",
"parent_ids": [
"SCENARIO_prebinnedScenario_b8e48400-1ead-43af-8b47-0e5564d1e919"
],
"config_id": "combineZmethodshi",
"input_ids": [
"DATANODE_Zmasshi_1031ae4b-3b8f-4c52-8816-d96fcb01352f",
"DATANODE_Zisohi_4acdfb8f-c0e1-4014-a6d1-a4fa88699c7f",
"DATANODE_Zisohix_bfa9d335-2e40-456c-853f-7282e8c8b94f",
"DATANODE_Zisohiy_d7b5cd61-0578-4f5d-9dd7-b2a98ee3d080"
],
"function_name": "combineZmethods",
"function_module": "algos.combineZmethods",
"output_ids": [
"DATANODE_Zcombhi_613fa255-608a-48f9-9683-d758fe66e7d9"
],
"version": "0.2",
"skippable": true,
"properties": {}
}