{
"id": "TASK_chiSquared_55b05848-5927-439d-8f88-e32981354d82",
"owner_id": "SCENARIO_prebinnedScenario_72466c8a-9f63-467a-984f-cf08df595fca",
"parent_ids": [
"SCENARIO_prebinnedScenario_72466c8a-9f63-467a-984f-cf08df595fca"
],
"config_id": "chiSquared",
"input_ids": [
"DATANODE_ZcombSystDecorr_7b0e5858-33e3-4328-966a-d18a260f3983",
"DATANODE_JpsiSystDecorr_91b960ed-4001-45d5-8939-ec750f2e0119",
"DATANODE_ZJpsicomb_38220af4-80ec-45d7-b605-b9bd1f41e65e",
"DATANODE_Jpsi_xMeV_cdd5c155-4eba-4fd9-b5d2-10917321ad4f",
"DATANODE_Jpsi_y_6d627740-c1d2-4a25-8222-c9f50df0ecaf"
],
"function_name": "chi2",
"function_module": "algos.chi2",
"output_ids": [
"DATANODE_ChiSquaredScore_afc65ac0-c5cd-42e2-803f-71ba22a5a94c",
"DATANODE_ChiSquaredScoreEta_19b341d9-74d8-4d8f-a89c-cde268e23f2e"
],
"version": "0.1",
"skippable": true,
"properties": {}
}