{
"id": "TASK_decorrelateStatZmassPrebin_d58ff71d-c645-41ea-af95-b03008436936",
"owner_id": "SCENARIO_prebinnedScenario_605c438e-8a57-4267-9d67-ba7a0cafa6b3",
"parent_ids": [
"SCENARIO_prebinnedScenario_605c438e-8a57-4267-9d67-ba7a0cafa6b3"
],
"config_id": "decorrelateStatZmassPrebin",
"input_ids": [
"DATANODE_ZmassPrebin_21d1f0e9-2b5f-4fc7-a4e1-937eac68e9ff",
"DATANODE_ZmassStatUncorrCorrPrebin_9da5e59c-9782-4195-b045-4710cbd43f49",
"DATANODE_Zmass_xMeVPrebin_f652819f-cd9a-4881-916d-f99e38aa1759",
"DATANODE_Zmass_yPrebin_dec1c670-54f4-44ed-a1fa-70488fa9c5e4"
],
"function_name": "decorrelateStat",
"function_module": "algos.correlation",
"output_ids": [
"DATANODE_ZmassDecorrPrebin_5c3282ae-0af6-4832-b262-b0f94a1b112e"
],
"version": "0.2",
"skippable": true,
"properties": {}
}