{
"id": "TASK_SetPathsforPrebin_ab7980fe-b0d3-490a-9ad9-87e28640ac64",
"owner_id": "SCENARIO_prebinnedScenario_9c4765b1-5665-4e4a-b728-1f530ef8131e",
"parent_ids": [
"SCENARIO_prebinnedScenario_9c4765b1-5665-4e4a-b728-1f530ef8131e"
],
"config_id": "SetPathsforPrebin",
"input_ids": [
"DATANODE_Year_d8b0356c-837c-46ea-9df3-9db53273da25",
"DATANODE_ExtraBin_3a350f93-13a8-4619-9c69-57e6ccad1755"
],
"function_name": "pathFinderPrebin",
"function_module": "algos.pathFinder",
"output_ids": [
"DATANODE_ZisoPathPrebin_7d6e60ce-a6cd-4915-a493-1dad8bb0dff4",
"DATANODE_ZmassPathPrebin_c7c37a12-9e26-4edf-87a7-801f7f5c8d38",
"DATANODE_JpsiPathPrebin_1f5ce253-743c-4809-837c-458512b014b9"
],
"version": "0.2",
"skippable": false,
"properties": {}
}