{
"id": "TASK_readZmassPrebin_73d65320-938a-4c5d-8409-e1dd341f211d",
"owner_id": "SCENARIO_prebinnedScenario_72466c8a-9f63-467a-984f-cf08df595fca",
"parent_ids": [
"SCENARIO_prebinnedScenario_72466c8a-9f63-467a-984f-cf08df595fca"
],
"config_id": "readZmassPrebin",
"input_ids": [
"DATANODE_ZmassPathPrebin_eaf8cf37-89bf-46a4-974d-38b471ecddd6",
"DATANODE_WorkingPointID_31f23b16-972f-4cd4-8d43-d1c53e6e06dd",
"DATANODE_Year_b3fd98ea-b9f9-4f46-82ce-e274bcb8128d",
"DATANODE_RemoveNeg_96577175-5435-4d44-973a-8c710bb6a528"
],
"function_name": "readZmass",
"function_module": "algos.zmass",
"output_ids": [
"DATANODE_ZmassPrebin_77c2d87e-f0fd-4fff-bac5-dab2cd2c3416",
"DATANODE_Zmass_xPrebin_dc19bd00-92aa-43d1-a23d-99574558799a",
"DATANODE_Zmass_yPrebin_a31648f1-f3a7-4a45-82e7-0a92b26a004c"
],
"version": "0.1",
"skippable": true,
"properties": {}
}