{
"id": "TASK_readZisoStat_11ea3433-0cb9-47e8-acbf-3e37aa391696",
"owner_id": "SCENARIO_prebinnedScenario_605c438e-8a57-4267-9d67-ba7a0cafa6b3",
"parent_ids": [
"SCENARIO_prebinnedScenario_605c438e-8a57-4267-9d67-ba7a0cafa6b3"
],
"config_id": "readZisoStat",
"input_ids": [
"DATANODE_ZisoPath_263ae1b4-b231-4d9c-9b4b-f3c675587474",
"DATANODE_WorkingPointID_9ff929c5-4923-4fcd-a12e-feca1232ff8a"
],
"function_name": "readZisoStat",
"function_module": "algos.ziso",
"output_ids": [
"DATANODE_ZisoStatUncorrCorr_b3e13f27-cd01-4c5b-959e-6d548d348e26"
],
"version": "0.2",
"skippable": true,
"properties": {}
}