{
"id": "TASK_decorrelateSystPrebin_7d6f1201-4552-4b54-b5a5-2ec5daea194c",
"owner_id": "SCENARIO_prebinnedScenario_2605fed3-6b68-43a5-bc8f-9c2de7cb4e68",
"parent_ids": [
"SCENARIO_prebinnedScenario_2605fed3-6b68-43a5-bc8f-9c2de7cb4e68"
],
"config_id": "decorrelateSystPrebin",
"input_ids": [
"DATANODE_ZmassDecorrPrebin_b2d3083a-4cd5-4cf2-b830-e2b04d26acaa",
"DATANODE_ZisoDecorrPrebin_d9834c6d-4041-4e3e-b679-6adf2dc0180c",
"DATANODE_ZcombxPrebin_6efaa07b-ab18-4414-afa7-ebb1695f7f95",
"DATANODE_ZcombyPrebin_cb871447-6a30-4c84-8992-5f26efcf254e"
],
"function_name": "decorrelateSyst",
"function_module": "algos.correlation",
"output_ids": [
"DATANODE_ZmassSystDecorrPrebin_2ddbd87b-0dd8-401a-8c75-89a782569d4b",
"DATANODE_ZisoSystDecorrPrebin_39e63f10-6cb7-45ec-b077-85566a47a5c6"
],
"version": "0.2",
"skippable": true,
"properties": {}
}