{
"id": "TASK_decorrelateSystJpsi_0015f6f8-170a-4a44-a0f6-f14bc0b8c35e",
"owner_id": "SCENARIO_prebinnedScenario_72466c8a-9f63-467a-984f-cf08df595fca",
"parent_ids": [
"SCENARIO_prebinnedScenario_72466c8a-9f63-467a-984f-cf08df595fca"
],
"config_id": "decorrelateSystJpsi",
"input_ids": [
"DATANODE_ZcombRebin_50d28b15-31bf-4ddd-addf-4e5db5b31d79",
"DATANODE_Jpsi_bbf6d60c-eb29-4a68-8611-640349faaabb",
"DATANODE_Jpsi_xMeV_cdd5c155-4eba-4fd9-b5d2-10917321ad4f",
"DATANODE_Jpsi_y_6d627740-c1d2-4a25-8222-c9f50df0ecaf"
],
"function_name": "decorrelateSyst",
"function_module": "algos.correlation",
"output_ids": [
"DATANODE_ZcombSystDecorr_7b0e5858-33e3-4328-966a-d18a260f3983",
"DATANODE_JpsiSystDecorr_91b960ed-4001-45d5-8939-ec750f2e0119"
],
"version": "0.1",
"skippable": true,
"properties": {}
}