{
"id": "TASK_decorrelateSyst_cd2df44a-882d-48f8-9846-d4f5e2ecc4f3",
"owner_id": "SCENARIO_prebinnedScenario_605c438e-8a57-4267-9d67-ba7a0cafa6b3",
"parent_ids": [
"SCENARIO_prebinnedScenario_605c438e-8a57-4267-9d67-ba7a0cafa6b3"
],
"config_id": "decorrelateSyst",
"input_ids": [
"DATANODE_ZmassDecorr_87591088-0028-406c-84b0-6afae032aba3",
"DATANODE_ZisoDecorr_41da80ba-2a8b-4757-88d6-cca88dfa3d5b",
"DATANODE_Zcomb_x_86305e09-1f34-4e7d-91bf-c6785ec6f432",
"DATANODE_Zcomb_y_f065e292-6af2-409a-ac57-9ffea3a2b123"
],
"function_name": "decorrelateSyst",
"function_module": "algos.correlation",
"output_ids": [
"DATANODE_ZmassSystDecorr_bb751596-ff75-4539-b3d3-b963cb9a8daa",
"DATANODE_ZisoSystDecorr_0132bbaf-6727-484e-8d9f-d86ad314c7f8"
],
"version": "0.2",
"skippable": true,
"properties": {}
}