{
"id": "TASK_readZmassPrebin_4331829b-9914-4fe5-a0a6-5266c5287a7c",
"owner_id": "SCENARIO_prebinnedScenario_1f54044e-3af6-4c97-a24b-229ebfb4bf9b",
"parent_ids": [
"SCENARIO_prebinnedScenario_1f54044e-3af6-4c97-a24b-229ebfb4bf9b"
],
"config_id": "readZmassPrebin",
"input_ids": [
"DATANODE_ZmassPathPrebin_1f27c85d-c240-4165-9997-a574daa310c4",
"DATANODE_WorkingPointID_e48a4e17-4fe7-4297-bbb4-072cf21eb339",
"DATANODE_Year_a503df29-bf83-4a8f-b2df-1f9c5b3c43c8",
"DATANODE_RemoveNeg_5196d378-d0a2-441b-abbc-d7a0a282421b"
],
"function_name": "readZmass",
"function_module": "algos.zmass",
"output_ids": [
"DATANODE_ZmassPrebin_87b181b8-cfd6-463a-bafb-4379109889bf",
"DATANODE_Zmass_xPrebin_0acdc9f0-a5ff-4431-979b-c820e629a7c7",
"DATANODE_Zmass_yPrebin_5681d5a0-28a8-475e-a930-4c3fc54d0dc1"
],
"version": "0.1",
"skippable": true,
"properties": {}
}