{
"id": "TASK_decorrelateStatZisoPrebin_5fdc2650-0bea-4258-969e-83fa87d181f2",
"owner_id": "SCENARIO_prebinnedScenario_e78cb6e6-8b08-444f-90b5-7ce70b99d3ce",
"parent_ids": [
"SCENARIO_prebinnedScenario_e78cb6e6-8b08-444f-90b5-7ce70b99d3ce"
],
"config_id": "decorrelateStatZisoPrebin",
"input_ids": [
"DATANODE_ZisoPrebin_1142df1e-f739-49f3-9c2b-4933d7afb06d",
"DATANODE_ZisoStatUncorrCorrPrebin_455880cb-5b6d-473d-9e35-14ef8790b6f9",
"DATANODE_Ziso_xMeVPrebin_49443aef-2df5-44a3-a7fc-4ff0e09e016e",
"DATANODE_Ziso_yPrebin_973457ec-2881-4d14-ba95-c4fcababee1b"
],
"function_name": "decorrelateStat",
"function_module": "algos.correlation",
"output_ids": [
"DATANODE_ZisoDecorrPrebin_3329afd2-eb30-4416-a94b-d4d4c34dba50"
],
"version": "0.2",
"skippable": true,
"properties": {}
}