{
"id": "TASK_consistentBinningPrebin_81a70ce7-c5a6-4f59-b7e9-16c360ae661c",
"owner_id": "SCENARIO_prebinnedScenario_2605fed3-6b68-43a5-bc8f-9c2de7cb4e68",
"parent_ids": [
"SCENARIO_prebinnedScenario_2605fed3-6b68-43a5-bc8f-9c2de7cb4e68"
],
"config_id": "consistentBinningPrebin",
"input_ids": [
"DATANODE_Zmass_xMeVPrebin_18db33a1-5ece-477f-96f5-2684d7e3ec43",
"DATANODE_Zmass_yPrebin_b0090b3c-875b-4716-917a-861c9beb7c97",
"DATANODE_Ziso_xMeVPrebin_ce07cd94-f25a-4227-bd0e-0aa048455279",
"DATANODE_Ziso_yPrebin_bd0ffcaf-a49b-41c7-a4ee-af501e4c43ac"
],
"function_name": "consistentBinning",
"function_module": "algos.consistent",
"output_ids": [
"DATANODE_ZcombxPrebin_6efaa07b-ab18-4414-afa7-ebb1695f7f95",
"DATANODE_ZcombyPrebin_cb871447-6a30-4c84-8992-5f26efcf254e"
],
"version": "0.2",
"skippable": true,
"properties": {}
}