{
"id": "TASK_decorrelateSystPrebin_8b9e82e5-9818-4599-9ae1-bb0cb4911f74",
"owner_id": "SCENARIO_prebinnedScenario_72466c8a-9f63-467a-984f-cf08df595fca",
"parent_ids": [
"SCENARIO_prebinnedScenario_72466c8a-9f63-467a-984f-cf08df595fca"
],
"config_id": "decorrelateSystPrebin",
"input_ids": [
"DATANODE_ZmassDecorrPrebin_a65a1bb8-56c5-4320-aa5c-06a40c0f9b46",
"DATANODE_ZisoDecorrPrebin_c16e29cb-46db-4f18-b367-e4d614d81b41",
"DATANODE_ZcombxPrebin_e1cb4821-a107-41c8-aa0c-c19b1969c0ac",
"DATANODE_ZcombyPrebin_a572ec1c-7051-4e54-a862-e318d02b8dd0"
],
"function_name": "decorrelateSyst",
"function_module": "algos.correlation",
"output_ids": [
"DATANODE_ZmassSystDecorrPrebin_e658d634-17a1-41a7-a185-90c1991c22fd",
"DATANODE_ZisoSystDecorrPrebin_66b7bb7d-47c5-40cb-aeac-6ec07488968a"
],
"version": "0.1",
"skippable": true,
"properties": {}
}