{
"id": "TASK_convertGeVtoMeVZmassPrebin_04bbcd08-5ae2-42eb-8146-70bfd0c95b72",
"owner_id": "SCENARIO_prebinnedScenario_e78cb6e6-8b08-444f-90b5-7ce70b99d3ce",
"parent_ids": [
"SCENARIO_prebinnedScenario_e78cb6e6-8b08-444f-90b5-7ce70b99d3ce"
],
"config_id": "convertGeVtoMeVZmassPrebin",
"input_ids": [
"DATANODE_Zmass_xPrebin_0355e82a-e1d8-46de-9d03-3324d3e07082"
],
"function_name": "convertGeVtoMeV",
"function_module": "algos.ziso",
"output_ids": [
"DATANODE_Zmass_xMeVPrebin_910d36c3-7f08-4300-8a6a-8d314f6e86c1"
],
"version": "0.2",
"skippable": true,
"properties": {}
}