{
"id": "0.1",
"config": "{\n\"TAIPY\": {},\n\"gui\": {},\n\"JOB\": {\n\"mode\": \"standalone\",\n\"max_nb_of_workers\": null,\n\"nb_of_workers\": \"8:int\"\n},\n\"VERSION_MIGRATION\": {\n\"migration_fcts\": {}\n},\n\"CORE\": {\n\"root_folder\": \"./taipy/\",\n\"storage_folder\": \".data/\",\n\"repository_type\": \"filesystem\",\n\"read_entity_retry\": \"1:int\",\n\"mode\": \"production\",\n\"version_number\": \"0.1\",\n\"force\": \"False:bool\",\n\"core_version\": \"3.0.0\"\n},\n\"DATA_NODE\": {\n\"default\": {\n\"storage_type\": \"pickle\",\n\"scope\": \"SCENARIO:SCOPE\"\n},\n\"ZisoPath\": {\n\"storage_type\": \"pickle\",\n\"scope\": \"SCENARIO:SCOPE\",\n\"default_data\": \"/eos/user/s/subataju/MERGE/run49-rel22/scalefactors.root\"\n},\n\"ZmassPath\": {\n\"storage_type\": \"pickle\",\n\"scope\": \"SCENARIO:SCOPE\",\n\"default_data\": \"/afs/cern.ch/user/c/cbilling/tNp/efficiency-combination/filip_inputs/ZMass_all.root\"\n},\n\"JpsiPath\": {\n\"storage_type\": \"pickle\",\n\"scope\": \"SCENARIO:SCOPE\",\n\"default_data\": \"/afs/cern.ch/user/c/cbilling/tNp/efficiency-combination/tp-scalefactor-taucut-eff_taucut/Jpsi_all.root\"\n},\n\"WorkingPointID\": {\n\"storage_type\": \"pickle\",\n\"scope\": \"SCENARIO:SCOPE\",\n\"default_data\": \"TightLLH_d0z0\"\n},\n\"ZisoMethodName\": {\n\"storage_type\": \"pickle\",\n\"scope\": \"SCENARIO:SCOPE\",\n\"default_data\": \"Ziso\"\n},\n\"ZmassMethodName\": {\n\"storage_type\": \"pickle\",\n\"scope\": \"SCENARIO:SCOPE\",\n\"default_data\": \"Zmass\"\n},\n\"PlotsLocation\": {\n\"storage_type\": \"pickle\",\n\"scope\": \"SCENARIO:SCOPE\",\n\"default_data\": \"plotting\"\n},\n\"RebinName\": {\n\"storage_type\": \"pickle\",\n\"scope\": \"SCENARIO:SCOPE\",\n\"default_data\": \"rebin\"\n},\n\"LoName\": {\n\"storage_type\": \"pickle\",\n\"scope\": \"SCENARIO:SCOPE\",\n\"default_data\": \"lo\"\n},\n\"HiName\": {\n\"storage_type\": \"pickle\",\n\"scope\": \"SCENARIO:SCOPE\",\n\"default_data\": \"hi\"\n},\n\"AllName\": {\n\"storage_type\": \"pickle\",\n\"scope\": \"SCENARIO:SCOPE\",\n\"default_data\": \"All\"\n},\n\"RebinPlotLoc\": {\n\"storage_type\": \"pickle\",\n\"scope\": \"SCENARIO:SCOPE\"\n},\n\"LoPlotLoc\": {\n\"storage_type\": \"pickle\",\n\"scope\": \"SCENARIO:SCOPE\"\n},\n\"HiPlotLoc\": {\n\"storage_type\": \"pickle\",\n\"scope\": \"SCENARIO:SCOPE\"\n},\n\"AllPlotLoc\": {\n\"storage_type\": \"pickle\",\n\"scope\": \"SCENARIO:SCOPE\"\n},\n\"RebinMethod\": {\n\"storage_type\": \"pickle\",\n\"scope\": \"SCENARIO:SCOPE\",\n\"default_data\": \"by_hand\"\n},\n\"ZcombPlotLabels\": {\n\"storage_type\": \"pickle\",\n\"scope\": \"SCENARIO:SCOPE\",\n\"default_data\": \"Z combined,Z iso,Z mass\"\n},\n\"AllcombPlotLabels\": {\n\"storage_type\": \"pickle\",\n\"scope\": \"SCENARIO:SCOPE\",\n\"default_data\": \"Z+J/#psi combined,Z combined,J/#psi\"\n},\n\"Year\": {\n\"storage_type\": \"pickle\",\n\"scope\": \"SCENARIO:SCOPE\",\n\"default_data\": \"2018:int\"\n},\n\"ExtraBin\": {\n\"storage_type\": \"pickle\",\n\"scope\": \"SCENARIO:SCOPE\",\n\"default_data\": \"no_extraBin\"\n},\n\"PreRebinned\": {\n\"storage_type\": \"pickle\",\n\"scope\": \"SCENARIO:SCOPE\",\n\"default_data\": \"no_preRebinned\"\n},\n\"Ziso\": {\n\"storage_type\": \"csv\",\n\"scope\": \"SCENARIO:SCOPE\",\n\"exposed_type\": \"numpy\",\n\"encoding\": \"utf-8\",\n\"has_header\": \"True:bool\"\n},\n\"Ziso_x\": {\n\"storage_type\": \"csv\",\n\"scope\": \"SCENARIO:SCOPE\",\n\"exposed_type\": \"numpy\",\n\"encoding\": \"utf-8\",\n\"has_header\": \"True:bool\"\n},\n\"Ziso_y\": {\n\"storage_type\": \"csv\",\n\"scope\": \"SCENARIO:SCOPE\",\n\"exposed_type\": \"numpy\",\n\"encoding\": \"utf-8\",\n\"has_header\": \"True:bool\"\n},\n\"Ziso_xMeV\": {\n\"storage_type\": \"csv\",\n\"scope\": \"SCENARIO:SCOPE\",\n\"exposed_type\": \"numpy\",\n\"encoding\": \"utf-8\",\n\"has_header\": \"True:bool\"\n},\n\"ZisoStatUncorrCorr\": {\n\"storage_type\": \"csv\",\n\"scope\": \"SCENARIO:SCOPE\",\n\"exposed_type\": \"numpy\",\n\"encoding\": \"utf-8\",\n\"has_header\": \"True:bool\"\n},\n\"ZisoDecorr\": {\n\"storage_type\": \"csv\",\n\"scope\": \"SCENARIO:SCOPE\",\n\"exposed_type\": \"numpy\",\n\"encoding\": \"utf-8\",\n\"has_header\": \"True:bool\"\n},\n\"ZisoSystDecorr\": {\n\"storage_type\": \"csv\",\n\"scope\": \"SCENARIO:SCOPE\",\n\"exposed_type\": \"numpy\",\n\"encoding\": \"utf-8\",\n\"has_header\": \"True:bool\"\n},\n\"Zmass\": {\n\"storage_type\": \"csv\",\n\"scope\": \"SCENARIO:SCOPE\",\n\"exposed_type\": \"numpy\",\n\"encoding\": \"utf-8\",\n\"has_header\": \"True:bool\"\n},\n\"Zmass_x\": {\n\"storage_type\": \"csv\",\n\"scope\": \"SCENARIO:SCOPE\",\n\"exposed_type\": \"numpy\",\n\"encoding\": \"utf-8\",\n\"has_header\": \"True:bool\"\n},\n\"Zmass_y\": {\n\"storage_type\": \"csv\",\n\"scope\": \"SCENARIO:SCOPE\",\n\"exposed_type\": \"numpy\",\n\"encoding\": \"utf-8\",\n\"has_header\": \"True:bool\"\n},\n\"Zmass_xMeV\": {\n\"storage_type\": \"csv\",\n\"scope\": \"SCENARIO:SCOPE\",\n\"exposed_type\": \"numpy\",\n\"encoding\": \"utf-8\",\n\"has_header\": \"True:bool\"\n},\n\"ZmassStatUncorrCorr\": {\n\"storage_type\": \"csv\",\n\"scope\": \"SCENARIO:SCOPE\",\n\"exposed_type\": \"numpy\",\n\"encoding\": \"utf-8\",\n\"has_header\": \"True:bool\"\n},\n\"ZmassDecorr\": {\n\"storage_type\": \"csv\",\n\"scope\": \"SCENARIO:SCOPE\",\n\"exposed_type\": \"numpy\",\n\"encoding\": \"utf-8\",\n\"has_header\": \"True:bool\"\n},\n\"ZmassSystDecorr\": {\n\"storage_type\": \"csv\",\n\"scope\": \"SCENARIO:SCOPE\",\n\"exposed_type\": \"numpy\",\n\"encoding\": \"utf-8\",\n\"has_header\": \"True:bool\"\n},\n\"ZcombSystDecorr\": {\n\"storage_type\": \"csv\",\n\"scope\": \"SCENARIO:SCOPE\",\n\"exposed_type\": \"numpy\",\n\"encoding\": \"utf-8\",\n\"has_header\": \"True:bool\"\n},\n\"JpsiSystDecorr\": {\n\"storage_type\": \"csv\",\n\"scope\": \"SCENARIO:SCOPE\",\n\"exposed_type\": \"numpy\",\n\"encoding\": \"utf-8\",\n\"has_header\": \"True:bool\"\n},\n\"Zcomb_x\": {\n\"storage_type\": \"csv\",\n\"scope\": \"SCENARIO:SCOPE\",\n\"exposed_type\": \"numpy\",\n\"encoding\": \"utf-8\",\n\"has_header\": \"True:bool\"\n},\n\"Zcomb_y\": {\n\"storage_type\": \"csv\",\n\"scope\": \"SCENARIO:SCOPE\",\n\"exposed_type\": \"numpy\",\n\"encoding\": \"utf-8\",\n\"has_header\": \"True:bool\"\n},\n\"ZisoRebin\": {\n\"storage_type\": \"csv\",\n\"scope\": \"SCENARIO:SCOPE\",\n\"exposed_type\": \"numpy\",\n\"encoding\": \"utf-8\",\n\"has_header\": \"True:bool\"\n},\n\"Zisolo\": {\n\"storage_type\": \"csv\",\n\"scope\": \"SCENARIO:SCOPE\",\n\"exposed_type\": \"numpy\",\n\"encoding\": \"utf-8\",\n\"has_header\": \"True:bool\"\n},\n\"Zisohi\": {\n\"storage_type\": \"csv\",\n\"scope\": \"SCENARIO:SCOPE\",\n\"exposed_type\": \"numpy\",\n\"encoding\": \"utf-8\",\n\"has_header\": \"True:bool\"\n},\n\"ZisoRebinx\": {\n\"storage_type\": \"csv\",\n\"scope\": \"SCENARIO:SCOPE\",\n\"exposed_type\": \"numpy\",\n\"encoding\": \"utf-8\",\n\"has_header\": \"True:bool\"\n},\n\"ZisoRebiny\": {\n\"storage_type\": \"csv\",\n\"scope\": \"SCENARIO:SCOPE\",\n\"exposed_type\": \"numpy\",\n\"encoding\": \"utf-8\",\n\"has_header\": \"True:bool\"\n},\n\"Zisolox\": {\n\"storage_type\": \"csv\",\n\"scope\": \"SCENARIO:SCOPE\",\n\"exposed_type\": \"numpy\",\n\"encoding\": \"utf-8\",\n\"has_header\": \"True:bool\"\n},\n\"Zisoloy\": {\n\"storage_type\": \"csv\",\n\"scope\": \"SCENARIO:SCOPE\",\n\"exposed_type\": \"numpy\",\n\"encoding\": \"utf-8\",\n\"has_header\": \"True:bool\"\n},\n\"Zisohix\": {\n\"storage_type\": \"csv\",\n\"scope\": \"SCENARIO:SCOPE\",\n\"exposed_type\": \"numpy\",\n\"encoding\": \"utf-8\",\n\"has_header\": \"True:bool\"\n},\n\"Zisohiy\": {\n\"storage_type\": \"csv\",\n\"scope\": \"SCENARIO:SCOPE\",\n\"exposed_type\": \"numpy\",\n\"encoding\": \"utf-8\",\n\"has_header\": \"True:bool\"\n},\n\"ZmassRebin\": {\n\"storage_type\": \"csv\",\n\"scope\": \"SCENARIO:SCOPE\",\n\"exposed_type\": \"numpy\",\n\"encoding\": \"utf-8\",\n\"has_header\": \"True:bool\"\n},\n\"Zmasslo\": {\n\"storage_type\": \"csv\",\n\"scope\": \"SCENARIO:SCOPE\",\n\"exposed_type\": \"numpy\",\n\"encoding\": \"utf-8\",\n\"has_header\": \"True:bool\"\n},\n\"Zmasshi\": {\n\"storage_type\": \"csv\",\n\"scope\": \"SCENARIO:SCOPE\",\n\"exposed_type\": \"numpy\",\n\"encoding\": \"utf-8\",\n\"has_header\": \"True:bool\"\n},\n\"ZmassRebinx\": {\n\"storage_type\": \"csv\",\n\"scope\": \"SCENARIO:SCOPE\",\n\"exposed_type\": \"numpy\",\n\"encoding\": \"utf-8\",\n\"has_header\": \"True:bool\"\n},\n\"ZmassRebiny\": {\n\"storage_type\": \"csv\",\n\"scope\": \"SCENARIO:SCOPE\",\n\"exposed_type\": \"numpy\",\n\"encoding\": \"utf-8\",\n\"has_header\": \"True:bool\"\n},\n\"Zmasslox\": {\n\"storage_type\": \"csv\",\n\"scope\": \"SCENARIO:SCOPE\",\n\"exposed_type\": \"numpy\",\n\"encoding\": \"utf-8\",\n\"has_header\": \"True:bool\"\n},\n\"Zmassloy\": {\n\"storage_type\": \"csv\",\n\"scope\": \"SCENARIO:SCOPE\",\n\"exposed_type\": \"numpy\",\n\"encoding\": \"utf-8\",\n\"has_header\": \"True:bool\"\n},\n\"Zmasshix\": {\n\"storage_type\": \"csv\",\n\"scope\": \"SCENARIO:SCOPE\",\n\"exposed_type\": \"numpy\",\n\"encoding\": \"utf-8\",\n\"has_header\": \"True:bool\"\n},\n\"Zmasshiy\": {\n\"storage_type\": \"csv\",\n\"scope\": \"SCENARIO:SCOPE\",\n\"exposed_type\": \"numpy\",\n\"encoding\": \"utf-8\",\n\"has_header\": \"True:bool\"\n},\n\"ZcombRebin\": {\n\"storage_type\": \"csv\",\n\"scope\": \"SCENARIO:SCOPE\",\n\"exposed_type\": \"numpy\",\n\"encoding\": \"utf-8\",\n\"has_header\": \"True:bool\"\n},\n\"Zcomblo\": {\n\"storage_type\": \"csv\",\n\"scope\": \"SCENARIO:SCOPE\",\n\"exposed_type\": \"numpy\",\n\"encoding\": \"utf-8\",\n\"has_header\": \"True:bool\"\n},\n\"Zcombhi\": {\n\"storage_type\": \"csv\",\n\"scope\": \"SCENARIO:SCOPE\",\n\"exposed_type\": \"numpy\",\n\"encoding\": \"utf-8\",\n\"has_header\": \"True:bool\"\n},\n\"ZJpsicomb\": {\n\"storage_type\": \"csv\",\n\"scope\": \"SCENARIO:SCOPE\",\n\"exposed_type\": \"numpy\",\n\"encoding\": \"utf-8\",\n\"has_header\": \"True:bool\"\n},\n\"Jpsi\": {\n\"storage_type\": \"csv\",\n\"scope\": \"SCENARIO:SCOPE\",\n\"exposed_type\": \"numpy\",\n\"encoding\": \"utf-8\",\n\"has_header\": \"True:bool\"\n},\n\"Jpsi_x\": {\n\"storage_type\": \"csv\",\n\"scope\": \"SCENARIO:SCOPE\",\n\"exposed_type\": \"numpy\",\n\"encoding\": \"utf-8\",\n\"has_header\": \"True:bool\"\n},\n\"Jpsi_y\": {\n\"storage_type\": \"csv\",\n\"scope\": \"SCENARIO:SCOPE\",\n\"exposed_type\": \"numpy\",\n\"encoding\": \"utf-8\",\n\"has_header\": \"True:bool\"\n},\n\"Jpsi_xMeV\": {\n\"storage_type\": \"csv\",\n\"scope\": \"SCENARIO:SCOPE\",\n\"exposed_type\": \"numpy\",\n\"encoding\": \"utf-8\",\n\"has_header\": \"True:bool\"\n},\n\"ChiSquaredScore\": {\n\"storage_type\": \"pickle\",\n\"scope\": \"SCENARIO:SCOPE\"\n},\n\"ChiSquaredScoreEta\": {\n\"storage_type\": \"pickle\",\n\"scope\": \"SCENARIO:SCOPE\"\n},\n\"RemoveNeg\": {\n\"storage_type\": \"pickle\",\n\"scope\": \"SCENARIO:SCOPE\",\n\"default_data\": \"yes\"\n},\n\"ZisoPathPrebin\": {\n\"storage_type\": \"pickle\",\n\"scope\": \"SCENARIO:SCOPE\"\n},\n\"ZmassPathPrebin\": {\n\"storage_type\": \"pickle\",\n\"scope\": \"SCENARIO:SCOPE\"\n},\n\"JpsiPathPrebin\": {\n\"storage_type\": \"pickle\",\n\"scope\": \"SCENARIO:SCOPE\"\n},\n\"ZisoPrebin\": {\n\"storage_type\": \"csv\",\n\"scope\": \"SCENARIO:SCOPE\",\n\"exposed_type\": \"numpy\",\n\"encoding\": \"utf-8\",\n\"has_header\": \"True:bool\"\n},\n\"Ziso_xPrebin\": {\n\"storage_type\": \"csv\",\n\"scope\": \"SCENARIO:SCOPE\",\n\"exposed_type\": \"numpy\",\n\"encoding\": \"utf-8\",\n\"has_header\": \"True:bool\"\n},\n\"Ziso_yPrebin\": {\n\"storage_type\": \"csv\",\n\"scope\": \"SCENARIO:SCOPE\",\n\"exposed_type\": \"numpy\",\n\"encoding\": \"utf-8\",\n\"has_header\": \"True:bool\"\n},\n\"Ziso_xMeVPrebin\": {\n\"storage_type\": \"csv\",\n\"scope\": \"SCENARIO:SCOPE\",\n\"exposed_type\": \"numpy\",\n\"encoding\": \"utf-8\",\n\"has_header\": \"True:bool\"\n},\n\"ZisoStatUncorrCorrPrebin\": {\n\"storage_type\": \"csv\",\n\"scope\": \"SCENARIO:SCOPE\",\n\"exposed_type\": \"numpy\",\n\"encoding\": \"utf-8\",\n\"has_header\": \"True:bool\"\n},\n\"ZisoDecorrPrebin\": {\n\"storage_type\": \"csv\",\n\"scope\": \"SCENARIO:SCOPE\",\n\"exposed_type\": \"numpy\",\n\"encoding\": \"utf-8\",\n\"has_header\": \"True:bool\"\n},\n\"ZmassPrebin\": {\n\"storage_type\": \"csv\",\n\"scope\": \"SCENARIO:SCOPE\",\n\"exposed_type\": \"numpy\",\n\"encoding\": \"utf-8\",\n\"has_header\": \"True:bool\"\n},\n\"Zmass_xPrebin\": {\n\"storage_type\": \"csv\",\n\"scope\": \"SCENARIO:SCOPE\",\n\"exposed_type\": \"numpy\",\n\"encoding\": \"utf-8\",\n\"has_header\": \"True:bool\"\n},\n\"Zmass_yPrebin\": {\n\"storage_type\": \"csv\",\n\"scope\": \"SCENARIO:SCOPE\",\n\"exposed_type\": \"numpy\",\n\"encoding\": \"utf-8\",\n\"has_header\": \"True:bool\"\n},\n\"Zmass_xMeVPrebin\": {\n\"storage_type\": \"csv\",\n\"scope\": \"SCENARIO:SCOPE\",\n\"exposed_type\": \"numpy\",\n\"encoding\": \"utf-8\",\n\"has_header\": \"True:bool\"\n},\n\"ZmassStatUncorrCorrPrebin\": {\n\"storage_type\": \"csv\",\n\"scope\": \"SCENARIO:SCOPE\",\n\"exposed_type\": \"numpy\",\n\"encoding\": \"utf-8\",\n\"has_header\": \"True:bool\"\n},\n\"ZmassDecorrPrebin\": {\n\"storage_type\": \"csv\",\n\"scope\": \"SCENARIO:SCOPE\",\n\"exposed_type\": \"numpy\",\n\"encoding\": \"utf-8\",\n\"has_header\": \"True:bool\"\n},\n\"ZisoSystDecorrPrebin\": {\n\"storage_type\": \"csv\",\n\"scope\": \"SCENARIO:SCOPE\",\n\"exposed_type\": \"numpy\",\n\"encoding\": \"utf-8\",\n\"has_header\": \"True:bool\"\n},\n\"ZmassSystDecorrPrebin\": {\n\"storage_type\": \"csv\",\n\"scope\": \"SCENARIO:SCOPE\",\n\"exposed_type\": \"numpy\",\n\"encoding\": \"utf-8\",\n\"has_header\": \"True:bool\"\n},\n\"ZcombxPrebin\": {\n\"storage_type\": \"csv\",\n\"scope\": \"SCENARIO:SCOPE\",\n\"exposed_type\": \"numpy\",\n\"encoding\": \"utf-8\",\n\"has_header\": \"True:bool\"\n},\n\"ZcombyPrebin\": {\n\"storage_type\": \"csv\",\n\"scope\": \"SCENARIO:SCOPE\",\n\"exposed_type\": \"numpy\",\n\"encoding\": \"utf-8\",\n\"has_header\": \"True:bool\"\n}\n},\n\"TASK\": {\n\"default\": {\n\"function\": null,\n\"inputs\": [],\n\"outputs\": [],\n\"skippable\": \"False:bool\"\n},\n\"SetPaths\": {\n\"function\": \"algos.pathFinder.pathFinder:function\",\n\"inputs\": [\n\"Year:SECTION\"\n],\n\"outputs\": [\n\"ZisoPath:SECTION\",\n\"ZmassPath:SECTION\",\n\"JpsiPath:SECTION\"\n],\n\"skippable\": \"False:bool\"\n},\n\"readZiso\": {\n\"function\": \"algos.ziso.readZiso:function\",\n\"inputs\": [\n\"ZisoPath:SECTION\",\n\"WorkingPointID:SECTION\",\n\"Year:SECTION\"\n],\n\"outputs\": [\n\"Ziso:SECTION\",\n\"Ziso_x:SECTION\",\n\"Ziso_y:SECTION\"\n],\n\"skippable\": \"True:bool\"\n},\n\"convertGeVtoMeVZiso\": {\n\"function\": \"algos.ziso.convertGeVtoMeV:function\",\n\"inputs\": [\n\"Ziso_x:SECTION\"\n],\n\"outputs\": [\n\"Ziso_xMeV:SECTION\"\n],\n\"skippable\": \"True:bool\"\n},\n\"readZisoStat\": {\n\"function\": \"algos.ziso.readZisoStat:function\",\n\"inputs\": [\n\"ZisoPath:SECTION\",\n\"WorkingPointID:SECTION\"\n],\n\"outputs\": [\n\"ZisoStatUncorrCorr:SECTION\"\n],\n\"skippable\": \"True:bool\"\n},\n\"decorrelateStatZiso\": {\n\"function\": \"algos.correlation.decorrelateStat:function\",\n\"inputs\": [\n\"Ziso:SECTION\",\n\"ZisoStatUncorrCorr:SECTION\",\n\"Ziso_xMeV:SECTION\",\n\"Ziso_y:SECTION\"\n],\n\"outputs\": [\n\"ZisoDecorr:SECTION\"\n],\n\"skippable\": \"True:bool\"\n},\n\"readZmass\": {\n\"function\": \"algos.zmass.readZmass:function\",\n\"inputs\": [\n\"ZmassPath:SECTION\",\n\"WorkingPointID:SECTION\",\n\"Year:SECTION\"\n],\n\"outputs\": [\n\"Zmass:SECTION\",\n\"Zmass_x:SECTION\",\n\"Zmass_y:SECTION\"\n],\n\"skippable\": \"True:bool\"\n},\n\"convertGeVtoMeVZmass\": {\n\"function\": \"algos.ziso.convertGeVtoMeV:function\",\n\"inputs\": [\n\"Zmass_x:SECTION\"\n],\n\"outputs\": [\n\"Zmass_xMeV:SECTION\"\n],\n\"skippable\": \"True:bool\"\n},\n\"readZmassStat\": {\n\"function\": \"algos.zmass.readZmassStat:function\",\n\"inputs\": [\n\"ZmassPath:SECTION\",\n\"WorkingPointID:SECTION\"\n],\n\"outputs\": [\n\"ZmassStatUncorrCorr:SECTION\"\n],\n\"skippable\": \"True:bool\"\n},\n\"decorrelateStatZmass\": {\n\"function\": \"algos.correlation.decorrelateStat:function\",\n\"inputs\": [\n\"Zmass:SECTION\",\n\"ZmassStatUncorrCorr:SECTION\",\n\"Zmass_xMeV:SECTION\",\n\"Zmass_y:SECTION\"\n],\n\"outputs\": [\n\"ZmassDecorr:SECTION\"\n],\n\"skippable\": \"True:bool\"\n},\n\"consistentBinning\": {\n\"function\": \"algos.consistent.consistentBinning:function\",\n\"inputs\": [\n\"Zmass_xMeV:SECTION\",\n\"Zmass_y:SECTION\",\n\"Ziso_xMeV:SECTION\",\n\"Ziso_y:SECTION\"\n],\n\"outputs\": [\n\"Zcomb_x:SECTION\",\n\"Zcomb_y:SECTION\"\n],\n\"skippable\": \"True:bool\"\n},\n\"decorrelateSyst\": {\n\"function\": \"algos.correlation.decorrelateSyst:function\",\n\"inputs\": [\n\"ZmassDecorr:SECTION\",\n\"ZisoDecorr:SECTION\",\n\"Zcomb_x:SECTION\",\n\"Zcomb_y:SECTION\"\n],\n\"outputs\": [\n\"ZmassSystDecorr:SECTION\",\n\"ZisoSystDecorr:SECTION\"\n],\n\"skippable\": \"True:bool\"\n},\n\"rebinLowPtZiso\": {\n\"function\": \"algos.rebinLowPt.rebinlowpt:function\",\n\"inputs\": [\n\"ZisoSystDecorr:SECTION\",\n\"Zcomb_x:SECTION\",\n\"Zcomb_y:SECTION\",\n\"ZisoMethodName:SECTION\",\n\"RebinMethod:SECTION\"\n],\n\"outputs\": [\n\"ZisoRebin:SECTION\",\n\"ZisoRebinx:SECTION\",\n\"ZisoRebiny:SECTION\",\n\"Zisolo:SECTION\",\n\"Zisolox:SECTION\",\n\"Zisoloy:SECTION\",\n\"Zisohi:SECTION\",\n\"Zisohix:SECTION\",\n\"Zisohiy:SECTION\"\n],\n\"skippable\": \"True:bool\"\n},\n\"rebinLowPtZmass\": {\n\"function\": \"algos.rebinLowPt.rebinlowpt:function\",\n\"inputs\": [\n\"ZmassSystDecorr:SECTION\",\n\"Zcomb_x:SECTION\",\n\"Zcomb_y:SECTION\",\n\"ZmassMethodName:SECTION\",\n\"RebinMethod:SECTION\"\n],\n\"outputs\": [\n\"ZmassRebin:SECTION\",\n\"ZmassRebinx:SECTION\",\n\"ZmassRebiny:SECTION\",\n\"Zmasslo:SECTION\",\n\"Zmasslox:SECTION\",\n\"Zmassloy:SECTION\",\n\"Zmasshi:SECTION\",\n\"Zmasshix:SECTION\",\n\"Zmasshiy:SECTION\"\n],\n\"skippable\": \"True:bool\"\n},\n\"combineZmethodsRebin\": {\n\"function\": \"algos.combineZmethods.combineZmethods:function\",\n\"inputs\": [\n\"ZmassRebin:SECTION\",\n\"ZisoRebin:SECTION\",\n\"ZisoRebinx:SECTION\",\n\"ZisoRebiny:SECTION\"\n],\n\"outputs\": [\n\"ZcombRebin:SECTION\"\n],\n\"skippable\": \"True:bool\"\n},\n\"combineZmethodslo\": {\n\"function\": \"algos.combineZmethods.combineZmethods:function\",\n\"inputs\": [\n\"Zmasslo:SECTION\",\n\"Zisolo:SECTION\",\n\"Zisolox:SECTION\",\n\"Zisoloy:SECTION\"\n],\n\"outputs\": [\n\"Zcomblo:SECTION\"\n],\n\"skippable\": \"True:bool\"\n},\n\"combineZmethodshi\": {\n\"function\": \"algos.combineZmethods.combineZmethods:function\",\n\"inputs\": [\n\"Zmasshi:SECTION\",\n\"Zisohi:SECTION\",\n\"Zisohix:SECTION\",\n\"Zisohiy:SECTION\"\n],\n\"outputs\": [\n\"Zcombhi:SECTION\"\n],\n\"skippable\": \"True:bool\"\n},\n\"comparisonPlots_corruncorrRebin\": {\n\"function\": \"algos.compPlots.comparisonPlots_corruncorr:function\",\n\"inputs\": [\n\"RebinName:SECTION\",\n\"ZcombRebin:SECTION\",\n\"ZmassRebin:SECTION\",\n\"ZisoRebin:SECTION\",\n\"ZisoRebinx:SECTION\",\n\"ZisoRebiny:SECTION\",\n\"ZcombPlotLabels:SECTION\",\n\"PlotsLocation:SECTION\"\n],\n\"outputs\": [\n\"RebinPlotLoc:SECTION\"\n],\n\"skippable\": \"True:bool\"\n},\n\"comparisonPlots_corruncorrlo\": {\n\"function\": \"algos.compPlots.comparisonPlots_corruncorr:function\",\n\"inputs\": [\n\"LoName:SECTION\",\n\"Zcomblo:SECTION\",\n\"Zmasslo:SECTION\",\n\"Zisolo:SECTION\",\n\"Zisolox:SECTION\",\n\"Zisoloy:SECTION\",\n\"ZcombPlotLabels:SECTION\",\n\"PlotsLocation:SECTION\"\n],\n\"outputs\": [\n\"LoPlotLoc:SECTION\"\n],\n\"skippable\": \"True:bool\"\n},\n\"comparisonPlots_corruncorrhi\": {\n\"function\": \"algos.compPlots.comparisonPlots_corruncorr:function\",\n\"inputs\": [\n\"HiName:SECTION\",\n\"Zcombhi:SECTION\",\n\"Zmasshi:SECTION\",\n\"Zisohi:SECTION\",\n\"Zisohix:SECTION\",\n\"Zisohiy:SECTION\",\n\"ZcombPlotLabels:SECTION\",\n\"PlotsLocation:SECTION\"\n],\n\"outputs\": [\n\"HiPlotLoc:SECTION\"\n],\n\"skippable\": \"True:bool\"\n},\n\"readJpsi\": {\n\"function\": \"algos.jpsi.readJpsi:function\",\n\"inputs\": [\n\"JpsiPath:SECTION\",\n\"WorkingPointID:SECTION\",\n\"Year:SECTION\"\n],\n\"outputs\": [\n\"Jpsi:SECTION\",\n\"Jpsi_x:SECTION\",\n\"Jpsi_y:SECTION\"\n],\n\"skippable\": \"True:bool\"\n},\n\"convertGeVtoMeVJpsi\": {\n\"function\": \"algos.ziso.convertGeVtoMeV:function\",\n\"inputs\": [\n\"Jpsi_x:SECTION\"\n],\n\"outputs\": [\n\"Jpsi_xMeV:SECTION\"\n],\n\"skippable\": \"True:bool\"\n},\n\"decorrelateSystJpsi\": {\n\"function\": \"algos.correlation.decorrelateSyst:function\",\n\"inputs\": [\n\"ZcombRebin:SECTION\",\n\"Jpsi:SECTION\",\n\"Jpsi_xMeV:SECTION\",\n\"Jpsi_y:SECTION\"\n],\n\"outputs\": [\n\"ZcombSystDecorr:SECTION\",\n\"JpsiSystDecorr:SECTION\"\n],\n\"skippable\": \"True:bool\"\n},\n\"combineHera\": {\n\"function\": \"algos.combineZmethods.combineHera:function\",\n\"inputs\": [\n\"ZcombSystDecorr:SECTION\",\n\"JpsiSystDecorr:SECTION\",\n\"Jpsi_xMeV:SECTION\",\n\"Jpsi_y:SECTION\"\n],\n\"outputs\": [\n\"ZJpsicomb:SECTION\"\n],\n\"skippable\": \"True:bool\"\n},\n\"chiSquared\": {\n\"function\": \"algos.chi2.chi2:function\",\n\"inputs\": [\n\"ZcombSystDecorr:SECTION\",\n\"JpsiSystDecorr:SECTION\",\n\"ZJpsicomb:SECTION\",\n\"Jpsi_xMeV:SECTION\",\n\"Jpsi_y:SECTION\"\n],\n\"outputs\": [\n\"ChiSquaredScore:SECTION\",\n\"ChiSquaredScoreEta:SECTION\"\n],\n\"skippable\": \"True:bool\"\n},\n\"comparisonPlots\": {\n\"function\": \"algos.compPlots.comparisonPlots:function\",\n\"inputs\": [\n\"HiName:SECTION\",\n\"Zcombhi:SECTION\",\n\"Zmasshi:SECTION\",\n\"Zisohi:SECTION\",\n\"Zisohix:SECTION\",\n\"Zisohiy:SECTION\",\n\"ZcombPlotLabels:SECTION\",\n\"PlotsLocation:SECTION\"\n],\n\"outputs\": [\n\"HiPlotLoc:SECTION\"\n],\n\"skippable\": \"True:bool\"\n},\n\"comparisonPlots_corruncorrAll\": {\n\"function\": \"algos.compPlots.comparisonPlots_corruncorr:function\",\n\"inputs\": [\n\"AllName:SECTION\",\n\"ZJpsicomb:SECTION\",\n\"ZcombSystDecorr:SECTION\",\n\"JpsiSystDecorr:SECTION\",\n\"Jpsi_xMeV:SECTION\",\n\"Jpsi_y:SECTION\",\n\"AllcombPlotLabels:SECTION\",\n\"PlotsLocation:SECTION\"\n],\n\"outputs\": [\n\"HiPlotLoc:SECTION\"\n],\n\"skippable\": \"True:bool\"\n},\n\"SetPathsforPrebin\": {\n\"function\": \"algos.pathFinder.pathFinderPrebin:function\",\n\"inputs\": [\n\"Year:SECTION\",\n\"ExtraBin:SECTION\"\n],\n\"outputs\": [\n\"ZisoPathPrebin:SECTION\",\n\"ZmassPathPrebin:SECTION\",\n\"JpsiPathPrebin:SECTION\"\n],\n\"skippable\": \"False:bool\"\n},\n\"readJpsiPrebin\": {\n\"function\": \"algos.jpsi.readJpsi:function\",\n\"inputs\": [\n\"JpsiPathPrebin:SECTION\",\n\"WorkingPointID:SECTION\",\n\"Year:SECTION\"\n],\n\"outputs\": [\n\"Jpsi:SECTION\",\n\"Jpsi_x:SECTION\",\n\"Jpsi_y:SECTION\"\n],\n\"skippable\": \"True:bool\"\n},\n\"readZisoPrebin\": {\n\"function\": \"algos.ziso.readZiso:function\",\n\"inputs\": [\n\"ZisoPathPrebin:SECTION\",\n\"WorkingPointID:SECTION\",\n\"Year:SECTION\",\n\"RemoveNeg:SECTION\"\n],\n\"outputs\": [\n\"ZisoPrebin:SECTION\",\n\"Ziso_xPrebin:SECTION\",\n\"Ziso_yPrebin:SECTION\"\n],\n\"skippable\": \"True:bool\"\n},\n\"convertGeVtoMeVZisoPrebin\": {\n\"function\": \"algos.ziso.convertGeVtoMeV:function\",\n\"inputs\": [\n\"Ziso_xPrebin:SECTION\"\n],\n\"outputs\": [\n\"Ziso_xMeVPrebin:SECTION\"\n],\n\"skippable\": \"True:bool\"\n},\n\"readZisoStatPrebin\": {\n\"function\": \"algos.ziso.readZisoStat:function\",\n\"inputs\": [\n\"ZisoPathPrebin:SECTION\",\n\"WorkingPointID:SECTION\",\n\"RemoveNeg:SECTION\"\n],\n\"outputs\": [\n\"ZisoStatUncorrCorrPrebin:SECTION\"\n],\n\"skippable\": \"True:bool\"\n},\n\"decorrelateStatZisoPrebin\": {\n\"function\": \"algos.correlation.decorrelateStat:function\",\n\"inputs\": [\n\"ZisoPrebin:SECTION\",\n\"ZisoStatUncorrCorrPrebin:SECTION\",\n\"Ziso_xMeVPrebin:SECTION\",\n\"Ziso_yPrebin:SECTION\"\n],\n\"outputs\": [\n\"ZisoDecorrPrebin:SECTION\"\n],\n\"skippable\": \"True:bool\"\n},\n\"readZmassPrebin\": {\n\"function\": \"algos.zmass.readZmass:function\",\n\"inputs\": [\n\"ZmassPathPrebin:SECTION\",\n\"WorkingPointID:SECTION\",\n\"Year:SECTION\",\n\"RemoveNeg:SECTION\"\n],\n\"outputs\": [\n\"ZmassPrebin:SECTION\",\n\"Zmass_xPrebin:SECTION\",\n\"Zmass_yPrebin:SECTION\"\n],\n\"skippable\": \"True:bool\"\n},\n\"convertGeVtoMeVZmassPrebin\": {\n\"function\": \"algos.ziso.convertGeVtoMeV:function\",\n\"inputs\": [\n\"Zmass_xPrebin:SECTION\"\n],\n\"outputs\": [\n\"Zmass_xMeVPrebin:SECTION\"\n],\n\"skippable\": \"True:bool\"\n},\n\"readZmassStatPrebin\": {\n\"function\": \"algos.zmass.readZmassStat:function\",\n\"inputs\": [\n\"ZmassPathPrebin:SECTION\",\n\"WorkingPointID:SECTION\",\n\"RemoveNeg:SECTION\"\n],\n\"outputs\": [\n\"ZmassStatUncorrCorrPrebin:SECTION\"\n],\n\"skippable\": \"True:bool\"\n},\n\"decorrelateStatZmassPrebin\": {\n\"function\": \"algos.correlation.decorrelateStat:function\",\n\"inputs\": [\n\"ZmassPrebin:SECTION\",\n\"ZmassStatUncorrCorrPrebin:SECTION\",\n\"Zmass_xMeVPrebin:SECTION\",\n\"Zmass_yPrebin:SECTION\"\n],\n\"outputs\": [\n\"ZmassDecorrPrebin:SECTION\"\n],\n\"skippable\": \"True:bool\"\n},\n\"consistentBinningPrebin\": {\n\"function\": \"algos.consistent.consistentBinning:function\",\n\"inputs\": [\n\"Zmass_xMeVPrebin:SECTION\",\n\"Zmass_yPrebin:SECTION\",\n\"Ziso_xMeVPrebin:SECTION\",\n\"Ziso_yPrebin:SECTION\"\n],\n\"outputs\": [\n\"ZcombxPrebin:SECTION\",\n\"ZcombyPrebin:SECTION\"\n],\n\"skippable\": \"True:bool\"\n},\n\"decorrelateSystPrebin\": {\n\"function\": \"algos.correlation.decorrelateSyst:function\",\n\"inputs\": [\n\"ZmassDecorrPrebin:SECTION\",\n\"ZisoDecorrPrebin:SECTION\",\n\"ZcombxPrebin:SECTION\",\n\"ZcombyPrebin:SECTION\"\n],\n\"outputs\": [\n\"ZmassSystDecorrPrebin:SECTION\",\n\"ZisoSystDecorrPrebin:SECTION\"\n],\n\"skippable\": \"True:bool\"\n},\n\"combineZmethodsRebinPrebin\": {\n\"function\": \"algos.combineZmethods.combineZmethods:function\",\n\"inputs\": [\n\"ZmassSystDecorrPrebin:SECTION\",\n\"ZisoSystDecorrPrebin:SECTION\",\n\"ZcombxPrebin:SECTION\",\n\"ZcombyPrebin:SECTION\"\n],\n\"outputs\": [\n\"ZcombRebin:SECTION\"\n],\n\"skippable\": \"True:bool\"\n},\n\"comparisonPlots_corruncorrRebinPrebin\": {\n\"function\": \"algos.compPlots.comparisonPlots_corruncorr:function\",\n\"inputs\": [\n\"RebinName:SECTION\",\n\"ZcombRebin:SECTION\",\n\"ZmassSystDecorrPrebin:SECTION\",\n\"ZisoSystDecorrPrebin:SECTION\",\n\"ZcombxPrebin:SECTION\",\n\"ZcombyPrebin:SECTION\",\n\"ZcombPlotLabels:SECTION\",\n\"PlotsLocation:SECTION\"\n],\n\"outputs\": [\n\"RebinPlotLoc:SECTION\"\n],\n\"skippable\": \"True:bool\"\n}\n},\n\"SCENARIO\": {\n\"default\": {\n\"comparators\": {},\n\"tasks\": [],\n\"additional_data_nodes\": [],\n\"frequency\": null,\n\"sequences\": {}\n},\n\"my_scenario\": {\n\"comparators\": {},\n\"tasks\": [\n\"readZisoStat:SECTION\",\n\"decorrelateStatZiso:SECTION\",\n\"readZmass:SECTION\",\n\"convertGeVtoMeVZmass:SECTION\",\n\"readZmassStat:SECTION\",\n\"decorrelateStatZmass:SECTION\",\n\"consistentBinning:SECTION\",\n\"decorrelateSyst:SECTION\",\n\"rebinLowPtZiso:SECTION\",\n\"rebinLowPtZmass:SECTION\",\n\"combineZmethodsRebin:SECTION\",\n\"combineZmethodslo:SECTION\",\n\"combineZmethodshi:SECTION\",\n\"comparisonPlots_corruncorrRebin:SECTION\",\n\"readJpsi:SECTION\",\n\"convertGeVtoMeVJpsi:SECTION\",\n\"decorrelateSystJpsi:SECTION\",\n\"combineHera:SECTION\",\n\"chiSquared:SECTION\",\n\"comparisonPlots_corruncorrAll:SECTION\",\n\"SetPaths:SECTION\",\n\"readZiso:SECTION\",\n\"convertGeVtoMeVZiso:SECTION\"\n],\n\"additional_data_nodes\": [],\n\"frequency\": null,\n\"sequences\": {}\n},\n\"prebinnedScenario\": {\n\"comparators\": {},\n\"tasks\": [\n\"readZisoStat:SECTION\",\n\"decorrelateStatZiso:SECTION\",\n\"readZmass:SECTION\",\n\"convertGeVtoMeVZmass:SECTION\",\n\"readZmassStat:SECTION\",\n\"decorrelateStatZmass:SECTION\",\n\"consistentBinning:SECTION\",\n\"decorrelateSyst:SECTION\",\n\"rebinLowPtZiso:SECTION\",\n\"rebinLowPtZmass:SECTION\",\n\"combineZmethodslo:SECTION\",\n\"combineZmethodshi:SECTION\",\n\"convertGeVtoMeVJpsi:SECTION\",\n\"decorrelateSystJpsi:SECTION\",\n\"combineHera:SECTION\",\n\"chiSquared:SECTION\",\n\"SetPathsforPrebin:SECTION\",\n\"readJpsiPrebin:SECTION\",\n\"readZisoPrebin:SECTION\",\n\"convertGeVtoMeVZisoPrebin:SECTION\",\n\"readZisoStatPrebin:SECTION\",\n\"decorrelateStatZisoPrebin:SECTION\",\n\"readZmassPrebin:SECTION\",\n\"convertGeVtoMeVZmassPrebin:SECTION\",\n\"readZmassStatPrebin:SECTION\",\n\"decorrelateStatZmassPrebin:SECTION\",\n\"consistentBinningPrebin:SECTION\",\n\"decorrelateSystPrebin:SECTION\",\n\"combineZmethodsRebinPrebin:SECTION\",\n\"SetPaths:SECTION\",\n\"readZiso:SECTION\",\n\"convertGeVtoMeVZiso:SECTION\"\n],\n\"additional_data_nodes\": [],\n\"frequency\": null,\n\"sequences\": {}\n}\n}\n}",
"creation_date": "2024-01-29T18:42:39.795299"
}