,fraction_NP,events_P,events_NP,bin_pt_lo,bin_pt_hi,bin_primary_cluster_be2_abseta_lo,bin_primary_cluster_be2_abseta_hi
0,0.48107121839552996,2864.787531837587,2655.791848978375,4.5,7.0,0.0,0.1
1,0.4579231199524655,19658.735510634117,16606.850117939914,4.5,7.0,0.1,0.8
2,0.4639407447030277,8853.731195940905,7662.598124846612,4.5,7.0,0.8,1.37
3,0.4534676116188089,669.0698262418238,555.139096167302,4.5,7.0,1.37,1.52
4,0.43786783702925136,4016.9524387998235,3128.969291725408,4.5,7.0,1.52,2.01
5,0.47455692755080686,1173.9062000738695,1060.220124214816,4.5,7.0,2.01,2.37
6,0.0,0.0,0.0,4.5,7.0,2.37,2.47
7,0.5322900013571764,2072.579245640418,2358.754811049667,7.0,10.0,0.0,0.1
8,0.5276028176762128,14168.875904125303,15824.689752694745,7.0,10.0,0.1,0.8
9,0.5190154205178495,7548.012546073865,8144.824330734936,7.0,10.0,0.8,1.37
10,0.4875572773887127,834.7529331084294,794.2153325637323,7.0,10.0,1.37,1.52
11,0.5220880054672007,3606.762949579735,3940.1557108436355,7.0,10.0,1.52,2.01
12,0.6192421519809419,448.75766115805766,729.8330454886401,7.0,10.0,2.01,2.37
13,0.0,0.0,0.0,7.0,10.0,2.37,2.47
14,0.5124283220928366,6619.25119084314,6956.703875405572,10.0,15.0,0.0,0.1
15,0.5144596158857682,45089.78725035857,47775.37644269978,10.0,15.0,0.1,0.8
16,0.49616432437383007,23984.94055502309,23619.748265820068,10.0,15.0,0.8,1.37
17,0.5475647910432072,3243.6761344711745,3925.695457873097,10.0,15.0,1.37,1.52
18,0.48448831104578877,13004.181914410596,12221.593161206853,10.0,15.0,1.52,2.01
19,0.5157554298119954,1070.9620824652986,1140.6519415174691,10.0,15.0,2.01,2.37
20,0.0,0.0,0.0,10.0,15.0,2.37,2.47
21,0.5277964866725602,5895.598833177155,6589.6933486473645,15.0,20.0,0.0,0.1
22,0.521022402830904,40222.33274910235,43753.061897387655,15.0,20.0,0.1,0.8
23,0.5168904131097273,21978.038556517025,23514.825077151316,15.0,20.0,0.8,1.37
24,0.5387171439830265,3367.4581384937087,3932.744100910131,15.0,20.0,1.37,1.52
25,0.49323919523551274,11961.576861512502,11642.412928249441,15.0,20.0,1.52,2.01
26,0.5617239432255612,676.5440754712489,867.1041914461383,15.0,20.0,2.01,2.37
27,0.0,0.0,0.0,15.0,20.0,2.37,2.47
