,bin_pt_lo,bin_pt_hi,bin_primary_cluster_be2_abseta_lo,bin_primary_cluster_be2_abseta_hi,eff,eff_statup,eff_statdown,nb_events_num,nb_events_num_statup,nb_events_num_statdown,nb_events_den,nb_events_den_statup,nb_events_den_statdown,chi2_num,chi2_num_statup,chi2_num_statdown,chi2_den,chi2_den_statup,chi2_den_statdown
0,4.5,7.0,0.0,0.1,0.8499247013817972,0.09631188533313487,-0.09631188533313487,2800.134916716182,50.27050878082989,-50.27050878082989,3474.7296441321596,55.214085901529984,-55.214085901529984,2.919712495941702,0.0,0.0,3.0332641056209155,0.0,0.0
1,4.5,7.0,0.1,0.8,0.807085922955498,0.013951525473013565,-0.013951525473013565,18713.88032866085,128.25360781453435,-128.25360781453435,23009.50420984391,139.88514285217917,-139.88514285217917,1.3981736070178243,0.0,0.0,1.764623286093519,0.0,0.0
2,4.5,7.0,0.8,1.37,0.6869176182932732,0.05051242872374206,-0.05051242872374206,6415.826274196935,71.21043387252683,-71.21043387252683,9018.231258340156,83.00507195850118,-83.00507195850118,1.4097013836642927,0.0,0.0,30.628819964778963,0.0,0.0
3,4.5,7.0,1.37,1.52,0.43515080152719704,0.1061065015171661,-0.1061065015171661,290.1809384139621,14.257425139421978,-14.257425139421978,601.249367783524,20.236891065185436,-20.236891065185436,1.8348639070820938,0.0,0.0,0.8391122321662117,0.0,0.0
4,4.5,7.0,1.52,2.01,0.7672844685494686,0.02854090538635185,-0.02854090538635185,3869.6871860451747,55.863636497929846,-55.863636497929846,5112.582759156319,62.35628763041203,-62.35628763041203,1.937032976312651,0.0,0.0,1.5577216321792025,0.0,0.0
5,4.5,7.0,2.01,2.37,0.7494360518520821,0.023099737177016078,-0.023099737177016078,3653.1995170303803,56.99044736049554,-56.99044736049554,4811.748485953062,63.84558411859637,-63.84558411859637,1.3000416157754995,0.0,0.0,1.1856061015564836,0.0,0.0
6,4.5,7.0,2.37,2.47,0.783321469832276,0.13250951070207417,-0.13250951070207417,660.9459477920458,24.40932788395566,-24.40932788395566,843.7735632773691,27.098576234605275,-27.098576234605275,1.9551121265013922,0.0,0.0,2.4517869827374152,0.0,0.0
7,7.0,10.0,0.0,0.1,0.8314222123777029,0.04980877797141753,-0.04980877797141753,2128.8035616469356,43.78327536831212,-43.78327536831212,2670.312812527148,47.75820649311476,-47.75820649311476,1.0635688752820358,0.0,0.0,1.338312553819948,0.0,0.0
8,7.0,10.0,0.1,0.8,0.8000179582964929,0.02799747385391726,-0.02799747385391726,14773.781308374499,114.47307835496632,-114.47307835496632,18030.509347001498,123.64125081441627,-123.64125081441627,1.2151784269988906,0.0,0.0,2.309727595277516,0.0,0.0
9,7.0,10.0,0.8,1.37,0.8066667851561847,0.008636529463880561,-0.008636529463880561,6953.190011697557,74.84056530478011,-74.84056530478011,8632.64697962378,81.5997953411339,-81.5997953411339,2.079028507698444,0.0,0.0,1.5441284926622254,0.0,0.0
10,7.0,10.0,1.37,1.52,0.5435684992174629,0.06569046598664545,-0.06569046598664545,468.9557217026046,19.017240718769006,-19.017240718769006,815.2950573445099,23.49104114558311,-23.49104114558311,1.4834822476538372,0.0,0.0,1.9046890218064991,0.0,0.0
11,7.0,10.0,1.52,2.01,0.7761286080272307,0.011699360812105658,-0.011699360812105658,3353.528542948304,51.58794104398924,-51.58794104398924,4322.652567860983,56.76163842572724,-56.76163842572724,1.9179738991036308,0.0,0.0,1.4408449866898287,0.0,0.0
12,7.0,10.0,2.01,2.37,0.7607156164304564,0.03564510772685415,-0.03564510772685415,2593.8147072248485,48.79495176223141,-48.79495176223141,3288.7577458056408,54.2606811230214,-54.2606811230214,2.020030914938241,0.0,0.0,3.5616809252099597,0.0,0.0
13,7.0,10.0,2.37,2.47,0.8521895872972161,0.15610010838452354,-0.15610010838452354,480.6263029712263,20.87226366481784,-20.87226366481784,563.9898798758726,22.44039953630471,-22.44039953630471,5.821155363325716,0.0,0.0,1.3420015302734443,0.0,0.0
14,10.0,15.0,0.0,0.1,0.8172438263514409,0.019339387857515735,-0.019339387857515735,7979.434991830948,85.5528197223249,-85.5528197223249,9922.610741840455,93.63797865014509,-93.63797865014509,1.772945589178098,0.0,0.0,1.5538871126841276,0.0,0.0
15,10.0,15.0,0.1,0.8,0.8298640540958242,0.01791344056547383,-0.01791344056547383,56278.19893933555,225.6300638831603,-225.6300638831603,66753.40937190718,241.9651573236265,-241.9651573236265,3.48066625963081,0.0,0.0,5.701537283314376,0.0,0.0
16,10.0,15.0,0.8,1.37,0.7813152857010355,0.05291673796659054,-0.05291673796659054,26232.591208853,148.00894395716242,-148.00894395716242,32130.66387671582,161.16718943368818,-161.16718943368818,1.7234937247785893,0.0,0.0,1.8103160186331497,0.0,0.0
17,10.0,15.0,1.37,1.52,0.6041046166020037,0.01409398075187912,-0.01409398075187912,2161.38514739794,38.974757252627484,-38.974757252627484,3531.441320005717,49.002323202853184,-49.002323202853184,1.6310008836099705,0.0,0.0,1.5577080513962909,0.0,0.0
18,10.0,15.0,1.52,2.01,0.8187085390362108,0.03108990040640265,-0.03108990040640265,14980.054635223942,110.60758748433122,-110.60758748433122,17913.058886183484,118.91568593912655,-118.91568593912655,1.6192780053211389,0.0,0.0,1.9414321415220974,0.0,0.0
19,10.0,15.0,2.01,2.37,0.7990371058832837,0.04390005269006859,-0.04390005269006859,11143.466955053136,102.07932094421187,-102.07932094421187,13452.379453719928,111.03243832590184,-111.03243832590184,1.483958781540251,0.0,0.0,2.071154236212822,0.0,0.0
20,10.0,15.0,2.37,2.47,0.9586779127878381,0.02877682550814872,-0.02877682550814872,2035.2976859282865,43.68118336611252,-43.68118336611252,2123.025532120204,44.46451791830041,-44.46451791830041,2.045003593347804,0.0,0.0,1.8709955406495364,0.0,0.0
21,15.0,20.0,0.0,0.1,0.7996914912344016,0.0090691023883015,-0.0090691023883015,7905.523259239186,86.09132609329318,-86.09132609329318,9853.384054935057,95.10687099612764,-95.10687099612764,2.011968077034323,0.0,0.0,1.9476031839667416,0.0,0.0
22,15.0,20.0,0.1,0.8,0.8136309700654574,0.026864046407062275,-0.026864046407062275,55453.146271416386,226.5965875119238,-226.5965875119238,66310.71979641059,245.30174778564526,-245.30174778564526,2.5566203934496157,0.0,0.0,4.4856567505888325,0.0,0.0
23,15.0,20.0,0.8,1.37,0.7938674586665304,0.025977685109191583,-0.025977685109191583,26877.577053137644,152.43699599806868,-152.43699599806868,33073.359353927146,167.56978183276095,-167.56978183276095,1.3577113818285114,0.0,0.0,1.5297021308917644,0.0,0.0
24,15.0,20.0,1.37,1.52,0.7031198807693101,0.05349084586559148,-0.05349084586559148,3078.891006386108,47.39991244168508,-47.39991244168508,4163.584712979044,54.32988451579804,-54.32988451579804,0.8600610481124,0.0,0.0,0.8674371013003924,0.0,0.0
25,15.0,20.0,1.52,2.01,0.8365530301840857,0.018318812850062857,-0.018318812850062857,15505.330454228437,114.6705184540688,-114.6705184540688,18304.940753750594,123.14180743102646,-123.14180743102646,0.9825148731527704,0.0,0.0,1.7918785646353754,0.0,0.0
26,15.0,20.0,2.01,2.37,0.7824758837188488,0.06243535379400857,-0.06243535379400857,11935.014627166096,106.20638967151017,-106.20638967151017,14168.654162070048,114.63748839479788,-114.63748839479788,1.4327770894361693,0.0,0.0,2.0013265068185597,0.0,0.0
27,15.0,20.0,2.37,2.47,0.9042495898975659,0.09573252436835515,-0.09573252436835515,2009.679326107656,43.7594197208021,-43.7594197208021,2222.4829831941797,45.69686968297435,-45.69686968297435,2.014227951158279,0.0,0.0,1.5484150505940129,0.0,0.0
