,bin_pt_lo,bin_pt_hi,bin_primary_cluster_be2_abseta_lo,bin_primary_cluster_be2_abseta_hi,eff,eff_statup,eff_statdown,nb_events_num,nb_events_num_statup,nb_events_num_statdown,nb_events_den,nb_events_den_statup,nb_events_den_statdown,chi2_num,chi2_num_statup,chi2_num_statdown,chi2_den,chi2_den_statup,chi2_den_statdown
0,4.5,7.0,0.0,0.1,0.6345573539068861,0.05143182002268394,-0.05143182002268394,2261.923635752401,45.41940178295445,-45.41940178295445,3716.684857093081,57.060290072838036,-57.060290072838036,2.3060926039766403,0.0,0.0,3.42552662158436,0.0,0.0
1,4.5,7.0,0.1,0.8,0.6409781394999278,0.013301595512265152,-0.013301595512265152,15896.642973102467,118.53235238575628,-118.53235238575628,24577.143479163435,144.4098577311546,-144.4098577311546,1.5491461141851668,0.0,0.0,1.965914430561514,0.0,0.0
2,4.5,7.0,0.8,1.37,0.4825176367805387,0.032422515260290816,-0.032422515260290816,4878.690180137927,62.2487359075801,-62.2487359075801,9790.976198412198,86.25536303714887,-86.25536303714887,1.5312552851944174,0.0,0.0,41.20162804254324,0.0,0.0
3,4.5,7.0,1.37,1.52,0.3996229221341675,0.1122696591934653,-0.1122696591934653,288.12812658909763,14.045044882606957,-14.045044882606957,639.8214492678627,20.78979697752374,-20.78979697752374,1.592182432057837,0.0,0.0,0.9142851180261482,0.0,0.0
4,4.5,7.0,1.52,2.01,0.6173733747639871,0.04213595360400076,-0.04213595360400076,3350.6966086392454,52.485918145786094,-52.485918145786094,5566.653521293203,65.0204189137248,-65.0204189137248,1.7037689777187566,0.0,0.0,1.5138903537041273,0.0,0.0
5,4.5,7.0,2.01,2.37,0.5345507504736388,0.03678891273675191,-0.03678891273675191,2898.1361494931134,50.91290067531137,-50.91290067531137,5257.71411693735,66.65972289553707,-66.65972289553707,1.1181432065568266,0.0,0.0,1.3374169371101503,0.0,0.0
6,4.5,7.0,2.37,2.47,0.46487212839963576,0.11262671358211873,-0.11262671358211873,421.63222745571096,19.418709077127517,-19.418709077127517,906.9853873735514,28.07605489325699,-28.07605489325699,1.2588077225104677,0.0,0.0,2.203214275752341,0.0,0.0
7,7.0,10.0,0.0,0.1,0.5870880447666595,0.024657081155503233,-0.024657081155503233,1717.1311120565697,39.62649899735293,-39.62649899735293,2854.9497508976287,49.319877774068516,-49.319877774068516,0.9728297380771228,0.0,0.0,1.5627053337949959,0.0,0.0
8,7.0,10.0,0.1,0.8,0.6245738951085362,0.055006837927713964,-0.055006837927713964,12739.01364382488,106.9191319985786,-106.9191319985786,19240.362015671482,127.65081334285873,-127.65081334285873,1.0646648088239121,0.0,0.0,2.549884052315467,0.0,0.0
9,7.0,10.0,0.8,1.37,0.5967338262357472,0.03329271826415212,-0.03329271826415212,5726.016547081833,68.47759947636236,-68.47759947636236,9248.483574615306,84.41234394905857,-84.41234394905857,1.6216235869072726,0.0,0.0,1.8014850167883831,0.0,0.0
10,7.0,10.0,1.37,1.52,0.562893032523675,0.03752578632024008,-0.03752578632024008,537.1436216993501,20.36342456785549,-20.36342456785549,926.5240355287696,25.803813745778783,-25.803813745778783,1.3418021275456793,0.0,0.0,1.0946252845542197,0.0,0.0
11,7.0,10.0,1.52,2.01,0.5583565848043622,0.04318960259042399,-0.04318960259042399,2746.6069995753737,47.10815911846206,-47.10815911846206,4717.930418724681,59.397452486336825,-59.397452486336825,1.8246616166441243,0.0,0.0,1.5822196076085773,0.0,0.0
12,7.0,10.0,2.01,2.37,0.6246469407497071,0.011946342540920949,-0.011946342540920949,2226.6099809816287,45.338227184853054,-45.338227184853054,3546.813216187457,56.22300804103545,-56.22300804103545,2.2704416639689433,0.0,0.0,4.13305400567201,0.0,0.0
13,7.0,10.0,2.37,2.47,0.6741447434999962,0.04152033085132821,-0.04152033085132821,401.4610654172915,19.125869144880575,-19.125869144880575,595.5116750343597,23.011987766999574,-23.011987766999574,3.0134422400786325,0.0,0.0,1.4495045879598925,0.0,0.0
14,10.0,15.0,0.0,0.1,0.6549168207019164,0.009047741269754156,-0.009047741269754156,6986.12479947025,80.51665182871353,-80.51665182871353,10601.14021813815,96.73608895421881,-96.73608895421881,1.462775990738721,0.0,0.0,1.5533119093981218,0.0,0.0
15,10.0,15.0,0.1,0.8,0.6896713208399529,0.032587862620628946,-0.032587862620628946,51059.848471034,216.0816344297236,-216.0816344297236,71557.47608494922,250.65125994959334,-250.65125994959334,3.204732812036147,0.0,0.0,5.866663356890768,0.0,0.0
16,10.0,15.0,0.8,1.37,0.631278665861218,0.06226201862888654,-0.06226201862888654,23222.095306246047,140.0240374224563,-140.0240374224563,34588.37913348692,167.33637800278692,-167.33637800278692,2.127020984584787,0.0,0.0,2.0187759150566564,0.0,0.0
17,10.0,15.0,1.37,1.52,0.6021978044477853,0.01690482488958348,-0.01690482488958348,2321.1751949628488,40.66429706342579,-40.66429706342579,3788.307614356114,50.86703321434569,-50.86703321434569,1.5484355278802888,0.0,0.0,1.4838663273620634,0.0,0.0
18,10.0,15.0,1.52,2.01,0.6947664589180498,0.021755798054885922,-0.021755798054885922,13613.414773021865,106.05406090009419,-106.05406090009419,19253.167593291928,123.38497567186668,-123.38497567186668,1.4426631813331998,0.0,0.0,2.0050217006357505,0.0,0.0
19,10.0,15.0,2.01,2.37,0.6354122121798996,0.0689850860758881,-0.0689850860758881,9793.070878780833,95.90867275296034,-95.90867275296034,14428.559019294265,114.9286922457434,-114.9286922457434,1.389432401428432,0.0,0.0,2.246912655308183,0.0,0.0
20,10.0,15.0,2.37,2.47,0.6706910975226649,0.21431180297430458,-0.21431180297430458,1510.8520371407242,37.844241771869825,-37.844241771869825,2252.679426820135,45.77928707705323,-45.77928707705323,1.757621171749236,0.0,0.0,1.6730325166410835,0.0,0.0
21,15.0,20.0,0.0,0.1,0.630272278809693,0.05528057749441944,-0.05528057749441944,7570.051238147297,84.54531937714371,-84.54531937714371,11170.140845279306,101.32368595849978,-101.32368595849978,3.2795800893017626,0.0,0.0,1.9327494368635334,0.0,0.0
22,15.0,20.0,0.1,0.8,0.6832271129379534,0.0464934216022926,-0.0464934216022926,54214.787142855836,224.8539356678353,-224.8539356678353,75261.7166393371,261.68856332539764,-261.68856332539764,2.5142975628003077,0.0,0.0,4.766484330320156,0.0,0.0
23,15.0,20.0,0.8,1.37,0.6741409187585984,0.05549625523491831,-0.05549625523491831,27091.830165898264,153.83210805771225,-153.83210805771225,37930.40118552054,180.07758012355282,-180.07758012355282,1.585967297459202,0.0,0.0,1.877584573704919,0.0,0.0
24,15.0,20.0,1.37,1.52,0.6307507942182489,0.06577177912234179,-0.06577177912234179,3147.8226242647356,48.27213557942801,-48.27213557942801,4661.8999915570785,57.67533315485728,-57.67533315485728,0.8548917199701365,0.0,0.0,0.7951758350902978,0.0,0.0
25,15.0,20.0,1.52,2.01,0.7197094291705024,0.05595947019351366,-0.05595947019351366,15409.01110071,114.977649132793,-114.977649132793,20456.1362568076,130.38543051245924,-130.38543051245924,1.1990969193550505,0.0,0.0,1.810558748119056,0.0,0.0
26,15.0,20.0,2.01,2.37,0.6678937669944353,0.08560142882201513,-0.08560142882201513,11522.35685856404,104.51038476699748,-104.51038476699748,15564.926938058781,120.15678289599727,-120.15678289599727,1.8753594093520067,0.0,0.0,1.9934086307017773,0.0,0.0
27,15.0,20.0,2.37,2.47,0.7679715157634507,0.3225035638492243,-0.3225035638492243,1842.1868973151659,42.0210177786313,-42.0210177786313,2398.7698234925074,47.4391350401045,-47.4391350401045,1.472515650116852,0.0,0.0,1.347040445987308,0.0,0.0
