0,1,2
0.9612733858428548,0.0063402690467767985,0.007077231139084756
0.9836081740687654,0.002592152204311184,0.0028311111958028044
1.0312512634569269,0.0033566996585168785,0.0036312490095825453
1.0232418894969773,0.006358258940600041,0.006918455186931687
1.011182701570585,0.003069199510459478,0.0034050719429369403
0.9755709507046637,0.0030702188160356375,0.0035507895744449915
0.8757838923252232,0.005383049874037812,0.00639292896632518
