0,1,2
0.7948349597597927,0.004977004773734598,0.00654751739325656
0.9475548548921634,0.002996310246908929,0.0036004529665264796
0.9432383432382929,0.00388538829255797,0.004640330116303751
0.9469333182016203,0.004079942989343713,0.004108739789388874
0.9470260615669722,0.007379676721088465,0.006569413362495468
0.928011543612568,0.0051766744918386,0.004796585900184966
0.9292650573371887,0.0037673746246673265,0.0038211518208576076
0.9382773572577631,0.0045457892438152915,0.004795626269411928
0.9452295481734767,0.002621708158399694,0.002862037119501928
0.9651551826487065,0.005799734868225885,0.006679193932868382
0.9489373585936647,0.005525143129868122,0.006647820031700687
0.9454812495863707,0.002672541169736983,0.002879314072157025
0.9328288405994845,0.004474916769392588,0.0047551984016110235
0.922701743493707,0.0037914976026502665,0.0038541282648307503
0.9159764511315254,0.004972300106620917,0.004735136584583144
0.9629648264887454,0.00748691597365921,0.006585328005614932
0.9449177612939964,0.004055854264052805,0.004063456644030725
0.9641807450228179,0.0040613443972926724,0.004714694984056039
0.9582121373876918,0.003087708941710604,0.003573301686494937
0.9021487500164319,0.005762882045066744,0.006706262730788718
0.8473010554237611,0.0012960825897420792,0.003877788629649791
0.9729600762478469,0.0014766496212307825,0.002189075278258604
0.9655805751932717,0.0016324004356561457,0.00279815351307377
0.936421200073162,0.0015639179103860835,0.0023372443748347336
0.9867136460776827,0.004190644154386595,0.0035506242551346834
0.9345538505626848,0.00210778059477215,0.0028406325525500474
0.9371102528409354,0.0015794757048937511,0.002237327952117221
0.937648988255503,0.001965596452856438,0.002861720413854447
0.9634466807932541,0.0010989294086858725,0.0016078653080011252
0.9641775358115706,0.002184529710337686,0.003513151012389332
0.9590748636360781,0.002144019395065825,0.0035893321415034064
0.9570416699418769,0.0011043415142299117,0.0016015075003827206
0.9404883127059418,0.002028881928144787,0.002875952123691925
0.943529860156757,0.001594612691645313,0.0022521858986658773
0.9339395299880375,0.0020844120069774155,0.0028496102507177727
1.0018534506288626,0.0041474759891656325,0.0035198394755698993
0.9474096933381746,0.0016053851940047619,0.0023180383314679873
0.9809071528851069,0.0016878416005629657,0.0027958242821324005
0.9772419635166023,0.0014927121511072157,0.002136844964439903
0.886145155784688,0.0013922014766426097,0.003794321984100365
0.844075801337301,0.0005579089189346308,0.0029119458503005743
0.9815141748592867,0.000697776986151947,0.001575107725935837
0.9746567873753654,0.0007715632140786034,0.0020184917193096
0.9514008983092102,0.0007468970559738637,0.0015342351399903332
0.9971110378877879,0.0020545184284806606,0.002803940099866388
0.9486556475772551,0.0009667451719581574,0.001788475456388017
0.9622847540436477,0.0007073072258192842,0.001368619521712843
0.9581868154609589,0.0008379268570475982,0.0017053868829482587
0.9742864550202996,0.00048514062256147195,0.0009447935082481146
0.9777069890378635,0.0010151426461642655,0.002154473288297723
0.9711057256983188,0.0009645910524928309,0.002220210762662107
0.973311650008342,0.0004866465304650552,0.000941075042645827
0.9568459063466002,0.00083728866304308,0.0016916294438150134
0.9596487793811447,0.0007069599672160761,0.0013703994203417287
0.9547753888192476,0.0009700069220400652,0.0017987788884989723
1.0099729137187892,0.0021531614477715375,0.0028041911829354686
0.9627054454191576,0.0007453796895632284,0.0015043887992211918
0.9872200393093653,0.0007978426244675282,0.0020143235337775948
0.986905713940521,0.000722014767978155,0.0015382851097780835
0.8871627975671362,0.000603562982830022,0.0028193969211937806
0.8525785633839442,0.0002628140170058045,0.0023647010705997837
0.9962932594452281,0.0003864985322531224,0.0012498082593711234
1.0011385675011428,0.0004138479541323785,0.0015496607339519136
0.9591042407871662,0.000386502487806705,0.001161278354549539
0.9950583569845226,0.0011102090078392603,0.0019597060696370026
0.968070228047531,0.0004782898777971894,0.0012404437879070442
0.9862353896178376,0.0003332119244452802,0.0009367200005308159
0.9738444746375461,0.0003579401540062381,0.001093820254613871
0.9869581066175028,0.00021994524605046644,0.0006497918855787364
0.9814928523372526,0.0004924623647825377,0.0015894765575340708
0.9829357928937449,0.0005000713422137372,0.0016611439066873909
0.985464031908062,0.0002217166262046273,0.000643403771814956
0.9732926626459961,0.00035845516350582177,0.0010779355607423934
0.9858865038394885,0.00032546002835549614,0.0009320954574984315
0.9682379583299358,0.0004746176828387195,0.0012405120370365444
1.0127268654997215,0.001113596590701096,0.0019385143038469054
0.9732551801085155,0.00038544752011944217,0.0011341231761446242
1.010128984822461,0.0004294826267327827,0.0015365408825568831
1.0002088115597412,0.00039751837441698285,0.001211903257680049
0.8914812868213086,0.0002464500412088945,0.0022696334004025883
0.8463867280700949,0.0005205336230591168,0.0021582058725558035
0.9892569682176997,0.00023060799458797006,0.001028741422449431
0.999272769973252,0.0002338741558437283,0.0012593957420806785
0.9641090939573277,0.00020994723083492871,0.0008977501274146333
0.9917492827922479,0.0005725907788247329,0.0015089203944493631
0.9691674305138018,0.0002492902438070189,0.0009397054046563247
0.9910200537928526,0.00017048307085977066,0.0007043501324901206
0.9806042054209184,0.0001854039817497729,0.0008246285966094336
0.9907773709440707,0.00011819437576990434,0.0005221217989621223
0.9846282535445292,0.00024440045383859955,0.0012866816105862884
0.9842508008145574,0.00025038487725704455,0.0013346417672783326
0.990179172883873,0.00011757207899771949,0.0005168535684306941
0.9793348935748802,0.00019394565993530774,0.0008133293845244107
0.9907582722992325,0.00017204938656189037,0.0007006767273377286
0.9718055529080649,0.0002458414501458409,0.0009350969351009924
1.0063908076494337,0.0005701037920614799,0.0014779059374873445
0.9728097090334854,0.0002038198330686021,0.0008727128803285723
1.0114281088091694,0.0002430293138517681,0.0012439162621416852
0.9949485388218676,0.00024370468344296246,0.0009954841122017536
0.8911763331799669,0.0005772854308900621,0.002078987492197481
0.8219773948288464,0.00047716371845660737,0.0020274039232054735
0.9766122310766446,0.0001484279891807538,0.0008929925230939911
0.9886825551520174,0.00014275340054655322,0.0010509003207984124
0.968452111697144,0.00010287131798642148,0.0007611928080519914
0.9803721621775651,0.0008413137453607385,0.001372237597151688
0.9668498911700929,0.00013976046479411734,0.0007916810628514416
1.0002269249137172,0.00010520315541798519,0.0006204347060964821
0.9818352696762027,0.00011747952031108738,0.0007380182959401745
0.9908443801705892,6.373220036446812e-05,0.0004570884583451172
0.9862102955206664,0.0001259850431092117,0.0010903791309724168
0.9870392907338639,0.00013793649201841176,0.0011308634958091177
0.9892375553525016,6.544411983214902e-05,0.00045212227244768215
0.9812859116645098,0.00011845940241328963,0.0007220904644222309
0.9962054292361001,0.00011003500121220033,0.0006151201267438858
0.9687751900676612,0.00014561110792356285,0.00078391514865622
0.9979479162969838,0.00020445585430384203,0.0013287981712256996
0.9753440396889971,0.00011796461357981875,0.0007347731974296036
0.9990569649401896,0.00014573381976990568,0.0010257084037052
0.978424222523258,0.00014880613278546242,0.0008634493167199621
0.8697244519890542,0.0004789034256963137,0.0019607588679250777
0.8185942104572326,0.0006883411180621074,0.0024799692175454208
0.9682718597551555,0.00015126960926944137,0.001050649297846571
0.9853542876430702,0.00013772025137507248,0.001262805554808955
0.9774223084026833,0.00011292568379243905,0.0008743909358523501
0.9883013899274281,0.0013022492876064412,0.0015332463351797538
0.9698422343193808,0.00017398052647445275,0.0009002960164608538
0.9989879222329121,0.00013203597312340937,0.0007444967630945526
0.980834669729418,0.00013238105049273176,0.0009006358954001049
0.9918060324016001,7.199393170599973e-05,0.0005381859461080945
0.9875076158521396,0.00013370119399075316,0.0012916777238558001
0.9883382960216088,0.00014887025678585593,0.0013348890838470115
0.9912331291969609,7.487172663718853e-05,0.0005337838802377869
0.9813590425490539,0.0001403883909983207,0.0008854288888106573
0.9961966615125617,0.00012748863600178627,0.0007394005229518258
0.9719503780671761,0.00017538388132664102,0.0008886139955485642
0.9949191440073629,0.0010787990484319287,0.0014705079732243215
0.9833309598477438,0.00013525509271285763,0.0008454834154016571
0.9914089918220551,0.00017162537794220006,0.0012359249890449477
0.9708124273272493,0.00017331367160507103,0.0010101806058735075
0.8711106774439806,0.0005753909209831059,0.002377898272896836
0.8292504812752073,0.0008376960647852966,0.0031853664803897504
0.9671651689192797,0.0002893300551240501,0.001336734445409293
0.98144320217669,0.0002774790194890715,0.0015767429149207315
0.9814073122874903,0.00022618465864102937,0.0010631283750753557
0.9811860510866349,0.0017734605553347425,0.0017582755462499256
0.9709977057399218,0.0002931653215550317,0.0010413356437799918
0.9926404170602371,0.0002174214401477003,0.0008585213729495418
0.9765114188393109,0.00023018025142232076,0.001074333146414687
0.9877782717605558,0.00013141150538002928,0.0006345316764805037
0.9834365695516335,0.0002558861539611405,0.0015335908115100742
0.9822410396464376,0.00026601906903402355,0.0015908063401410804
0.9874706067595905,0.00013555672360358558,0.0006303931123931202
0.9789906154606122,0.0002441731043824748,0.0010497564043707882
0.9873676655077215,0.00020932522910490096,0.0008535302785463612
0.9716781944020979,0.00028458178826695215,0.0010264545582917832
0.9983704789715794,0.0016036027536375098,0.0016778619125699028
0.9864635814965969,0.0002212361217353016,0.0010242724434111582
0.9872474600684451,0.0003189087814550303,0.0015355103348605264
0.9696709312112225,0.00031526439983980417,0.0012887177480864762
0.872931944553519,0.0007608564169934504,0.003059064638084248
0.8584348396029868,0.001178034642531321,0.005069084793089075
0.9733378770215377,0.000530933959410223,0.002050994318915537
0.97339229612988,0.00046865379511864467,0.002290214213582589
0.9771026339110019,0.00038640687274308456,0.0015368117247189245
0.9832030211430463,0.0031159174093322722,0.002559059229171775
0.9746374573136506,0.0005584569241358014,0.0014222996446356273
0.9821900237742694,0.0003724131010903935,0.0011149746023950628
0.971946142798304,0.0004081113047863733,0.0014247925495919872
0.9817075562942826,0.00023546374609075574,0.0008433149271180887
0.9744009298096951,0.00044801775173630113,0.0020881727601833647
0.9737368448976668,0.0005302043126559135,0.0021650022700979315
0.9816524792134647,0.00024614383368062187,0.000840061049978935
0.9730267723455516,0.0004097263504033137,0.001389146914947607
0.9832246480824208,0.0003814606333374368,0.0011025006981641755
0.9710769319096001,0.0005434178238863987,0.0014121482742725014
0.9965145759742294,0.002751497608202275,0.002433220262649959
0.9856305522154183,0.0004410175343590847,0.001473585443670782
0.9832798570745522,0.000524349938087304,0.002227031480843244
0.9751034683884533,0.0005249926569086403,0.0019724218317597893
0.8975174810618967,0.0012051273318086425,0.004845972196049508
0.8906629044614155,0.002718033425610923,0.009162081248987545
0.9683580190122622,0.0007378200013083572,0.0037188032624125
0.9776423410732091,0.0009252527086248215,0.003986869018054387
0.9784367095454971,0.0005656590840372517,0.002615135310427976
0.976519973629364,0.0021417571908380014,0.003797395431638327
0.978009494823627,0.0007474657842443296,0.0022173995237953405
0.9831084104920101,0.0005472176722843091,0.0016925291904177596
0.9811776800829362,0.00064364021440426,0.002206348904930157
0.9875268685337532,0.00037886052604269054,0.0012992703005642071
0.9764342883001916,0.0008445064349967355,0.0033309154368838406
0.9764907981604689,0.0007840995300458025,0.003412808585509979
0.98593214947649,0.00032305557632805314,0.0012826545905500434
0.9857777820317383,0.0005489405969178647,0.002128722032370077
0.9827697563490734,0.0005933277997073369,0.0016741360629647128
0.9784405444398618,0.00080557561796496,0.00222156338492601
0.986937700216841,0.001819338108027776,0.0035598292893743336
0.9903695992147377,0.0005697757948989451,0.002481778489855238
0.976131188498458,0.0008519240277559922,0.0038436759552081374
0.9775676145204327,0.0007972556302586996,0.0035563921873831075
0.9290680468652057,0.0022226671557283675,0.00879058563115375
0.9828045361564304,0.003320124502970743,0.020028464720219272
0.9660757106435227,0.0035690700297893573,0.00867980979546045
0.9880940489100487,0.0003236448148620376,0.007764537851311657
0.990256973234952,0.003386874883737854,0.004606961728386329
0.9802331766850078,0.007266199268136766,0.005298178076891783
0.9923025483012747,0.0009706764179927143,0.004222870096487186
0.9900327510090764,0.00035884973421289323,0.0026845760220214716
0.9851564921090945,0.0017732112175159887,0.0034766037050839387
0.9855906009401779,0.0002973812753175796,0.002106112401668599
0.97788034707643,0.00012710413345271514,0.0053856089682390515
0.97788034707643,0.00012710413345271514,0.0053856089682390515
0.9855906009401779,0.0002973812753175796,0.002106112401668599
0.9851564921090945,0.0017732112175159887,0.0034766037050839387
0.9900327510090764,0.00035884973421289323,0.0026845760220214716
0.9923025483012747,0.0009706764179927143,0.004222870096487186
0.9802331766850078,0.007266199268136766,0.005298178076891783
0.990256973234952,0.003386874883737854,0.004606961728386329
0.9880940489100487,0.0003236448148620376,0.007764537851311657
0.9660757106435227,0.0035690700297893573,0.00867980979546045
0.9828045361564304,0.003320124502970743,0.020028464720219272
