0,1,2,3,4,5,6,7,8,9,10,11,12,13,14
0.9612733858428548,0.0063402690467767,0.0001847098531234,0.0001847098531234,-0.0023690362268236,0.0019262489642951,-0.0153229071340871,0.0120692025445123,0.0064654839544817,-0.0063796652397442,0.002269649715994,-0.0101105702341715,0.010276107995211,-0.0146557377611784,-0.0115292498545256
0.9836081740687654,0.002592152204311,0.0008272354098186,0.0008272354098186,-0.0005315139893771,0.0001367121658446,-0.0098960177625722,0.0088343066658554,0.0025366751540508,-0.002523658382362,0.0021868092498403,-0.0039356378663407,0.0041084371114495,0.0020596573646336,0.0027136488156904
1.0312512634569269,0.0033566996585168,0.0034122238651377,0.0034122238651377,0.0046403815292901,-0.0040640847543491,0.0167016143845084,-0.0237253980197822,0.003027397155336,-0.0030097261247512,0.0043321585566971,-0.006226544571247,0.0061335063170757,-0.0143353722194352,-0.018872181049425
1.0232418894969773,0.0063582589406,-0.0005951721040178,-0.0005951721040178,0.0015654228470949,-0.0069047586702186,0.0029384169420765,-0.009757812053224,0.0057749126940411,-0.0057104560190541,0.0342959577912418,-0.0240689425911946,0.0255171738817794,-0.0128486568194117,-0.0080143824733003
1.011182701570585,0.0030691995104593,0.0010893181612678,0.0010893181612678,0.0030459321563933,-0.0057048728925657,0.008256493902591,-0.0177770299906872,0.002489929984174,-0.0024777277016636,-0.0018755872075906,-0.006928548932729,0.006695143818445,0.0014822470364346,0.0056246908072943
0.9492843302259312,0.002642804930098,0.0001110975136702,0.0001110975136702,0.001349130559008,-0.0005243573156785,0.0021073661785823,-0.0048899734453727,0.0018999432191892,-0.0018923682658467,-0.0002586091651857,-0.0040866056119659,0.0041409455102622,0.0053929684437985,0.0052212334029595
