0,1,2,3,4,5,6,7,8,9,10,11,12,13,14,15,16,17
0.9588495002988222,0.005000311270519253,0.005720840026769216,0.0,0.0,0.0,0.0,0.0,-0.0004093990953376891,-0.004194153773217646,-0.001442018914930436,0.0019975374753836424,0.0027074442103926385,-0.005694062290240227,-0.019348203994655797,-0.004919270930379871,0.0,0.0
0.974916928261671,0.002384275305476881,0.0,0.0025989780347892284,0.0,0.0,0.0,0.0,0.0008313940200998135,-0.0025487993156536374,-0.005666668042373337,0.003218180127275625,0.002236479700980695,-0.003664773379964554,-0.0036655987448855776,0.0021364687559665267,0.0,0.0
1.003928568418964,0.00304574867896339,0.0,0.0,0.0032418679520979828,0.0,0.0,0.0,0.0029069125694783852,2.2112515138292694e-05,0.020740339970313174,0.0033024680716382667,0.004084838190780897,-0.0050117309952438455,-0.021028477110955495,-0.014026875238625528,0.0,0.0
0.9802009841622686,0.005663016297666832,0.0,0.0,0.0,0.0054872315309492485,0.0,0.0,0.002190681850616503,-0.005291548366510838,0.01162916426276383,0.0036977679877177733,0.01619582651831036,-0.01084990439703569,-0.02716154275834254,-0.0029545632471695933,0.0,0.0
0.9938422226249596,0.0027892823192806207,0.0,0.0,0.0,0.0,0.003064547209805377,0.0,0.0012246863508671916,0.0029241854305605674,0.014603994156683111,0.0023204727116175033,0.0021522468405909306,-0.005302085195084449,-0.007269535504587224,0.00405593444968777,0.0,0.0
0.946327027186764,0.002516817014547728,0.0,0.0,0.0,0.0,0.0,0.0029400764877068448,0.00038689006126995713,0.001427464158954755,0.0043413073608542935,0.001663669442748952,0.0024658115565032346,-0.0036307115524279233,-0.00046307939846513955,0.004362283465155232,0.0,0.0
