0,1,2,3,4,5,6,7,8,9,10,11,12,13,14,15
0.8544087090916525,0.0023338525331377405,0.0,0.0007823794279004601,-0.003777076094111582,0.001200385772243555,0.0024453746895567526,0.00033398121829446254,-0.0001413528461612015,0.001085395329031299,-0.003395590341572955,0.000859679127872252,-0.002131448731297024,0.002153835854304276,0.0008759509685015194,-0.0022260956906975625
0.9817532736919847,0.001958307464618493,0.0,0.00024923014651387853,-0.0010589297502231509,0.0013989879702708363,-0.0009832515997401966,0.00024798884757439954,0.00028595338742416873,0.0011214257662840485,-0.002481611205159862,-0.0009633311919747825,-0.0022577509822821755,0.0022704030742320747,0.001483765147367131,0.0005575404604472996
0.967456574557074,0.001962183502546888,0.0,0.0008277321450561113,-0.0015423285981150587,0.0013121025548536755,0.0010388476163425493,0.0018323096418905586,-0.0024388819562985585,0.0006156076089850003,-0.004511475299914059,-0.0012031997266378058,-0.0015001544666116277,0.0015132554436175483,-0.0005810918228325927,-0.00039918370083767636
0.9452345777351351,0.0018673933132229287,0.0,0.0006932989792807651,-0.003922027092061055,0.0031565542812473524,0.001938044558883456,0.00038082082770997833,0.0013702035704204788,0.00068339883167865,-0.002433652823847062,-0.00040897750394121307,-0.0021213433998576847,0.0021462581110138317,-0.0004032778566651369,-0.0001380225326678593
0.9845984998395292,0.004124462111921387,0.0,0.0020697421063627583,0.0009165856603955458,0.006712004275817698,0.0009353779037611583,0.0020420488838286755,0.0020335796066822875,0.00021702088870158957,-0.000215741918205239,-0.0016872209166383606,-0.00230415350435096,0.0023737523665923106,-0.001278519220625926,-0.000177311488640059
0.9384002859841188,0.0023529444551666345,0.0,9.318706184316079e-05,-0.006648297359882378,0.0032379842717937886,0.001905202889124972,-0.001791645452323801,0.006478114298915053,0.0008661518310406666,-0.0008619137260758751,0.00911807006168711,-0.0021259077574739818,0.0021636386159610364,-0.0010653016173978948,-0.001645461060948976
0.9607454647623352,0.002115554138979216,0.0,0.0005907217470005391,-0.0019814663027094286,0.0022088237695014243,0.0008956853660547285,-0.0016293044065894512,0.004046297388718232,0.0015271859081454114,-0.0015205558367708699,0.002590762914446691,-0.0030813855598946643,0.0032351099978788324,-0.0010150089873639506,-0.0004143259326874467
0.9429179613791525,0.0024877592534849405,0.0,0.0003606350926507932,-0.004245849912742706,0.004433301688466961,0.002564947651109111,-0.003040543404442199,0.005299098231224659,0.0013412842963298555,-0.0013332546222103285,0.0070228223190627196,-0.0025083114624951364,0.0025290630148416668,-0.0004555878657793829,-0.00040298423251973524
0.9697237633350773,0.0014540660631163712,0.0,0.0008874916770334856,-0.0018518114071793287,0.0014751663875972128,0.0026246401644668916,-0.002547704472588516,0.0034051509113542044,0.0009410605160345175,-0.0009378696182786899,0.004145838378043927,-0.0016365686432858355,0.0016433828472304309,0.0001516393101832477,-0.0010798536074384873
0.9636632872582402,0.002524716783382182,0.0,0.00032114034205154885,-0.00363771758195975,0.005081588920768221,0.0017893541103134291,-0.002671658349675048,0.0023745573847358766,0.0008578595303226221,-0.0008519442837803594,0.006821678323591379,-0.001548803264832685,0.0015636414391726329,-0.0004114047778929297,0.0005534615612656895
0.957780268927414,0.0022767074975033378,0.0,6.292259884695804e-05,-0.004153465355460196,0.0051747250171482045,0.003296757419252136,-0.0018149730666727688,0.001132856256851555,0.0003271084542089752,-0.00032486665231893063,0.004645208550943503,-0.0006182112341515002,0.000618453747128981,-0.0011572907415858293,-0.0010746011506295853
0.9612121194597275,0.0014203426622610078,0.0,0.0004829067364518717,-0.0030080907512401093,0.002116361145529313,0.002847090023024744,-0.0027873353741482082,0.003726439612549452,0.0008400527046869805,-0.0008371905998194981,0.005641024248762144,-0.001430366671631261,0.0014336144953354401,-0.0013867811057006489,-0.0014552908891837836
0.9550211571961796,0.0026964101652450553,0.0,0.0008136633817838656,-0.00313080211649188,0.002253439561751748,0.0010877942211272936,-0.0012659956046962282,0.0018282647222186363,0.0017791475809458685,-0.0017680188826502703,0.007810517918398617,-0.0031744817321137575,0.003206958059232976,0.002038320986094173,0.0021226921123119456
0.9689921472093486,0.0021867723353300107,0.0,0.0013027664277658344,-0.0004576754789229719,0.0008458476095587634,0.0003827762800840896,-0.000895441785926001,0.00175597415132875,0.001684242994738393,-0.0016768079495856295,0.003967939019743191,-0.0034254275244622813,0.0034479678027133634,-0.0003946215090609171,-0.0018044669081293799
0.9422582484349897,0.0023801534286495675,0.0,0.0006255341709037363,-0.0051161009072674115,0.003315475854925255,0.0012567686758690143,-0.0009701688864179785,0.004003364674499675,0.00102193696935297,-0.0010167998571974056,0.009642884900925205,-0.002351924733941188,0.0023726610267692213,-0.0016435159867897908,-0.00425168606057673
1.0032706010144221,0.004136246880291386,0.0,-0.00032619507413949786,-0.005858777111934328,0.006159091633750224,-0.0021909496068583238,0.0028575488798557405,-0.002924207886437711,0.000129174994989752,-0.00012826371779435446,-0.0015824161856247106,-0.0008893878795161884,0.0009164450911692368,7.636244987820659e-05,-0.00019234096267138355
0.9537735092941428,0.0019204682142448422,0.0,0.0010216033263032124,-0.004436634116723055,0.0034889189414905905,0.0012589169819040287,0.0004423489260806448,0.0016832369511388513,0.000760417648320112,-0.0025092848849791547,-0.00028895851085603626,-0.002324229503702327,0.0023568766754119325,-0.002504490930047853,-0.001432746955849953
0.9847128837336934,0.0020711643972968477,0.0,0.0009031989404088048,-0.0012138190615763478,0.0014414864920601633,-0.00027058573735042475,0.0017699179115348899,-0.0017063558748944077,0.0007305219677739402,-0.004578096755774971,-0.0009968679531752952,-0.001826960099107202,0.0018433686581346557,0.0005846934487796395,-0.0004700086389703118
0.9806140683126696,0.001903469348295762,0.0,0.0009427587465767707,0.0003758328837722718,0.000600893445318572,-0.0018602642152466442,0.0006566136864116135,-0.000677008160690079,0.0010393729935797408,-0.00264848772591109,0.0015147923227755106,-0.00223697417764407,0.002249884773248677,-0.0008702040601689406,-0.0009390922212643168
0.8882274819112476,0.00212774921006076,0.0,0.0007066305313651188,-0.004363359853085648,0.0023520293933618134,-0.0016211960530838735,0.0005324021593455186,0.00011873735857085438,0.0008202833984177425,-0.003839487434742633,0.0028830220588711426,-0.0016560057267974663,0.001675374956193604,0.0008584612360250129,-0.000461593338532102
0.8438565707966369,0.0009442115402260117,0.0,-0.00012729514991187489,-0.0033338090126704832,0.002128018224140521,0.002923322725564314,0.0006885461960490999,0.0003939634998876946,0.000274593492586873,-0.0002738421305436141,-0.0010113320898359564,-0.0016599654390327264,0.000634996125037718,0.00021470407169989477,0.0006198634414191309
0.9809140605115036,0.0009496164615683194,0.0,6.38074326711215e-07,-0.0006182801000512374,0.00021148088849074444,-0.0008145706039660133,0.000990786427810515,-0.0009270318351040764,0.0004085190528007942,-0.0004079102480054335,-0.0008076133909017962,-0.0016083460417673772,0.0008513097628317975,-3.97979127496824e-05,0.00023581760550690922
0.9723478169143887,0.000966456723738499,0.0,0.00010360871800854952,0.0006991326977389532,0.0007240202374672133,0.0009675831678960709,0.0014522402964962195,0.00047405229163451063,0.0002761685582304842,-0.00027560665823625914,-0.00012713712089974078,-0.001991494590012038,0.000645477460755718,-2.8799425677987196e-08,-0.00015174264821748767
0.9507885199684034,0.0008048369386433607,0.0,0.00013256787673807688,-0.0027589776708895676,0.0011203297113448671,0.0015645560224290729,0.0009641549980855685,0.0007011642873796749,0.00011064490261781031,-0.00011043766046672841,-9.668056001272124e-05,-9.349047668205672e-05,0.00029658362791680737,0.00010883579938773114,3.0643964039891227e-06
0.9947829785690722,0.0020285208374969717,0.0,0.0009020107232763637,0.003571923647017597,0.003593487750232066,0.00247262509384849,0.002347704755005343,0.0006006202096963564,8.641983450502926e-05,-8.620720012207655e-05,0.0014547748650516668,-0.007024424961010543,0.00046664236893640933,2.24156364589577e-05,0.000491465613644766
0.9499047779436391,0.001086601589290262,0.0,0.00010982646616621003,-0.0028807374813696984,0.0017521341756678418,0.0005558035862540358,-7.00335721385499e-05,0.0015808660909678756,0.00033535826437988665,-0.0003346525811946915,0.00033999687112634024,-0.002689984033324491,0.0008590632281269869,-0.0003438733192175311,-0.0012506413022549923
0.9631822425982264,0.0008214121667950635,0.0,7.379103745259697e-05,-0.002177978248382579,0.0016833100392992302,0.0012810352684488042,-0.0005668283786836067,0.002147217852176917,0.0002807936172260815,-0.00028032495631788137,-6.818559800156005e-05,-0.0035130473794235816,0.0006727448788586895,-0.00043709334396060137,-0.0005364172309597933
0.9585504944449788,0.001026317545805148,0.0,0.00019144971702636672,-0.0033142617742722984,0.0015340015896862956,0.0012675580822181654,-0.0008986107525087479,0.0019415967133983155,0.00039867332605882544,-0.0003977768350735732,6.464506443160663e-05,-0.004020191086883121,0.0008792390865748029,-0.0014908242264786242,-0.0013928966870086134
0.9752749246006212,0.000651872355839368,0.0,0.00017753513748482714,-0.0011594960796202174,0.0009404651965712685,0.0014452103376354532,-0.0008804055967410682,0.0019550358703817566,0.0003804414224551504,-0.00037992142949999104,0.0014281923106675188,-0.0029121051010219277,0.0007937286856057808,-0.0007788369810420635,-0.0006939186977446462
0.9775880949394414,0.0012515782374926962,0.0,0.0004149442838906518,-0.001066120111379662,0.0008400011620160156,0.0007949350722664612,-0.0009139401472585483,0.0006898898345794634,0.0005164947898044458,-0.0005149752279899594,0.0009141576241915541,-0.004026363596412145,0.0010545206249755821,0.0005351724032440465,0.000626432092384928
0.9697004221864343,0.0011094213348143934,0.0,-3.893353496669145e-05,0.00022726658611431016,0.0019087673027859034,0.0019808404322521605,-0.000840622869275962,0.0007764254228600985,0.0002783002225017217,-0.0002775240880638404,0.0003577423516080357,-0.004596789482776224,0.0006957403020655709,-0.0007498136368327099,-0.0008969756678977027
0.9746528694230185,0.0006195256186929037,0.0,-0.00010609897208239247,-0.0020010564301118305,0.0007069451716535476,0.0019490184548578364,-0.0010515808792301259,0.0018934777311401232,0.00030408508341248054,-0.0003036647677559256,0.0013078684967640446,-0.00338994480378838,0.0006336530837583475,-0.0009193017696443465,-0.00104214960175887
0.961567244912026,0.0010811409930641315,0.0,0.0002925566661755234,-0.0015416184940391735,0.0014275430643247297,0.0013752489215856415,-0.0007722050070958443,0.0013351259584774655,0.0005332772077033398,-0.0005320185921913674,0.0010480388936342342,-0.0034071402031878866,0.0011357324474863717,-0.0005871816049597423,-0.0014824219936079993
0.9601784820213175,0.0008023064835969806,0.0,0.00015184807226698106,-0.0024860738357426583,0.0017523024080435296,0.0020080270641969497,-0.0004903454390856826,0.0017936308036733462,0.00023322569618409165,-0.00023283361842057332,0.00022879376004621444,-0.0030853843746442727,0.0005521892173966456,-0.00020618725437162146,-0.0007936154189573051
0.955659212529056,0.0010519247754492691,0.0,-0.0002088011764388114,-0.002926489452525796,0.002369808092635995,0.0006800564092659105,-3.417867594375298e-05,0.0016348790832207325,0.00022652913186468416,-0.00022604903716906167,0.00044191257014469375,-0.0034493667602596484,0.0005938044123229594,0.0005540368419679245,0.00038985218096959396
1.005312895555761,0.0021059502087717127,0.0,-0.000746740077140367,0.001392323811242925,0.002475324500833531,-0.002271794751548366,0.0021960167843799025,0.0018386301616473985,0.00013459583501837687,-0.00013426113918115173,0.002144020717985068,-0.009469740171838697,0.000746334499845393,0.00034172474717361373,0.0008255243088096869
0.9619581624522461,0.0008500131405916666,0.0,0.0003506558224129697,-0.002190854241405574,0.002583046222737148,0.0014280525100425804,0.0007500065666462445,0.0008998848576526507,0.000196933857141638,-0.0001965701768436237,-0.0007725952039057397,-0.0005203332720557534,0.0005212715131945371,0.0006025448532551918,0.0006621922283974003
0.983853883193047,0.001037819483447435,0.0,0.0004883940640558514,-0.0002984134775844951,0.0010214041421009248,0.0015210320594716163,0.001235646028790002,0.0009089180502901981,0.0003457624651346653,-0.00034506943986914885,-0.0007798983534535668,-0.0028439634592719054,0.0007945150072991958,-0.00030013224602009383,-0.00033956079340420484
0.9849225966229832,0.000927290714028432,0.0,-7.185062374670958e-05,-0.0008701533127354761,0.0006538813845368075,-0.0006962117004841782,0.0007433604012728155,0.0013030939535995185,0.000357063796607329,-0.00035653327397148354,-9.432551087105843e-05,-0.002258331234256835,0.0007582049703228254,0.0003195943474698808,0.00040345862061935434
0.8865744852356645,0.0008609350695604162,0.0,-0.00011967889747112591,-0.0022152818804928908,0.00146931835207894,0.0014786566788137327,0.000878038349300095,5.806432924988726e-05,0.00019552313961063075,-0.0001949814947465865,0.00061685651880786,-0.0025594889705653585,0.00045729485432183616,0.00024568298472390577,0.0001454179167069692
0.852355218608768,0.0010880669603937647,0.0,0.00020600781335148688,-0.0009058778453157537,0.0007170160826597851,0.0023567068605043584,0.000516432380390383,0.0012043737207230243,0.0004028836557882758,-0.0004022309106571525,-0.0004452163547592404,-0.0017134321894393568,0.0011385880727656302,-0.0006244606082988368,2.28170605249457e-06
0.9974520291653618,0.0006232691525417566,0.0,8.761496611029156e-05,-0.0002299225268754388,0.00032732943613685624,-0.00021173875600651867,0.0006984180000472976,0.0003378744530685789,0.00025625863097980447,-0.00025604649304472246,-0.00082200740936755,-0.001198729172551097,0.0006051779794864994,0.00011402144579431213,1.4030545302253425e-05
1.001968294024738,0.0007183713377298714,0.0,5.529032717570551e-05,0.0002861917423546945,0.0002779892667582265,-0.00026997788018556204,0.0010179649339629357,0.0002033459946939436,0.0003265746347880614,-0.00032621099316208584,-0.0006475590889732156,-0.0014639825144453853,0.0007745513448051656,-0.00023849289499228323,-9.614506219032773e-06
0.9596879975932122,0.0004965516230724704,0.0,0.0002623148162327344,-0.0020734875735842623,0.0006584453038766179,0.0005276497187288205,0.000787342823641722,0.0008840354999319949,0.00015021940350629556,-0.00015007409979712774,-0.0005417372041214866,0.0003560473548692383,0.0004031518453151914,0.00048804437834408916,0.0004082417435852551
0.9953024118323248,0.0010199696438403004,0.0,0.00022195412544077887,-0.00021498561282485087,0.0002791144302000907,0.0017353194321689696,0.0007844991626344513,0.001599946308892492,0.0004463193145917611,-0.0004456914627275376,-0.0006019757867966139,-0.0038572571668107672,0.0013775414249381595,0.0004296276633886293,0.0008893039065288226
0.969988110783039,0.0005595867647185791,0.0,0.0001414510133309268,-0.0009315943379517126,0.0010721639224687766,0.0008116223798033395,0.00016624384857630542,0.000577200554642614,0.00015460618018763565,-0.00015445081023875439,-6.636153745423171e-05,-0.0007291522183351743,0.0003921290153167056,0.0003168512640081736,0.0003081892972453093
0.9909106898529743,0.00047276316172282097,0.0,3.915512346907536e-05,-0.0004938197896885561,0.0003107990536733069,0.0002714433326719408,-7.28280863574034e-05,0.0006756194112699464,0.00025175324592688304,-0.0002515638371586703,-3.0888131561218096e-05,-0.0011768518001803938,0.0005919866836225582,-6.169832643846392e-05,-0.00047761518164523897
0.9756795392730602,0.0005582838312636812,0.0,0.00013697451197937607,-0.00032990087238076896,0.00048314404677850557,0.000926286973681135,-0.00018263995454872317,0.0006247097689240308,0.0003073280665747436,-0.00030704697897377244,0.0005886317352463592,-0.001339308189819188,0.0007085107627673111,0.00011384247693153552,-0.00017222241415274414
0.9897480708046447,0.00034536853045355855,0.0,0.00012618040061488606,-0.00036631445247821984,0.00022366434799039683,0.0003118970451947403,-0.0003234730418102616,0.0008262508738149669,0.00020728294020311026,-0.00020715757038695782,0.0005381987921365448,-0.0011623582917436683,0.00047319664647401673,0.00022624579224300175,3.972250266281453e-05
0.9817750869560847,0.0006081392951029162,0.0,-6.326648556078823e-05,-0.0008741542361617341,0.0008558072562217609,0.00033928594035187643,-0.0006777360751180253,-0.001059232383052813,0.0001694516209949701,-0.00016921511687262777,0.00040808643777805946,-0.0030082020058574822,0.0004232827951943272,0.0010746320399290439,0.0010116649572539504
0.9835591902139518,0.0007459317375608731,0.0,0.00023577380430871015,-0.0008071591252892185,-4.3376450517721246e-05,0.0002589605443395108,-0.00033803767423481063,-8.016760819343055e-06,0.00033013932254296794,-0.0003296827560818068,0.0003141169673572142,-0.0023211491603062277,0.0009021074485830397,0.0004086154294994429,0.0006407239020745523
0.9872887692467885,0.00033680119017287947,0.0,3.9936970493663e-05,-0.0002860046253200131,0.00012369876334840195,0.000208843094439001,-0.0003151320444250015,0.0005807893279319825,0.00019093204580437038,-0.00019081819156754884,0.0005029732516180697,-0.0012068673305825018,0.0004376764275796831,0.00037943093078944567,6.993996332034708e-05
0.9747450922921297,0.0004693767621464286,0.0,6.79222795637167e-05,-0.0007986435953965532,0.0003589614151613079,0.00037409454943932016,-0.0003559638682522943,0.00038345072765974005,0.00017521616003792934,-0.0001750539477803705,0.0003786679775142046,-0.0013666600947120713,0.00040035759944813604,0.00023914286987842057,0.00013583704610491967
0.9891966609543572,0.0004569605009720251,0.0,-7.634291911742458e-05,-0.0005251575257709147,0.0005612600632856026,0.0005450823415943705,-8.424328892269425e-05,0.0003598454137175916,0.0002259617112893437,-0.00022579483832621032,0.0003180905372535251,-0.0010231362279174861,0.0005419178857800515,-0.00035679960886065936,-0.0005644636603540743
0.9700366906637734,0.0005638478344700299,0.0,0.0001825826321429967,-0.0014487909043631687,0.0010390382492782132,0.0007027881035162918,0.0001706429558994796,0.0008714820272873775,0.00016293958400433276,-0.00016277625715058894,-1.2775102319467754e-05,-0.0005990532008063304,0.0004174942352300453,-0.0001178449693364419,-0.0005123415930991624
1.0136282234339482,0.0010647778362833944,0.0,0.0006500261599132321,0.00011681236107334407,-0.0002513679821012017,0.0011743583394107251,0.0012587527106732305,0.0021588867894176155,0.00031040885038796873,-0.00030996128875581487,-3.7338907411438124e-05,-0.004893037910977011,0.0009837609969506715,-0.0004515553084349727,-0.00032351704998882276
0.9763897866603113,0.0005536562360650545,0.0,0.0002945399883753487,-0.0008755327945676363,0.00047305962239011304,0.0007598189384869084,0.0006223529957879813,0.00045863863164007584,0.0002445679735563177,-0.00024432076826099374,-0.0007104877110861204,-5.3601136626991815e-05,0.0006158481755550775,4.00716173803503e-05,4.707101950319741e-06
1.0111365064953315,0.0006951279529187805,0.0,-0.00010312732392546153,-0.0007568929901582736,-0.00022401539398321103,-0.00020378646580436564,0.001081195678776265,0.00026413614376361824,0.00029702452088499725,-0.0002966841586845539,-0.0003533110946933824,-0.0010491513958130658,0.0006824830130061819,5.627659291502342e-05,-0.0003226786806085784
1.0002656364474232,0.000608828305048836,0.0,-6.79804951753435e-05,-0.0005381902360588721,0.00029016598008730813,0.0001313864303323942,0.0008313997924550632,0.0002979499364626259,0.0002348325564530754,-0.00023464024048838687,-0.00010916906001944028,-0.0008643180663365687,0.0005717969133231375,4.1059622085823224e-05,-0.0004376812678627507
0.8909986346951048,0.0007293451098418805,0.0,0.00028686791094004535,-0.0015885480224285303,0.0007558007372024238,0.0020039289556857357,0.0010446466056889313,0.00012885579771638504,0.00024535184807521584,-0.0002449598298505505,0.0007656149417086618,-0.0010670597770925472,0.0006876618169479697,0.0005519403586144187,-0.0003712077450952183
0.8466416439609897,0.0010092264063171746,0.0,0.0002546955294037788,-0.0006742381739078212,0.00020553041744711398,0.0014673108318295307,0.0007871684109149638,0.00022662343284415048,0.00026286453584255996,-0.0002625971861217746,-0.00033986990899096634,-0.0009158926018382612,0.0009105963773457528,0.0003152616943217565,0.0006513648906200027
0.9907183309597001,0.00043215899593785636,0.0,-4.6219149119210746e-05,-0.0005498087269338056,0.00032759137928295055,0.00026446573119264373,0.0009147879624951624,0.0002742601635066866,0.0001505707784607345,-0.00015049506887333214,-0.0003408573504214097,-0.0004486560296756231,0.0004132108115559561,-0.00040817443996128347,-0.0009702714775226697
1.0017633418753902,0.0005002489624985083,0.0,7.067977176579555e-05,2.169493667590618e-06,0.00029249927731933524,-0.0001943384896454249,0.0007974974299253467,0.00039912182256191984,0.0002141635593646598,-0.0002140223678770635,-0.00022039340201890774,-0.0005567305998624564,0.0005327464623860574,-0.0003583041931158334,-0.0001697942883822657
0.9642949429762475,0.0003659747857941079,0.0,0.0001490767769036382,-0.00048519408510587893,0.0005153120023365464,0.0006705119442817723,0.0005746645854606521,0.00037990341814687873,0.0001426238555866895,-0.00014255238511740764,-6.2596352603875e-05,0.000269741924373602,0.00040532136495918846,0.00043229962168362404,0.0006390362027136172
0.9895946501685772,0.0006110023804406529,0.0,0.00027505366434210513,0.00031177930674741646,-0.0003153857974700745,-0.00016692398872754043,0.00015603723840453435,0.0014644428269132064,0.0003188896399760617,-0.00031865786145774105,0.0005943127477833169,-0.001616265496785848,0.0009135534137423119,0.00017592001543163176,-0.0006531981509676299
0.9698680908712651,0.0003293774168121086,0.0,-3.546665904085618e-06,-0.00045345398838754757,0.00041570717888150674,0.00016968612671115036,0.0002148529124884235,0.00040366643132659364,0.00010030920398673326,-0.00010026136932753694,-5.304486229315247e-05,-0.0001629992746295985,0.00025753882669668894,1.2002318050668685e-05,7.053191654736514e-05
0.9917712305971167,0.0002352151322104921,0.0,2.8478774316464396e-05,-0.00032764882213673834,0.000174395745895766,-0.0001820299942294344,6.480119815499177e-05,0.00010719100006043881,7.340208295629202e-05,-7.337620468714657e-05,-4.293209553688644e-05,-0.0005706587276647064,0.00018301697308069115,-8.72947562749703e-05,-0.00035241476781896445
0.9808553710613128,0.00026547325817098937,0.0,-5.1115468005760964e-05,-0.0003230107982584505,0.0002340042178458507,7.172225695911192e-05,-0.00017340100254739464,0.00012991921487233606,7.879483304836662e-05,-7.875921546515124e-05,0.00012144730036831702,-0.0007560856661099527,0.0001995660613017565,-7.211836330131121e-05,-0.00022618122806177822
0.9922129507724872,0.00023370980475998876,0.0,-1.6948351023461564e-05,-8.084180087826631e-05,-4.5678686563621925e-05,-3.231142608725608e-05,-2.1648193607467305e-05,0.0002438463547462771,0.0001303075661864794,-0.0001302683750757155,0.0001729699350211723,-0.00048468481445754257,0.0003133370918599628,9.457497014191098e-05,6.497648387539089e-06
0.9845259947543994,0.00036397236262975685,0.0,7.640677177605965e-05,0.00019904538002038822,0.000266197277332716,0.0005771140201086087,-0.0002792622020585694,-0.00020048667767936785,0.0001042817188962758,-0.00010421148837343908,6.222795787588194e-05,-0.0015527423912500458,0.0002806392521120985,0.000682693251695504,0.0005675129552856053
0.9845437751386206,0.00037601428805916705,0.0,0.00028146272912081956,-0.00014807369262861633,0.00039590062612933303,0.00011375912800351955,-0.00018546676487715165,-0.0005829789384609592,0.0001027745020701303,-0.00010270600571199331,6.93624068297353e-05,-0.0009795530532851807,0.000292833352565772,0.00021928398867467863,0.00018265868076042434
0.9910077576515832,0.0001939860112642895,0.0,6.409913025475736e-06,-0.00017038458921780813,0.0001493247996094764,1.6684094950747954e-06,-0.00016989210281612995,0.0004556152467048208,8.627672969478731e-05,-8.625094722394878e-05,9.917111702576632e-05,-0.0007686004524686728,0.00021187048320162153,4.62202784082722e-05,-2.4061211322987096e-05
0.9800091821186533,0.00033005009178560616,0.0,5.057309632548975e-05,-0.00042396518826886474,0.00020153295997493947,0.0005381309099075051,-4.909207503290031e-05,0.00020551621600730426,0.00014444428246777026,-0.00014437733802900786,0.00015060694883594548,-0.0006949512115099459,0.00034224903116212343,0.00022773711581289144,0.00018353964883936318
0.991846235048799,0.00023617131569580904,0.0,-1.8889431207260597e-05,-0.0005110766701076545,0.00019614611015425688,0.00023283210420442236,4.93598267125832e-05,0.0002093509907205219,7.513501590222987e-05,-7.510792167811194e-05,-3.118791324503923e-05,-0.0005829071800916323,0.00018367794050815555,-0.00013781347507862938,-0.00025190171773181795
0.9723520503672279,0.00031402903145169104,0.0,5.7234258464424716e-05,-0.0006017431034796746,6.691012271269994e-05,0.0001087129350180695,0.0002730712810397011,0.00022385961358712292,8.058695904828075e-05,-8.054872563265538e-05,5.3092415755107946e-05,-0.00011605760265712652,0.00020725425952530945,0.0002791718757816672,0.00022930378155360467
1.006641203842344,0.0006135697631948139,0.0,-0.00019174488395614682,-0.00019299020436337334,5.44525180325077e-05,-4.378900141102993e-05,7.489884732493463e-06,0.0002867983632093197,0.0003876225577297691,-0.0003873251741408514,-4.185353927891786e-05,-0.0010543607663849618,0.0010716893225395819,-0.0005895941193673831,-0.0011964666730574392
0.9736933257089057,0.0003387841537665574,0.0,1.3495873422101344e-05,-0.0003506440424160098,0.0002643385397477058,0.0003610606457961864,0.0006543230693828209,0.0006765276614128202,0.0001279542516197721,-0.00012788912875464687,-0.00014229379572106073,0.00042177112994773707,0.00034505468494071896,0.0001595292684257835,0.0004159710520633682
1.012490369239915,0.000512368866897512,0.0,0.00012259040157508016,-0.00012245010955753155,-7.858650313249789e-05,-0.00043603552367797504,0.0007127359199328291,0.0003255720394732613,0.000217119516753512,-0.00021698032371095683,-0.00014930364546683947,-0.0008257662103823235,0.0005503041063147077,-8.87347624021935e-05,-0.00021555310265622128
0.9955504985255449,0.00043067176068987,0.0,0.00012772541608044609,-0.00014033922742182623,0.000267152914446929,6.711780759257605e-05,0.0007695879024411242,0.0005441218196333839,0.00014536529848095114,-0.00014529313662581446,-0.000250764313491983,-0.0007416903730109065,0.00040341476115473125,-0.00033072031302485463,-0.00035062645326636594
0.8901610632288244,0.0009531957242953144,0.0,0.00025244634136956426,-0.0004495043807701627,0.0010501973788357287,0.0016180210323451932,0.0008880458309125244,0.00016356341860181302,0.0002423092515660716,-0.00024206902445906932,0.0004023857152898889,-0.0011400106087845175,0.0008142156646244607,0.0007234105505422331,0.0007814439828152456
0.8223331820735097,0.0010180172054660751,0.0,-4.769635295007642e-05,-6.268975859702256e-05,0.00037562833256242083,0.0004826676766686519,0.0007051368152393134,0.00020251443705885652,0.0002359414920067394,-0.00023576001528599958,0.00015365700613089407,-0.0009693757209009696,0.0008628652612024103,-3.290005772488379e-05,-0.0008513162398256192
0.976498663141792,0.00042016563469604107,0.0,6.029449214710806e-05,2.1824779936220476e-05,0.00025390968044208665,0.00013404811780405723,0.00019695014109357038,-8.246900989239588e-05,0.00014050994809736977,-0.00014046477701681783,-3.736920674954994e-05,-0.0004826643182948692,0.0004451788247305657,-9.633099980705532e-06,-0.00028254042483951574
0.9884563164795692,0.0004515807688791843,0.0,6.785851354585378e-05,3.740171485115097e-05,8.096642827697828e-05,0.0001622240986584503,0.000266778660877914,-0.00017273838484023636,0.00017096002214814056,-0.00017089270685752994,1.7963630894283275e-05,-0.0005436782312741543,0.0004928783253996909,0.0002196729440686912,5.1705951891516714e-05
0.9691187041536462,0.0002778229714129972,0.0,-6.791463383325976e-06,-0.00016156306899209682,0.00020431212159861345,0.00013892427198787782,0.00041169259011054085,0.00044631185837567313,0.0001024651716714181,-0.00010243253767134517,4.7646099548991396e-05,9.649485365023557e-05,0.00029128101724129303,-6.77884405302469e-05,-2.3967345709154933e-05
0.9777524354529527,0.000566822494596989,0.0,0.00017496745850837408,0.00012989135568639115,0.00012232163293555555,0.0003026921796669212,0.000131964409358815,0.0010315661700877176,0.0002315835651938893,-0.00023146580345301452,0.0007766445823189447,-0.001137717189915875,0.0007241785725693455,0.0001911963838601524,-0.0005500818915607096
0.9676161022324975,0.0002459435659874622,0.0,-4.1328621574482146e-05,-0.00031392402581735876,0.00021089575658268854,-1.1393074018713937e-06,0.00014356881998114622,0.00016566698519171458,7.501001307875306e-05,-7.498800343390077e-05,-3.3754227662788218e-06,-4.853136041028067e-05,0.0002118893287082843,0.0001297008638228758,-0.00011231183624110084
1.0007559455567296,0.0001696182644767326,0.0,1.625823921080117e-05,-0.00023680976361669935,0.0001664932471216722,2.553021967938366e-06,6.58378167628936e-05,-1.75531824645117e-07,5.073895143692203e-05,-5.072741269547209e-05,3.294480124610897e-05,-0.00031029435932415145,0.00013421854381578133,-9.976438397416028e-05,-0.00021568812465762877
0.9825668016576519,0.00023177481963316515,0.0,-3.7045915073235444e-06,-0.00017024174151550442,0.00012415918074729041,6.435306575623546e-05,-3.118906218062e-05,-0.00014570406020141113,8.25609735340763e-05,-8.253573851158439e-05,1.3990739956441916e-05,-0.00041166684824991653,0.0002163263112473962,-5.452472092552299e-05,-0.0001656238310098117
0.9911723203032655,0.0001666775305103415,0.0,4.0947896174433226e-05,1.577904030306578e-05,4.480545386743164e-05,0.00011788451313132859,-2.4376272834778484e-05,9.460146108445795e-05,7.57154837225311e-05,-7.57020608853832e-05,9.098458906600052e-05,-0.00029194832253650574,0.00019496043816279575,0.00011963783317559139,5.869810356158243e-05
0.9857387583563562,0.00030641951489964836,0.0,0.00014915283341914495,4.542800742154775e-05,1.6618431283721317e-05,-0.00013446063940493016,-0.00017996950904703308,4.097266906040508e-05,0.000106290189639639,-0.00010624972688884827,7.180336211958373e-05,-0.0008608669024149538,0.00030326062956276403,0.00025824279928482767,0.00028844088960453196
0.9870484055300617,0.00028710620187458955,0.0,-0.00010758018080721075,-0.0003606055209585376,-0.00010840303995409685,-9.141351898787783e-05,-0.00010246936613192506,-0.0003828893362294746,8.471316485885541e-05,-8.468085602561904e-05,8.818898709688775e-05,-0.0007444541893050271,0.00026282048406235295,0.00018942848547811548,0.00023380290258085155
0.9899304359628932,0.00016935418877671678,0.0,-3.267736036291737e-05,-6.520575463050276e-05,2.0939516703045212e-05,-7.313600468917929e-05,-4.23784034445233e-05,5.778818355428709e-05,7.875471336245565e-05,-7.87405969185192e-05,0.00011799633852516042,-0.00028837780829437103,0.00019171636350239356,-7.84452353949577e-05,-0.0002221739253368605
0.9814824358706248,0.00022875643766549308,0.0,1.4135883491431528e-05,-0.00010040841233131309,0.00016701368144695456,-5.415939295154738e-05,-7.457989132929769e-05,0.00010057908887049851,8.100416138016578e-05,-8.098016752971323e-05,9.800349207395358e-05,-0.0005175318658953448,0.00020661383788454058,-1.1229978305826652e-05,-0.0001031365258555573
0.9965434701449413,0.00016789327977446755,0.0,-7.183341539856093e-06,-0.0003178616012168451,0.0001876361754207015,-6.140330126446714e-05,5.604463793626873e-05,0.00013259168605872778,4.675504831310153e-05,-4.674442201950156e-05,3.0531502132070566e-05,-0.0003237137562714995,0.00012671355073471665,-6.623856581505644e-05,-0.000157508957578052
0.969126377818375,0.0002433558460812033,0.0,4.339902996653644e-05,-0.00017216896621112076,0.00013241494113848124,0.00015117241772868073,0.0001989346108190458,-9.313065691245031e-06,6.942246692961196e-05,-6.940261732474854e-05,2.1928476542093734e-05,-5.455961056494356e-05,0.0002008616023957108,7.463287712294154e-05,3.2580400136422995e-05
0.9941002308348931,0.0005363701099353201,0.0,7.599658955613417e-05,6.471508035430109e-05,-3.9449855373498365e-05,0.00023842948750156436,6.584043099394363e-05,0.0007642017928466485,0.00022805323924069502,-0.00022794272704185,0.000726599729372879,-0.001028955537991016,0.0007352603331737413,-0.0004457080196814891,-0.0004992553113574304
0.9765058874767913,0.0002595443155845494,0.0,8.544358913666106e-05,-8.33830556590994e-05,0.00020967263668590134,-4.517255068919101e-05,0.000507878562851513,0.0003933049985138838,9.443268841124353e-05,-9.440187806940873e-05,3.78910510805061e-05,0.000263407880068017,0.0002647316272572965,-0.0002814965902452451,-0.0005222445315880128
0.9994176531193991,0.0004313086997669222,0.0,-1.591042210979834e-05,-6.120605581067348e-05,-0.0001542847385460616,0.0001636212194824338,0.000335794757996672,0.00012218169147236219,0.000161284229818918,-0.0001612208786719276,0.00010968456414579462,-0.000531136391857974,0.0004554794337114579,2.4496578361001002e-05,-0.0001710021577123366
0.9785672068214436,0.00040722125399012666,0.0,2.7588404012067173e-05,-2.4958377825937844e-05,4.3624673914190126e-05,0.00014007541637523925,0.0002649485357905768,0.00011015956897456141,0.0001349620266712993,-0.00013491877197607845,5.085548236122526e-05,-0.0004829779369230176,0.0004261826864948748,-0.00027511952868286457,-0.00019526245498594337
0.869043301396887,0.0009731598939342346,0.0,-4.863341006889589e-06,-0.00015766712239779026,0.00025391004335653206,0.0009524782124470764,0.0006612214034824255,-0.00028517238964414387,0.0002217022445885703,-0.0002215505566101391,0.0009665662616265307,-0.0009797839805417046,0.0008791994670526603,1.712454404776785e-05,5.724943834981595e-05
0.817747382453651,0.001176715438008608,0.0,-0.00011576709283105826,-0.0005420216674344213,0.00030846354091816327,0.0014008861827433448,0.0004137248309380129,0.00025927992691029234,0.00023306165406656383,-0.00023286664145141358,0.001108971508985676,-0.0014294886966953377,0.0009767007546002595,-0.0007923666584080456,-0.0009952423897774897
0.9674266669781325,0.0005226881624941984,0.0,2.0016609394809503e-05,9.801084177248146e-06,0.00021588572367618554,0.0003708516478962554,7.019716058507801e-05,-0.0003908745818571172,0.00016964240378718,-0.00016958129074345923,1.3092592842381482e-05,-0.0006089648787357527,0.0005762027414570274,0.00018454850665673692,6.0674859913909456e-05
0.9846391030023068,0.00046494177769063565,0.0,-7.583231188417752e-05,4.8477999446019486e-05,-4.660849573108254e-05,-0.0003330109662455305,0.00042424730812013183,0.00017514660217960964,0.00016668958735258132,-0.00016661365005089817,3.686033057186545e-05,-0.0008348114643185752,0.000515397669712094,-1.2007160019716721e-05,-0.0003169127613990306
0.9783563355838018,0.00029405741286749656,0.0,0.0001926882563695386,0.00017543090346678312,0.00028083511001572424,-0.00012019787682763193,0.00038031046082542716,-2.0110134740771687e-05,0.00010821894266905656,-0.00010817991641586836,-9.12282297244725e-05,-0.00025200910771927754,0.00034580543302531317,-8.22462949784662e-06,-0.00014339226314173925
0.9836332565189108,0.0006287269808421997,0.0,-0.00017651601590633686,-0.00032494300163988946,-4.072023578889084e-05,0.00017870989798505268,7.954872801774337e-05,0.001119226151353957,0.0002647459155429982,-0.0002645902528697387,0.0005430334545639588,-0.0014850692735676498,0.0008254707028194324,-0.0006734855611383609,-0.0010080955193892372
0.9701648152877255,0.0002315646928802783,0.0,3.5093153554831554e-05,-0.00031192003775603786,0.0003472791118110089,8.174862426029895e-05,0.00022520102400065264,2.3329799532690237e-05,3.956533469664321e-05,-3.955148993976684e-05,1.7131578951349392e-05,8.47518700063245e-06,0.00012093900002073382,-0.00019772352988482568,-0.00015777180892225258
0.9994195965284485,0.000204219294447392,0.0,6.409358606894824e-05,-0.0002349829312827878,0.0002392880547386507,7.869235804364321e-07,8.699989457649216e-05,-0.0003717903844954176,5.669605381429462e-05,-5.668079631906471e-05,2.0502375500491975e-05,-0.00037903294663063923,0.00015723780312546512,-6.671598276497641e-05,-7.637156414269474e-05
0.9814777914669524,0.00025380676169155724,0.0,-2.0160926136636135e-05,-0.00018406136172126558,0.0001233477247072307,0.00021702074473983862,-3.793579550005885e-05,-0.00019424791654393294,8.299286814008896e-05,-8.296457200398667e-05,-9.344403612795537e-06,-0.0004485214476218474,0.00021965690060482348,8.422409455622423e-05,5.176474437715672e-05
0.9927164730151297,0.00018815822038727132,0.0,3.16205319717775e-06,-3.392472597626226e-05,0.00011143207769284439,-0.00014279590134418796,-7.711213261480318e-05,0.00013139770600192834,8.02453054530274e-05,-8.022895773324085e-05,2.9250086147351367e-05,-0.0003697396045383831,0.00020323604624510692,8.216297499824806e-05,-0.00011981606817587149
0.9879427510674947,0.00039567021640375666,0.0,-3.423071070280539e-05,-8.225961541356862e-05,9.818822784484393e-05,-0.0001538378206019923,-0.00019116762729157451,-0.0001365584235464342,0.0001501607762388365,-0.0001500922402599104,0.0001852183099874272,-0.0008304576356953584,0.0004328058630400784,6.134644125670491e-06,-0.0003114283376246401
0.9889682154472852,0.00029841014667748183,0.0,5.931290213362271e-07,-0.0004763748793540388,-0.00013388359336164932,6.92383141584175e-05,-0.00015722705606343486,-0.0002504351120964816,8.375916284344742e-05,-8.372048929868245e-05,0.00011993485916356735,-0.0008356150028989831,0.00026353883422118167,-0.000249291740663112,-0.0001966471889539955
0.9917451312607697,0.00013416087281027837,0.0,-4.982944681870181e-06,-0.00021689656581789512,9.149094258331744e-05,0.00018318354392623954,-0.00010989907508143169,-3.6009057585036817e-05,4.30897796115354e-05,-4.308082505257309e-05,5.618734395488902e-05,-0.0005077030529383543,0.0001067360241333018,-0.0002636166659819685,-0.0002658303396168713
0.9815269040826919,0.00023619206001355367,0.0,-0.00020994676699924572,-0.00024332446901404218,0.00010225095786986945,3.244761263603038e-05,-0.00011124759732094409,4.8601670750625436e-05,6.900965929835796e-05,-6.898663271509973e-05,4.068858981646575e-05,-0.0006023893131237347,0.00018313244695535767,-0.00017513420056217193,-0.00017211790614660003
0.9964731292828068,0.00019833240912480794,0.0,-7.071518356284306e-05,-0.00021597991615011442,0.00017473875769873925,2.4163998212827882e-05,6.142272056173237e-05,-9.557787135169273e-05,5.301431469762533e-05,-5.3000214963655946e-05,7.223480539554609e-05,-0.00033893759107013987,0.00015073504497520145,-0.00011946055114965112,-0.00014919920422802943
0.9725519886107903,0.0002558321515117729,0.0,2.1386578226556285e-06,-0.0002997178149977062,0.0003029869039641725,2.3898400124127377e-05,0.00021377283785053888,2.1328348486761864e-05,5.675884428875604e-05,-5.673847490081261e-05,8.717476786593223e-05,-3.966485391879346e-05,0.00017391823876671317,-0.00012900058182200165,-0.00023065824833883012
0.9906791142180448,0.0006006590367695763,0.0,4.203219319423307e-05,8.85900625401392e-05,4.2285351704475404e-05,-8.402282086744047e-05,0.0002569919056086874,0.0007738479171261218,0.0002599088039010068,-0.00025976328274498794,0.0003548939028430341,-0.0010839532269380045,0.0008043799361201486,0.000522573805943377,-0.0002580605502981364
0.9841089012158208,0.00029796522886261226,0.0,-2.440454296284695e-05,5.2994780000057695e-05,0.00017731109384951977,-0.00019245193192367273,0.00043554158959488047,4.374463869998861e-05,0.00010827076607618916,-0.00010823202962835218,8.143813855273924e-05,-0.00022211950714534767,0.0003277894389572216,-4.3066598093820215e-05,-0.00016678986949358207
0.9911695942638494,0.0004964421609386457,0.0,-6.212945388305771e-05,-0.00012416260911520625,8.225312136932263e-05,-0.00010055164324479992,0.00036814218150928906,-0.00020706577847767215,0.00018147838319207998,-0.00018139665457063243,-3.750159013629174e-05,-0.0006871243218398724,0.0005484329175465038,-0.00016481875816049836,-8.600802548850927e-05
0.9703784628443455,0.00046514103587474916,0.0,4.894680684982572e-05,-2.8587057370122517e-06,0.00013376564050969258,0.00014919426334151248,0.0003274561499927957,0.000175687148634191,0.00014285022184226155,-0.0001427986836084651,1.2098920206076624e-05,-0.0006110058889821694,0.00048452642993295576,0.00028435076127705935,-0.00014750502752621672
0.871407287020211,0.0011109022269938222,0.0,0.00032383404910123453,-5.5016901158253545e-05,0.00047734042445196693,0.000941744490269008,0.0006259940326752107,0.00017395761718206267,0.00024838684346535416,-0.000248180675631849,0.0010854864806788625,-0.001225366475528116,0.0010069347064353277,-0.0007138932351794668,-0.00027319484813574137
0.8279202499807761,0.001316033618339942,0.0,0.0002043336549102465,0.0005543771424374547,0.0005835387050572441,0.0008040728873187558,0.0004252254238857174,-0.0006160155110711896,0.0002567066026277231,-0.0002563888692209414,-0.00015372859756717115,-0.0021834989209480902,0.001055821147699266,-0.00025335176953442806,-0.00043158719451719384
0.9667089188965086,0.000623023077643753,0.0,-0.00020848501632332977,-0.00032191444038644565,0.0003282491191164652,0.0001550830710706455,0.00017038234861751545,0.00020716485109413942,0.00020673429228853596,-0.0002066120207001974,-0.0004274176048929963,-0.0012199585804027325,0.0006554946098040345,4.5323166877530864e-05,-0.0003866508136130977
0.979613282814078,0.0005973578470843149,0.0,0.00021300080611033487,0.00022608202986154212,0.0004831181126539826,-0.00023264491871575156,0.00046845286706000795,-0.0002084833691231041,0.0001929708053992836,-0.0001928377478413389,5.177657799478493e-05,-0.001530501840848617,0.00063390369146881,0.0008273125777365526,0.0005394808801327167
0.981606475921466,0.0003518124463668254,0.0,1.1392990801897413e-05,0.0001357725652541176,0.0005772683698903193,-0.0005417246788202074,0.000619599892725049,-0.00018702446738276258,9.20054536197775e-05,-9.195507652159398e-05,-0.00011515869363350482,-0.0004516672683250044,0.0003546674918536053,-0.0002800774040090766,-0.0003532713401576939
0.9704870299801308,0.0008461858503960699,0.0,0.0002395341156274203,0.00031816141539585684,-7.24126807704341e-05,0.00026867680571828514,-0.0004691241819003498,0.0007671931624075765,0.0003582376395252575,-0.00035794779967105,-0.00023437804682465384,-0.0021249694212374898,0.0013650927524512524,-0.0018749298848131206,-0.0015472595567089069
0.9709852357341844,0.00038325786234164603,0.0,7.539785329408681e-05,-0.00022003917792958472,0.00040082515243745,-0.00040906523782498563,0.00023794272926458694,-1.5972963821613173e-05,7.384317877602219e-05,-7.380202400988922e-05,-0.00014725584278720369,-0.00042172691752609,0.00022927936251694334,-0.00015563815038320525,-0.00020757104507657722
0.9932562201581483,0.00029738774771390764,0.0,0.00013496654036458287,-0.0004140678468255482,0.0004972115880722247,-0.0004356567980783187,5.132334019447468e-05,-0.00039971788230267597,7.462088811969161e-05,-7.458780704840802e-05,-6.020103209773648e-05,-0.0007894291013116025,0.00020284434173114185,-0.00029509266696054896,-0.0005322789041499061
0.9767085122575802,0.0003475317441989198,0.0,0.00013457376831565982,-0.0002120221114839042,0.00046560688881019566,-0.00013559842057158376,-0.00015487413595987446,1.4387988955861618e-05,9.329672076723498e-05,-9.324570234997388e-05,-7.460121868347783e-05,-0.0007532464467476518,0.00025925810510054215,4.778129582457487e-05,-0.0002847343529452461
0.9889584601945736,0.0002906546223399851,0.0,7.208122462125281e-05,-1.3607850105977378e-05,0.00017005271919309976,2.56087309560524e-05,-4.6125815591528724e-05,7.938397743860321e-05,0.00012816556093936824,-0.00012812384706049204,-0.00014833659567099479,-0.0005332651365954018,0.00034197566561384963,-5.118706400861008e-05,0.00018766910734247013
0.9833551295106896,0.000408493412994385,0.0,-8.172808644905598e-05,-0.000476710284498851,0.0005733350622805318,0.0006080190360632553,-0.0002453031351427674,-1.390269818884648e-05,9.543510074714234e-05,-9.537079716155075e-05,7.222430256549697e-05,-0.0010612885967867802,0.00031851562074332687,0.00022012438555605966,0.0004824268827512232
0.9821620688614504,0.0003817814344137091,0.0,-0.00013283760352029273,-0.0005980029200475934,0.0004274447489220245,0.00015309309301404518,-0.00026281958487375947,-0.0005944046466026676,7.058836442303395e-05,-7.054122826244348e-05,-1.5562739304736393e-06,-0.0009607318227046632,0.00024992065346037326,0.00016792039335521798,-0.00018148040057861756
0.9884742338387298,0.00024191245180268876,0.0,6.4165306795187445e-06,-0.0001747739116467536,0.0002794896193700447,-6.002226037838596e-06,-0.00011507331742069577,0.00012118622799424705,8.992165896379727e-05,-8.989119986420889e-05,-6.966480974436312e-05,-0.0006641486610516322,0.000228164965125089,-0.0003040319935131994,-0.00018578944602386368
0.9802303543016495,0.0003771974373698115,0.0,1.2683676165266914e-05,-0.0002590150756504519,0.0006212022606112962,-0.00010181994161365662,-0.000147970168445174,0.00029863098385239016,0.00012012038608137415,-0.00012004978156839249,-8.00177910040653e-05,-0.0009669073973256174,0.0003004999102814009,-0.0002740280264307262,-2.547332818127626e-05
0.9880039639133071,0.00030750785513012193,0.0,9.034864537422285e-05,-0.00047432940386888235,0.0003295310775666329,-8.785560757725553e-05,-7.918973847244066e-05,0.0002873059780881937,8.821111357728964e-05,-8.817252280710536e-05,-7.115723437575433e-05,-0.0006947356450353753,0.0002451801133123781,-0.0001408942630444679,-8.546702060943366e-05
0.9725214872099485,0.0003532932218138973,0.0,-8.320447978262994e-06,-0.00041099116048112175,0.0007192589348112473,-0.000137977889348601,0.00020344571427661928,-0.00029440511044828097,6.191172938329192e-05,-6.187396191485518e-05,-3.423215597228769e-05,-0.0003388567214706886,0.000173564528876075,-8.271976338256131e-05,-0.0002914210187375761
0.984913419386545,0.0008155272012366914,0.0,-1.517620563186856e-05,-7.150128089710673e-05,-9.26244188555949e-05,0.00011201123746590768,7.937404809748253e-06,0.0006306196576736324,0.0003358534112521438,-0.0003356113761588353,-0.00047145198774415324,-0.001819791149061782,0.0014100704341101758,0.0006990129513681482,0.0015487385269436855
0.9865861781822338,0.0003192062927626156,0.0,-4.6583905419715166e-05,0.00020162798704232546,0.0005272552411195052,-0.0005957812133817824,0.0006037672956265052,-0.00016317101132680236,7.292037150493197e-05,-7.28807109761915e-05,2.8117818833625296e-05,-0.0001460325861336795,0.00025100155803954024,-0.0002320893337863972,-0.0005155737134120155
0.9853080530503109,0.000662669530452068,0.0,1.1311648775923638e-05,9.484867076609254e-05,0.00036437059136438474,-0.0004669648764660375,0.0004804780933074621,-0.00043257907831196595,0.00022491931205624287,-0.00022476284665882228,0.0001845024875795523,-0.0012284784247447102,0.0007238981692005348,-3.2966823167508254e-05,0.0002034674744521969
0.9689999594498936,0.0005360213461149862,0.0,0.0001335677410072138,-0.00015090416680071058,0.0002998291518292163,6.801305729052892e-05,0.0004826844320395643,-0.0003353068684196105,0.00014611166985789383,-0.00014602739532956242,0.00018380125724035468,-0.001151123702193978,0.0004864580809414933,0.00028904648679207827,0.0007258376664433032
0.8713046303638511,0.0010875947010329568,0.0,2.8171301648685707e-05,0.0007890748393021566,0.0010293886568763274,0.0007404828764461772,0.0009175074063923622,-0.0008691970232338101,0.0001520897412060287,-0.0001519228129285551,0.0004152859712010761,-0.0016309462848746225,0.0006930283563771029,-0.00044602334235221996,-0.0006345834004308135
0.8571213760041729,0.0016413131897599982,0.0,0.00024527658170226795,0.00028080183639731454,0.0025643052279640532,0.0022381513392867795,0.000535704945039582,-0.0014978823186680317,0.00020378876781210892,-0.00020337513856107429,0.00019601111526210322,-0.0019878287542296077,0.0008364718719907187,0.00031440481569479015,0.0004811214228487592
0.9724045405402272,0.0009865277896474473,0.0,0.00018875961518938315,-0.0006133306577541246,0.0005209479036214458,-0.00046618481749867685,0.000607758698263821,5.241112201605166e-06,0.00026695415045101343,-0.0002666584688436644,9.059888916496319e-05,-0.0017032478263735837,0.0007859520850595358,-0.00038131479046899766,-0.00013276216701419878
0.9741468352501538,0.0006921209759822764,0.0,0.0004860820961587275,-0.00035489577871348316,0.0005510205189918733,-1.9808077576182055e-05,0.0008344845404467792,-0.00016356438847495662,0.00013423411516319647,-0.00013404839517313502,2.7581265454981827e-05,-0.0016866215389234288,0.00036273030743979684,-1.7770321043393466e-05,-0.0003982490520576845
0.9777068262068966,0.0006989459785069987,0.0,-0.00030150871215861244,-0.0007716274261868864,0.0014193539371199807,-0.0006464972058270822,0.00036221170314080825,0.0006186406902283214,0.00019558463278348276,-0.00019538544553298495,-7.126112629692993e-05,-0.0006646689149662773,0.0006054471986681585,-0.00012621189703328095,0.00011084699508118771
0.9639454890928777,0.001700561008212507,0.0,7.414807563885554e-05,0.00024889989164534823,-0.0010525512893323308,1.0288213876654567e-05,-0.000591265883459633,0.0016096991255503525,0.0006734617282755186,-0.000672409797297455,-0.0002357646431318061,-0.003710259249937492,0.0025056717763576467,0.000791363836324836,-0.002845807553071943
0.9752628885979524,0.0007038791124321397,0.0,-0.00018367102294668928,-0.0014571519347807104,0.0007189663157339276,-0.0002576870058734711,-1.3725323015203372e-05,-0.00016084710364554444,0.00011997894520758845,-0.00011984662378738873,-0.00010008524524414844,-0.0011634296181115666,0.0003281915885183499,-0.0002625398730227824,-0.0006829425024804562
0.98332497344462,0.0005913514144116471,0.0,9.97473524481096e-05,-0.0004233514419933522,0.0005836062550600458,-0.00026669422234540006,-5.578837629655878e-05,-0.00016122835121250363,0.0001716105223287264,-0.00017147136761072287,-0.0001483427218437344,-0.0009411835818612419,0.00045611689676765504,0.00021206721358144306,-4.5308430092249806e-05
0.9724868179861711,0.0006874550586625953,0.0,-0.000176722991676692,-0.000730506071686713,0.0008969259638827244,5.692332981275348e-05,-0.00020452797494089364,0.00031977207063210885,0.00020278787754953207,-0.00020258873248355086,-8.806170606395082e-05,-0.0013038422901553556,0.0005425594886250443,0.0001336730728246562,0.0002783465218824232
0.9818872890623904,0.00048247732942829604,0.0,0.00017563908027021298,-2.8736826973048966e-05,0.00021156963052005993,0.00028701466271992965,-2.9711507886145843e-05,-9.397014913645108e-05,0.00017425468980961553,-0.00017415404768927125,-4.946432519043561e-05,-0.0009495204377270736,0.00045638052835680274,0.00018829227497147184,7.852272831975758e-05
0.9759122271944265,0.0009006001629166928,0.0,-0.0002106086220434426,-0.0009049056666016311,0.0007292198523263199,0.0007194743582026069,-0.0003352838241188404,0.00010083629711410767,0.00029900929795718083,-0.0002986120803776295,3.5759135019394625e-06,-0.0018103840322442495,0.0008256764517598354,0.0006198081006403643,0.0001778453374658087
0.9736556768490143,0.000557849485834028,0.0,0.00029064256203902613,6.702601476549036e-05,0.00013552739554687786,0.0001822821968509058,-0.0003359705817408989,-0.0005781997474711685,1.6798648945227054e-05,-1.6778159983056595e-05,3.2323031250226765e-06,-0.0014602757091032802,6.196588511797327e-05,-3.0471129691517088e-05,0.00011418166493226441
0.9816811706615514,0.0004935078455733694,0.0,0.0001082772816345174,-0.00025287656914848455,0.00025033656110931,0.00011849783405374809,-0.0001303104485164362,0.0002984121129821156,0.00018161610315466916,-0.000181509514502472,-0.00010594503225377909,-0.0010072142222524482,0.00046660866022945463,-0.00025104968266582143,-0.0003404908547690718
0.972339269963931,0.000582107443000291,0.0,3.6979033102925104e-05,-0.0006970575862316897,0.0008873217767260525,0.0006397683082384922,-0.00030991237770249506,0.0002748253778688567,0.00012153883613144692,-0.00012142620259980447,-3.6095677492034107e-06,-0.0012286216780057213,0.0003363519436672466,-0.00016522281639566114,-0.00040482236158530477
0.9836310274010331,0.0004815062761213628,0.0,-6.248909807074815e-05,-0.0006097738707655609,0.0010056358147769917,-0.0002688176085917411,-0.00015190399046748155,-0.00018898881960123783,8.037460053822008e-05,-8.030986488601747e-05,-3.866450087517969e-05,-0.0008507235780277274,0.0002347877985832976,-4.264615637580022e-05,-0.0005121600126168437
0.971777290738314,0.0006500819144520483,0.0,0.00017809129135238426,-0.0010285393386438467,0.0008198018240902411,-5.95851549349183e-05,8.384451855976648e-05,-0.0001193372090160416,8.991884017535271e-05,-8.981790744560311e-05,-1.6519846779126831e-06,-0.0005074005164308661,0.0002400804594499059,-0.00021733865338804993,-0.0003647216882271644
0.9739937178800365,0.0016543339022889896,0.0,6.792907736627547e-05,0.00039447777436692227,-0.0008100249089457189,-0.00020557567705026947,2.07494675475319e-05,0.002084582304165398,0.000591108913654253,-0.0005903153559878293,0.0007072780376724583,-0.0036043143724836632,0.002532168103325739,0.0006810189072524938,-0.0008716248020305388
0.9859991744955773,0.0006048140191546299,0.0,-7.684375691461774e-05,-0.0007049632680292814,0.0005807376986559074,-0.0005649060934797093,0.0004827953123227387,-8.509173682469016e-05,0.00011721560064419863,-0.00011709294974888763,-4.194620088679366e-05,-0.0007324116524268092,0.000344241754484249,-7.688545981536286e-05,-0.00035349621443787877
0.983893687875633,0.0008926717826985755,0.0,-3.479411969306591e-05,-0.0008346166653626964,0.0006765243031007139,0.00012653820674415374,0.0009085079264287814,-0.0005646468842912065,0.00023733909235264543,-0.0002370041310493006,8.61036489909249e-05,-0.001855193348055297,0.00062678239218716,0.00016182371167886806,5.065123947142841e-05
0.9753877170486985,0.0006587284791119233,0.0,-0.00018704949705864238,-0.0007825496080275916,0.0011812079185873567,-0.0001237570460371468,0.0009249940242593062,-0.0007970404006830981,8.1835061022896e-05,-8.17425807661868e-05,-2.7880883087460556e-05,-0.0017780120155995696,0.00023689220532239547,-0.00020664225270808622,-0.0005405568557185376
0.8963761427300423,0.0015993668351865695,0.0,-0.00035659391606121516,-0.0015873499065575624,0.0021708173619720997,0.0021771630855076437,0.0006388328845047436,-0.00036094055362746876,0.000194075528643075,-0.0001936757557668251,0.000360420721033351,-0.002077090929314875,0.0007595850039074232,-0.00016811553024312262,0.0008002906935408599
0.8918464745927607,0.003191465792119386,0.0,0.0008521003440139511,-0.0016235127995296505,0.0037009300582461924,0.0009017353718273514,-0.0006178555970196986,-0.00082777906542864,0.00036315939774216104,-0.0003613874316520774,0.0002582601034277009,-0.003922733355991118,0.001193754272938985,-0.0003991062065847992,-0.001596313917462789
0.9695676282840591,0.0010302045432398228,0.0,-8.746290951724817e-05,-0.001062902380464595,0.0007180463283896113,-0.002252230534995908,-0.0002823967094102623,-0.0007154049348913546,0.00013933234480190284,-0.00013906265148653336,-2.1130112513569276e-06,-0.0023490176045960266,0.00046975988766883675,-6.267572516502076e-05,-0.0008551789840861644
0.9775411073359712,0.0017937979272703492,0.0,-1.6850221890908994e-05,-0.000591178111642502,-0.0017160239426288592,-0.0022727718781233885,0.00033274959486732973,-0.00013473513078883766,0.00044999502390052486,-0.0004489468824072883,-3.769933849990775e-05,-0.003332466347677688,0.0013853239126886843,-0.0013812921553015718,-0.0009168031818436929
0.9793638172051743,0.0007146518220929789,0.0,-5.045920715250975e-05,-0.0009354685236597389,0.0013509751041006237,-0.0021080133667458157,-0.00017070166810517092,-0.0010737012849716925,7.735317445901984e-05,-7.720944945536026e-05,-4.2015964135154536e-05,1.1682349931669969e-05,0.0002328144585606946,-0.000270123845908361,-0.0005710921190942765
0.9676094637875832,0.0028463789884704406,0.0,-0.0003109752125193767,-0.0001515278701182492,-0.00010821535282474106,-0.0010962804069132965,-0.0022703363840702244,-0.00041285938997830075,0.0009341059444716576,-0.0009318254746946806,9.498891098355894e-05,-0.004590338852691743,0.003519274210410202,-0.0015635504132407692,-0.0029012443481768488
0.9784424296464699,0.0009392908225213971,0.0,-0.00020945048928165552,-0.0010962073123301239,0.0014109289575361323,-5.134124786394306e-05,-0.00030827620804162393,-0.00039216885211430173,0.00010923303744742108,-0.00010903612756187574,1.8105219494585553e-05,-0.0011213597031623792,0.00034415445343595247,-8.517285879374794e-05,-0.0005197897985625857
0.9842627472158056,0.0007899311126100674,0.0,0.00011203167965943705,-0.0008891072965719452,0.0017128107034621225,-0.0002656742255213513,-0.0003443363870330602,-0.0011379707325191387,0.00014032527563677107,-0.0001401363613552176,3.872515589220133e-05,-0.0014550364440145366,0.0004424394666020393,-0.00016441427445031405,0.00010996329879466774
0.9814522034295059,0.0006898725440860163,0.0,0.0003373693140934693,-0.000982431034214821,0.001058415088237586,-0.0007087894770321004,-0.00042342791018828947,-0.0006582808810417512,2.6980047308367824e-05,-2.6930622127304274e-05,7.002129169272156e-07,-0.0010346605560231084,7.618089805602656e-05,-5.3178810565479996e-05,-0.00015589628993071042
0.9878735247222478,0.0004288801764420082,0.0,8.811191973820405e-05,-0.0005620501545640407,0.0005503360675201831,-0.00031033419527186096,-0.0005509018167656859,-0.0007880129027191136,2.7857229971083593e-05,-2.782689057929819e-05,-3.9073345741922085e-07,-0.0020222235951187794,7.968309610077399e-05,-7.366885189707155e-05,-0.00016429549929189327
0.9765374110030745,0.0008875142659802449,0.0,-0.0006261093058125537,-0.0005503555476611749,0.000933814278606241,-0.0020135100886838997,-0.0006790902581068019,-0.0008605125644960676,2.294406289746918e-05,-2.2889379868362166e-05,1.844988132189227e-06,-0.0018709689646399267,8.052495367106652e-05,1.73078246046288e-05,-1.5482415325070207e-06
0.9766460131651145,0.0008240254083564304,0.0,0.0006113605508550468,0.000636022255834375,0.001313317133160807,2.925455746922429e-05,-0.0005241159779431569,-0.000666995234238852,2.117754352669769e-05,-2.112588220292309e-05,-2.857621484281054e-07,-0.0017642396101027683,7.82285008892037e-05,-2.6518425811072172e-05,-8.356139346911683e-05
0.9870664059019185,0.00047185407431096793,0.0,-3.263420299805601e-07,-0.0007593938137436909,0.0010811748784973958,-0.0001999187014359856,-0.000553891981678287,-0.0009430100930964509,7.842782912300793e-05,-7.834382876114538e-05,6.374074088087446e-06,-0.0014135659071164678,0.0002236705132963396,-9.733465825169614e-05,-0.0004054414818328892
0.9869994818377226,0.0008758965999405162,0.0,-0.00011269348734965232,-0.0014472178141330678,0.0012170455863471405,-0.0005266357084040021,-0.000548654639102359,-0.00033758082513436413,0.00017032561900957638,-0.0001700464499840802,-7.911403859114747e-06,-0.0017926485207472459,0.00047593477408569833,-0.0002947981226898315,-0.0008404992159418359
0.9828189535267621,0.0007671270941416779,0.0,-0.00016417238479159426,-0.000791005610547057,0.0012864800215205668,-0.00030633132387331393,-0.00029695555351122454,-6.33436574895257e-05,0.00010281286725880121,-0.00010267480954868041,-2.0521345638145958e-07,-0.001269710322246712,0.0003271073045876776,0.00020107714888907826,0.00020748210395587103
0.9791129723291652,0.0009357160970074101,0.0,-0.00013119889753042434,-0.000215220843841078,0.0011635884535339033,-0.0008454039425786181,-0.00026510498937949804,-4.417599883850072e-05,8.05483352278265e-05,-8.039440058778093e-05,6.632761654941771e-06,-0.00048278844923027353,0.00024412486359121256,-6.099672509788511e-05,-0.000292827807878141
0.99239939085493,0.002731974811799213,0.0,-0.0008765962507392644,0.0003277614440781592,-0.0010617184249565063,-0.000998623915926773,-0.0018627432818855115,-0.002130538687881996,0.0009094826644546911,-0.0009070933884063244,0.00036022550812948346,-0.00453953404199786,0.002902160979604121,-0.0001420552233186983,-0.0031057984125482056
0.991085692573177,0.0006898735784075081,0.0,0.00011343856333431892,-0.000868011632919373,0.00027217875841968576,-0.001823359143679463,-0.00044207105410377435,-0.0008880935787416597,6.434620423627905e-05,-6.422391953429568e-05,-1.0239200368814764e-05,-0.0015075395287188096,0.0001900447389875944,-7.563039920815296e-05,-0.0005238902021686241
0.9763849667448227,0.0010259706899387391,0.0,-0.0004452626098581266,0.0008000006624432695,-0.0008597566654935308,-0.0006638312221938113,0.0007155360236506686,-0.0003654518767468983,8.902693956167896e-05,-8.88174371181214e-05,-4.672206813604701e-05,-0.001846817119781312,0.0002850607432393635,6.271490621911298e-05,-0.00014594241375779938
0.9784561115873365,0.0012840794550954963,0.0,-4.504459277035186e-05,-0.001186074692460509,0.0025085195944261956,3.761574524273468e-05,0.0004598097677284661,-0.001595658919516192,0.00023388485104198042,-0.00023345429855725633,2.0121343982112833e-05,-0.002020787470951134,0.000816059584117082,8.562782468001473e-05,0.0001432586949036771
0.9300473284808021,0.0024031466929470796,0.0,-0.000844237146983833,-0.0030204391350337743,0.001504752331672032,0.0010572281402247187,-0.0005495940112276745,-0.0003891764937529387,0.000122969786505322,-0.0001224240655839628,1.2192975736224658e-06,-0.0014350189008221553,0.00047201973234406577,-0.0003627681719817941,7.828627517370381e-05
0.9861237700951542,0.001361830891200797,0.0,0.00022446820336123938,-8.738790304260468e-05,0.00037263112024902043,8.17284919313661e-05,5.285312244633907e-06,-0.0002562109362716666,0.00039790799876952387,-0.00039757818290577293,0.0002986520940447876,-0.00141813998858111,0.0013799051682636435,0.00012852549758957606,-0.0006233703204317151
0.9674513710980964,0.003476451930548461,0.0,-0.00071791274326318,0.0022192896253167044,0.0024549085228104555,-0.0003546565129018985,-0.0009753517770224409,-0.0007365727141656418,0.00010155026751999519,-0.00010106875487548963,0.00020397057527522265,-0.0011905480305953967,0.0003027625787045578,-0.0001658057863003182,-0.0003950706550802368
0.9871356579304855,0.0007862461997046486,0.0,0.0006884983209281855,0.0014232475720671641,0.002345344763550663,-0.0010129165346810488,0.000638918985462764,-0.00046812826390209023,0.0001507817832284051,-0.0001502753579116876,-1.3150919881230693e-05,-0.0007058325850517299,0.0005043470898637042,-0.0003354193254547545,0.0001803101876179724
0.9869828537102727,0.002841429082433339,0.0,-0.0002756632720917881,-0.0013154567325822488,0.003407674400728658,5.665284740373391e-05,-0.0019194526780292856,0.00018579258045555745,0.00027329878958075467,-0.0002726502212534618,-2.7629050063057553e-05,0.000167581531306636,0.0012051857226126705,4.792005972253652e-06,0.0021116115883123335
0.9826960865675088,0.004131935505487778,0.0,0.0018328950133775868,0.004261305156716864,0.0012624277788024754,0.0006413073756217445,-0.003923864885683476,-0.0020108534639015655,0.0006546905003724135,-0.0006525950312236047,0.0008896883137314918,-0.0006298187114175226,0.002532697038226211,0.0023972373315682507,0.0016762968357590547
0.9915351689868516,0.0012871499353024505,0.0,-0.00030911350168029363,-0.0007426953071343405,0.00042328509160150353,-0.0016586498161069777,-0.0006554557910494752,-0.0001284558526052881,0.00011406323218470446,-0.00011375523062480431,8.99661261002963e-05,-0.0011361522699728252,0.0004853381034191362,-0.000608092358470948,6.823727169158182e-05
0.9901299835095796,0.0005830897612024246,0.0,0.0003254575142897474,-0.0006068702130903996,0.0008861626718296575,-0.001616110454879518,-0.0005819873861040556,-0.000462400692236953,7.596223498518442e-05,-7.579861575277552e-05,1.4158459028730957e-05,-0.001047115380433429,0.0002940628544345905,0.00025673528293645553,0.00020369167553100712
0.9852699722403216,0.0016200961771500805,0.0,0.0009565424050532211,-0.0011545932492717692,0.002335069825341741,4.056362075767201e-05,-0.0008461538405377274,-0.0009587535826375145,2.686512317087869e-05,-2.6798421607523568e-05,2.891837275250424e-06,-0.0008062665643842491,8.633563302609338e-05,-4.5958453843827777e-05,-3.228948063875185e-05
0.985632323216752,0.00035499169716468354,0.0,0.0001432948712337728,6.694181371907054e-05,0.0008714575998716518,-0.0005919597157941052,-0.0004496158274383167,-0.0005034936963678405,2.1074128118714434e-05,-2.10321592576603e-05,4.333716528009053e-06,-0.0007056799181554286,6.283777242952016e-05,5.711912853902687e-06,4.2273626003462724e-05
0.9776098531009995,0.0002843191787747313,0.0,0.0008978393841411665,-0.0013827730433578083,0.0009886644891016249,0.0014866338177765624,-0.00038863163467736845,-0.0003984635721685302,4.696488955155519e-05,-4.687932524887025e-05,1.1777845985194994e-05,-0.0002902687888816072,0.00020305403325647373,0.0001579174212249826,0.00043646517807834247
0.9776098531009995,0.0002843191787747313,0.0,0.0008978393841411665,-0.0013827730433578083,0.0009886644891016249,0.0014866338177765624,-0.00038863163467736845,-0.0003984635721685302,4.696488955155519e-05,-4.687932524887025e-05,1.1777845985194994e-05,-0.0002902687888816072,0.00020305403325647373,0.0001579174212249826,0.00043646517807834247
0.985632323216752,0.00035499169716468354,0.0,0.0001432948712337728,6.694181371907054e-05,0.0008714575998716518,-0.0005919597157941052,-0.0004496158274383167,-0.0005034936963678405,2.1074128118714434e-05,-2.10321592576603e-05,4.333716528009053e-06,-0.0007056799181554286,6.283777242952016e-05,5.711912853902687e-06,4.2273626003462724e-05
0.9852699722403216,0.0016200961771500805,0.0,0.0009565424050532211,-0.0011545932492717692,0.002335069825341741,4.056362075767201e-05,-0.0008461538405377274,-0.0009587535826375145,2.686512317087869e-05,-2.6798421607523568e-05,2.891837275250424e-06,-0.0008062665643842491,8.633563302609338e-05,-4.5958453843827777e-05,-3.228948063875185e-05
0.9901299835095796,0.0005830897612024246,0.0,0.0003254575142897474,-0.0006068702130903996,0.0008861626718296575,-0.001616110454879518,-0.0005819873861040556,-0.000462400692236953,7.596223498518442e-05,-7.579861575277552e-05,1.4158459028730957e-05,-0.001047115380433429,0.0002940628544345905,0.00025673528293645553,0.00020369167553100712
0.9915351689868516,0.0012871499353024505,0.0,-0.00030911350168029363,-0.0007426953071343405,0.00042328509160150353,-0.0016586498161069777,-0.0006554557910494752,-0.0001284558526052881,0.00011406323218470446,-0.00011375523062480431,8.99661261002963e-05,-0.0011361522699728252,0.0004853381034191362,-0.000608092358470948,6.823727169158182e-05
0.9826960865675088,0.004131935505487778,0.0,0.0018328950133775868,0.004261305156716864,0.0012624277788024754,0.0006413073756217445,-0.003923864885683476,-0.0020108534639015655,0.0006546905003724135,-0.0006525950312236047,0.0008896883137314918,-0.0006298187114175226,0.002532697038226211,0.0023972373315682507,0.0016762968357590547
0.9869828537102727,0.002841429082433339,0.0,-0.0002756632720917881,-0.0013154567325822488,0.003407674400728658,5.665284740373391e-05,-0.0019194526780292856,0.00018579258045555745,0.00027329878958075467,-0.0002726502212534618,-2.7629050063057553e-05,0.000167581531306636,0.0012051857226126705,4.792005972253652e-06,0.0021116115883123335
0.9871356579304855,0.0007862461997046486,0.0,0.0006884983209281855,0.0014232475720671641,0.002345344763550663,-0.0010129165346810488,0.000638918985462764,-0.00046812826390209023,0.0001507817832284051,-0.0001502753579116876,-1.3150919881230693e-05,-0.0007058325850517299,0.0005043470898637042,-0.0003354193254547545,0.0001803101876179724
0.9674513710980964,0.003476451930548461,0.0,-0.00071791274326318,0.0022192896253167044,0.0024549085228104555,-0.0003546565129018985,-0.0009753517770224409,-0.0007365727141656418,0.00010155026751999519,-0.00010106875487548963,0.00020397057527522265,-0.0011905480305953967,0.0003027625787045578,-0.0001658057863003182,-0.0003950706550802368
0.9861237700951542,0.001361830891200797,0.0,0.00022446820336123938,-8.738790304260468e-05,0.00037263112024902043,8.17284919313661e-05,5.285312244633907e-06,-0.0002562109362716666,0.00039790799876952387,-0.00039757818290577293,0.0002986520940447876,-0.00141813998858111,0.0013799051682636435,0.00012852549758957606,-0.0006233703204317151
