0,1,2
0.8212589407179477,0.007217623465171314,0.008755258976964149
0.97136638636678,0.004309111811656804,0.005021107232143705
0.9871367488984104,0.0060530712621128455,0.006911436847606508
1.0048919377527528,0.005796739790494294,0.006380506569603771
0.9838119055458983,0.00837613128538512,0.009198705965289345
1.02592224762351,0.007281076416416146,0.007848826615718547
1.0362841451502036,0.00615147850685401,0.006666018274551626
1.0099021734725881,0.007601783486695719,0.00825878145071971
0.9766010058001453,0.0041617814231368075,0.0045638231153582835
0.9637797400659207,0.009014487279303348,0.010004701086543449
0.9553961471369113,0.008913998452711978,0.009953527493026547
0.9708705832441018,0.004182838397422509,0.004563049697354375
0.9765294029831628,0.007177569624201747,0.007800695162296383
1.028231767387218,0.006231359303078781,0.0067571248832906045
1.0212173390405912,0.007323042608981844,0.007904232413263709
1.0380486351090403,0.00923016183707784,0.009965696802599941
1.0331520118630344,0.006135526359794315,0.0066927369884556
1.0289286325733515,0.006436683069852748,0.007301423488794621
0.9716151625541631,0.004306414223277887,0.004952622880358893
0.9182917622827339,0.007856604841209586,0.00913978320779727
0.8639397175715022,0.003725450181644526,0.004810936132107744
0.9850440122453282,0.0021385615809199807,0.0027498680686854934
0.97213607563405,0.0027847958373165226,0.0035608611727160713
0.9626423518959527,0.0024668038319327914,0.0030664663718721966
0.9590086941620457,0.0033237677790796936,0.004100603600837631
0.9448699224086585,0.002765305737082745,0.003501560330533387
0.9698330490478191,0.0023216727881195595,0.002941154421734949
0.9488735216802096,0.003077963829050984,0.0037847554707015427
0.9745043732090745,0.0017245372231621343,0.0021381921480659086
0.9621751732972577,0.003509137895440024,0.004471751463395272
0.9461547499516583,0.0034682526524635617,0.004419929267927777
0.9652327198621108,0.0017249895204690328,0.0021262073291161187
0.9653042301233297,0.0031687362503171252,0.003900490902427488
0.9762506896164829,0.002355579476518959,0.0029683116681309507
0.953547296634657,0.002781493993928459,0.0035660153197965604
1.0424811645182788,0.0038255531874480295,0.00460917706898527
0.96447909752571,0.0024505195382914357,0.003033828341003836
0.992480020633033,0.002853489989233275,0.0036000949489665562
0.9821320374001958,0.0020883736634103233,0.002671971693649281
0.8927221043988353,0.0037154012791331317,0.004711667618513332
0.8431523035992825,0.0021851894788080146,0.003178712899233125
0.9804393792269832,0.0011488176406857227,0.0017552056625745921
0.9664201593797075,0.0014667931293016671,0.0022543551172061814
0.9464857864599457,0.001211938003501302,0.0017471696535945888
0.9650490850926265,0.0016964805004073085,0.002909775229696737
0.9523959082284366,0.0013256302440080555,0.0020042378711410134
0.9648627021860177,0.0010350625148680369,0.0015531886406065752
0.9591728095876831,0.0013486853028378135,0.0019706017045920303
0.9760218915869352,0.0007778682416097815,0.0011180027804960464
0.9773750505288232,0.001675243346797633,0.0025001629238933227
0.9642968781110762,0.0016663094428662607,0.002513226685559646
0.9762917820971181,0.0007818981726810096,0.0011175834852638988
0.9669724796576613,0.0013603158645057246,0.0019847850567365193
0.9614874158628832,0.0010379146767633687,0.0015541935466475264
0.9587476716214985,0.0013381808878251285,0.0020202512166973005
0.9681911209075174,0.0017298647701099426,0.002897262549425377
0.9593379387363848,0.00121689297326121,0.0017313692320848743
0.9776622418279858,0.0014792281987220481,0.002247486631767884
0.9828444498244167,0.0011424033280602731,0.0017154085017830327
0.883470530596701,0.002218838414112825,0.003108545785788035
0.8521952328168648,0.001679210162933595,0.002489516381288367
0.9981630356525177,0.0007685486192626338,0.0013275038997613332
1.002558302092391,0.0009349140756107371,0.0016591375122157123
0.9609119579434469,0.0007272911652036842,0.0012530552423565314
0.9954417555543816,0.0009684472546362537,0.0020505312340695805
0.9741483179674922,0.0007359332570162205,0.0013275439316388629
0.9931789755936988,0.0005404683497744988,0.0010065619955414303
0.976513386350328,0.0006493193111576052,0.0011824038185410787
0.990994266815673,0.00040139147061678325,0.0007134732861453175
0.982636591650132,0.0009612363704241698,0.0017279099293170846
0.9842226751695529,0.0010076022135212313,0.0017924982065734118
0.9882817772797317,0.0003994293252272087,0.0007058823045386476
0.9770451335711867,0.0006450301965772652,0.0011691495749247074
0.9912523715878266,0.0005386263888691123,0.0009996727933680582
0.9736302145875936,0.0007421126482954495,0.0013265954067598093
1.014854428048389,0.0009983649500537282,0.002039777408207714
0.9796070669102394,0.0007263013737358472,0.0012369757818268227
1.0120982387994977,0.0009487003558986078,0.0016514822414444375
1.000308008179341,0.0007663925009061605,0.0012897811719289967
0.8900802310106765,0.0016482110717780643,0.002403304076888356
0.8468047584769469,0.0013308848432733637,0.00222223330599484
0.9916779225266718,0.0005645057676541962,0.0010699607095187818
1.0031206901182195,0.0006454217942632417,0.0013144270019407405
0.9644241286032854,0.00047443119648594924,0.0009389154200516028
0.9893182691323669,0.0006159295490635844,0.0015501238541320644
0.970785022125641,0.00043418487626209365,0.0009727305676374403
0.9928116933959247,0.0003248761831686372,0.0007308240579953872
0.9813115034504679,0.0004108840328880718,0.0008615537761537023
0.9924220179103755,0.0002505326101819113,0.0005482168703222164
0.9843030153124765,0.0006247037624254276,0.0013426409047945346
0.9851872940126735,0.0006519596196030747,0.001388035466430006
0.9916025224115413,0.00024883654177517247,0.000542617408099824
0.9803959351624687,0.00040811578603640796,0.0008517123760889175
0.9933526672086751,0.00032495683361842467,0.0007276361618037729
0.9733721478598922,0.0004413086364246142,0.0009686672266506689
1.0066404419916786,0.0006134375144627773,0.0015270729109471495
0.9745231581929125,0.00046553343387032884,0.0009163181207014448
1.013017813303416,0.0006461040077427886,0.0012965194488951863
0.995972743426441,0.000561819899877209,0.0010355751188438158
0.8893273796530854,0.0012790530576484878,0.0021447462362867093
0.8224547249373342,0.0012074527932853629,0.0020713772130839868
0.9764853264585465,0.00045207674507132044,0.0009159737943903833
0.9884249371703848,0.0004944151321233482,0.0010801244314745462
0.9694567620729929,0.0003665485358366088,0.0007859158126074202
0.9775591043312962,0.0005554405274828938,0.0014018918612905245
0.968301437830761,0.0003409187794143899,0.0008107604312969586
1.0014144169581587,0.0002497956785255439,0.0006364272725009291
0.9831670036129518,0.0003255509823634412,0.0007612421611607922
0.9912249976600765,0.00018321374351944485,0.0004708461972754062
0.9853779126084217,0.0004444977340824435,0.0011178840518994136
0.987059551014122,0.00046950947095983705,0.0011582441924037077
0.9900183227948834,0.00018253442016794643,0.00046591669981584696
0.9816387304380251,0.00031647503351234625,0.0007444912765556064
0.9970247778576815,0.0002502727640013935,0.0006307892034927451
0.9694765204166008,0.000340809690960313,0.0008024190317541009
0.9938829864154752,0.0005551103423352429,0.0013587075135680943
0.9773062404473946,0.00035707321417798407,0.0007608977694543639
0.9994961265022454,0.0004934400037049647,0.0010559615627608336
0.978590413942409,0.0004491634186415217,0.0008868971895285918
0.8688106617538935,0.0011471541190521837,0.002001369909580155
0.8173506747970494,0.0014189047815759668,0.0025274916073644376
0.9674033894997677,0.0005329174114562368,0.0010789271491271981
0.9843918063796101,0.0005780884725709307,0.0012994183558577654
0.9789463447957757,0.0004084752701799642,0.0009066988592590472
0.9832017760642557,0.0006046682631505362,0.0015771937619243734
0.9712281526860066,0.00042138183554205294,0.0009280917138016751
1.0000126916836596,0.0003033949428633548,0.0007665872140111876
0.9821325271188791,0.00037742525807052277,0.0009299207970754125
0.9929538082347339,0.00021844012626300168,0.00055627660374667
0.9881613873650176,0.0005272981221785562,0.0013294914616708362
0.9900580469720538,0.0005571309918705798,0.001373527894086962
0.9924587047297401,0.00021679171494458775,0.0005522426545286733
0.9817575900857752,0.0003678515594050068,0.0009139212749909255
0.9968881757054115,0.0003046864140511496,0.0007613219247516436
0.973803156131202,0.0004231401613154788,0.0009175104332515865
0.9903935654921274,0.0005862985449434972,0.0015135153352098163
0.9845969436049342,0.0004000416151279061,0.0008780159201497875
0.9911144591129707,0.0005712500348061521,0.001274385080829132
0.9702805078358764,0.0005310126752940149,0.0010398054624693662
0.8715429606150448,0.0013643960671657557,0.0024345627023783564
0.8265963809346891,0.001821364883251055,0.0032878658486386663
0.9665339972677864,0.0007509575961733435,0.001407300754926221
0.9782428003804942,0.0008369248591897136,0.0016631745791502257
0.9819895908449509,0.0005934724287715494,0.00113721887942729
0.9694637515472939,0.0008184376532106893,0.001834507272738096
0.9709519889324866,0.0006234573378710155,0.0011150291711570267
0.9944603301552201,0.00045374979054220845,0.0009181187855420746
0.9770760986919172,0.0005663965706993278,0.0011492423868106742
0.9892611707981732,0.00033149943886642244,0.000681289323955857
0.9831537294012381,0.0007858890812203126,0.0016262890474458916
0.9818740360642622,0.000804005398819056,0.0016780606947881162
0.9893413928242958,0.00033380647029973196,0.0006785693234244712
0.9819708688053209,0.0005639551424943955,0.0011306488067841117
0.9889287367068874,0.0004502028871363083,0.0009119598709004448
0.9757343725323684,0.0006150788723856411,0.0011060957756430703
0.9841513183159183,0.0008039470505979858,0.0017501225378802779
0.9869150479973159,0.0005820146375554873,0.0011005208566512382
0.9842933236691949,0.0008425307606220863,0.00162547161767326
0.9683877127321973,0.0007374571196534495,0.0013586200533697583
0.8678306149995727,0.0018361960029582634,0.0031618809433375133
0.8528451029963445,0.0032582470188534693,0.0053657908516424255
0.9714548215832428,0.0014501184730995671,0.0022817692802680222
0.977197414781517,0.001595592233545334,0.0025838490562022694
0.9786436400327264,0.0011835449338093147,0.0017819040783429256
0.9616926830346759,0.0016805803261290293,0.0028125474141661912
0.9774502880198866,0.001212482405232274,0.0016877411143443844
0.9848328679188498,0.0008822329235033846,0.0013142802223055636
0.9732214958059779,0.0010670316781930082,0.0016632929873382752
0.9820002211561599,0.0006376842037762963,0.0009882776326241994
0.9776876023586337,0.0014322649303440532,0.0023846865843076964
0.9708725442290544,0.001505761681997403,0.0024373950224426265
0.9816980154996591,0.0006387360237216263,0.000987090567071732
0.970480696552738,0.0010481173418144623,0.0016183346613501844
0.9852323353448893,0.0008757288046825125,0.0013004834626353507
0.9753453546155574,0.0011934951948215154,0.0016754832371895364
0.9716326529490693,0.001634627539796875,0.002662904824345439
0.9872566108231458,0.0011635530357471577,0.0017287606178316318
0.985080218602555,0.0016046353812315887,0.0025368806008894992
0.9770231736991907,0.0014281925801656224,0.0022051353829247657
0.892102877860568,0.003219508524478729,0.0051825277090657715
0.8978366572884011,0.00625410078212367,0.010287613201817522
0.9765791256019126,0.0027250108574225886,0.004282081867785
0.9773856690796587,0.0031273963698251806,0.004730921670568183
0.9894746636312887,0.0023395361355429225,0.003287738746096665
0.9652529988039857,0.003032722600933091,0.004476480439031962
0.9815221516235312,0.002303856006382919,0.0029326239521955126
0.9885898765070938,0.001699763066643461,0.002234105848844122
0.9904253047024075,0.002201027720871051,0.0029304916504261235
0.9942718125559593,0.0013521007368117919,0.0017424691161187524
0.9817048077739001,0.0030426025320227875,0.004199960389469195
0.985320710896939,0.0030554135838280067,0.004263172042703115
0.9936361232386394,0.0013337086337924485,0.0017188516158050204
0.9916162354955105,0.002111449978517831,0.0028124912817380156
0.9830860212547444,0.0017105995628894973,0.002223514981989541
0.9863235002679813,0.002331228649408699,0.0029523011090158095
0.9948055343689852,0.00313403619370081,0.0043944622152154895
1.0009747084005813,0.0023483848157421477,0.003198459368664264
0.9794239823480478,0.003110193942482599,0.004601800760046324
0.9810041352885616,0.002680188334023379,0.0041231651842226855
0.9458564040729921,0.006673650704711726,0.009975509020970415
0.9862168314236527,0.0013084640198138765,0.0017078564417073786
0.9982899334464775,0.00737499366680269,0.012437198519092146
0.9776236510729195,0.005377553545845479,0.009476891725410658
0.9763452753874613,0.004679731992864662,0.006731907752609657
0.9861895290507408,0.005105276616809446,0.0065420878399742545
0.9833463751663098,0.0046642756073168486,0.006085778369614016
0.991402392057628,0.003517550210937864,0.004353142819346536
0.9903627068010931,0.0035317762963521936,0.004374407149197012
0.9875412851507235,0.002990900169496125,0.0036090357502560726
0.9727673617109022,0.0030988458319229435,0.003853257575470649
0.9727673617109022,0.0030988458319229435,0.003853257575470649
0.9875412851507235,0.002990900169496125,0.0036090357502560726
0.9903627068010931,0.0035317762963521936,0.004374407149197012
0.991402392057628,0.003517550210937864,0.004353142819346536
0.9833463751663098,0.0046642756073168486,0.006085778369614016
0.9861895290507408,0.005105276616809446,0.0065420878399742545
0.9763452753874613,0.004679731992864662,0.006731907752609657
0.9776236510729195,0.005377553545845479,0.009476891725410658
0.9982899334464775,0.00737499366680269,0.012437198519092146
0.9862168314236527,0.0013084640198138765,0.0017078564417073786
