0,1,2,3,4,5,6
0.8849956652002225,0.07669989824293703,0.01251090729916926,0.007272104774430632,-0.08141519455496049,-0.015874861823432673,-0.006338097129891973
0.9372490655485427,0.03287140008575649,-0.029990168544494322,-0.0219865414750674,-0.040827492934326526,0.027372578126546587,-0.056369131070322376
0.9552037034957316,0.11178517173472775,0.12195464102470466,0.09636888530500543,-0.04327295866974279,0.05795858392822584,-0.157341970872521
0.9835593169213196,0.2950016535145996,0.05206554512958317,0.02111665466962409,-0.10611143842131376,0.12002248700274276,-0.06049074016794642
0.8687223128811857,0.09347929413272053,0.005489610752591467,0.005943550772128825,-0.04420279386227155,-0.07388349418812235,-0.1028923633115334
0.9154662411124278,0.13494292177190026,0.024691715985225682,0.060392509019218665,-0.1600576961019885,0.0014326870091324606,-0.042277719201718855
0.9408317736198901,0.08884634943359604,-0.0010393059966650187,-0.0318515288923763,0.040864160758264045,-0.029832945479858153,-0.014675807605118774
0.9722122827785169,0.06160843770063856,-0.03817338352942079,-0.032456135860968405,0.007413320903370102,-0.001670135884754509,0.0015026894164336113
0.9919615836503265,0.09760752122700656,0.04813761398244598,0.007999257471763443,0.027563058486280823,0.06269265233172028,0.0793591026314876
1.0128174184105128,0.2216592263018362,0.019975918897094713,0.008994327035892757,-0.005333629734943335,0.033315120003859944,0.027372680309613262
1.012998164703925,0.15627929639855742,0.0160283148207101,0.010142413113740645,-0.012072881603790053,0.02172723034980728,0.06465104362406193
0.742951222367393,0.0654416085548034,-0.015188199260308455,-0.018963001589469286,0.026094358179221122,0.0490593520216589,0.043414464605685876
0.8886178790379174,0.06769257708762516,-0.03858830822316073,-0.0479534723015449,0.04474799035146959,0.014784198446165742,0.04157597635875687
0.9393209244876853,0.04454654802815001,-0.004276084434615468,0.015912607317820182,0.02742293569391263,0.015971756490042566,0.01569658518989514
0.9543698402538521,0.09645670109701332,0.06393397832625736,0.021042075444565267,-0.06889661335222841,-0.04016896800050085,-0.08936716357395313
0.9470876963646614,0.1482120825859843,-0.048807355825938425,0.09344995551151902,0.04484345742199625,-0.18745306353070068,0.014607726776259544
0.9538175413649123,0.08662263099734015,0.031958007728899784,-0.015774258717697887,-0.01723690914962217,-0.026508098262077895,-0.037634763040283015
0.8943445675201138,0.106184302323309,0.08621905812399344,0.07864008128177347,-0.017888064857831676,-0.05389469372739886,-0.08887972005709188
0.9340152183801226,0.14333421314563824,0.022561895853336678,0.0273013363211998,-0.03298624356842805,-0.03854843141509212,-0.04695263360055957
0.9739234987174656,0.046762533054648496,0.00010541152207133031,-0.014147669263507523,-0.009659559878399837,-0.03484176924848181,-0.02584259738991712
0.9638171147134053,0.07906099134917909,-0.05082957512765529,-0.030930888635101184,0.02324852959156154,0.008550874730103741,-0.012783320904068307
1.188416151159052,0.22991233571605954,0.018938892752137004,-0.031187593922645584,0.09193262871882335,0.0065349975890858225,0.032587858742715525
0.9679249291961525,0.11125855795775103,0.028322596979642456,0.013669901813055496,-0.07339582308056425,-0.15759126437648352,-0.06099017795423045
1.0193030971678838,0.15521314439662406,0.06710445039983615,0.0126199947834027,-0.06624824678590291,-0.039770484495109004,-0.07089663086676534
