0,1,2,3,4,5,6,7,8,9,10,11
0.9570455989805033,0.00618238656761687,-0.0008515461752576226,-0.005552440659383984,0.008888399788057333,-0.0013275925265945343,0.003033259126671517,-0.0022840174933050905,-0.022840425830615407,0.0,0.0,0.0
0.9427457282965063,0.0023736535950465596,0.000846787380948677,-0.010015909446799642,0.009988539345739622,0.005740814195797084,0.002420338039758052,-0.0020225238176242444,-0.02485799891849172,0.0,0.0,0.0
0.9248309738716182,0.0030124932961007244,0.0014440660995851395,-0.013347504555374146,0.012098772549195558,0.0040987821899642896,0.003368860283061381,-0.0014949171687966833,-0.04040462196916805,0.0,0.0,0.0
0.955068252864261,0.0070194728009509485,0.003817416193977463,-0.01241329697282878,0.01272189667349155,0.002484867855503281,0.005626677653906564,-0.002285294987245612,-0.035519218174433265,0.0,0.0,0.0
0.9490093551190367,0.003006168522557357,0.0015746734606729706,-0.004265131136206302,0.006400282160980875,0.001882350127330068,0.012565993241956841,-0.0010969514452233708,-0.029896794436282792,0.0,0.0,0.0
0.9313079980426562,0.0029173877836890243,0.0017875366149945338,0.0018252910319473958,0.0015548388100742327,0.00046372385470949684,0.016302119056252007,-0.0010394253090050265,-0.03020374244428503,0.0,0.0,0.0
