0,1,2,3,4,5,6,7,8,9,10,11,12,13,14,15
0.896064699,0.076699893,0.009642178,0.004061046,-0.05847909,0.020966589,0.009063591,-0.000510986,0.000642963,0.003083533,8.4063e-05,-0.001676491,0.000354189,-0.000407516,0.002054736,0.002700683
0.950885773,0.032871388,-0.023113477,-0.013759114,-0.040466187,0.030403691,-0.048530074,-0.00015661,-0.000508699,-0.002757545,-0.000716483,-0.000111371,-0.000784036,0.000771627,-0.000677635,-0.001338316
0.93441242,0.111785162,0.093990654,0.062101917,0.005449554,0.04898006,-0.149654826,-0.007355045,0.008460456,0.007511692,-0.000185547,-0.001995248,0.00035274,-0.0003106,0.004676152,0.00584048
0.984461784,0.295001666,0.040127009,0.008818174,-0.066607852,0.109479018,-0.070538542,-0.004609848,0.00614115,0.011079624,0.001171313,-0.003026607,0.003195813,-0.003227361,0.003518483,0.003303267
0.878965318,0.093479296,0.004230853,0.004214179,-0.031856236,-0.026240806,-0.062393393,-0.000659428,-0.000915331,-0.007241219,-0.002145211,0.000303628,-0.003811187,0.003812549,0.000616544,0.001438355
0.939369738,0.134942927,0.01902995,0.048696106,-0.110295026,0.055192259,-0.020022191,-0.00176441,0.002442362,0.00851545,0.000523906,-0.004024627,0.001609659,-0.001727018,0.004184781,0.005348486
0.933629692,0.08884635,-0.000800995,-0.027947626,0.027744041,-0.028839829,-0.007249252,0.000285752,-0.001095838,-0.005705777,-0.000975881,0.001680334,-0.002024747,0.002073958,-0.00112198,-0.001212318
0.979697824,0.06160844,-0.029420295,-0.021463413,-0.006618681,-0.003437527,0.002851481,0.001416649,-0.00207382,-0.003989474,-0.000462988,0.000808736,-0.000804482,0.000805729,-0.001634076,-0.002239206
0.971033931,0.097607525,0.037099745,-0.002029988,0.033208844,0.028832583,0.047202908,-0.001509732,0.003409567,0.009568573,0.002050585,-0.000790269,0.003604261,-0.003587995,0.001469,0.001430828
1.007086277,0.221659221,0.015395476,0.004171896,0.001547315,0.021693585,0.014638132,-0.000829887,0.001720378,0.005008614,0.000954289,-0.000769436,0.001797556,-0.001803437,0.000944495,0.000945827
1.009433389,0.156279284,0.01235305,0.005932454,-0.004413917,0.017097319,0.050143664,-3.7699e-05,0.001165156,0.00657132,0.0013892,-0.001134952,0.002445824,-0.002472895,0.001168613,0.001345487
0.739344716,0.065441609,-0.011705572,-0.013885124,0.014428536,0.019214509,0.021744203,0.000495984,7.3622e-05,0.002179693,0.000884067,0.000215057,0.001659779,-0.001652477,-0.00097046,-0.001759197
0.887910008,0.067692576,-0.029740078,-0.03507846,0.020227117,-0.00613766,0.028921313,0.001800227,-0.002104843,-0.003207312,5.6943e-05,0.001395418,-3.2023e-05,5.441e-05,-0.002297939,-0.003239814
0.936191022,0.044546549,-0.003295586,0.014868595,0.021534644,-0.002863768,0.004131005,0.000246753,0.0001024,0.001212295,0.000462496,8.6e-05,0.000786352,-0.000782503,-0.000497722,-0.000688731
0.951859355,0.096456694,0.049274031,0.006509108,-0.035400266,0.005242455,-0.057031334,-0.003146073,0.002794636,0.00014592,-0.001132937,-0.000985684,-0.001873865,0.001878114,0.003182907,0.004495688
0.965643883,0.148212091,-0.037615917,0.091797245,0.032150178,-0.137039654,0.048149559,0.004885789,-0.006449375,-0.008694518,-0.001349103,0.000722048,-0.003501664,0.003443602,-0.001544847,0.000219925
0.948192239,0.086622636,0.024630094,-0.019978311,-0.007212571,-0.004666913,-0.02089563,-0.001401702,0.000976266,-0.001912754,-0.000831231,0.000274369,-0.001535407,0.001560968,0.001104242,0.001613164
0.88123399,0.106184304,0.066449182,0.053190848,0.014613373,-0.025332818,-0.064015413,-0.003543612,0.003639962,0.001554909,-0.000813937,-0.000858715,-0.001587446,0.001608483,0.00334937,0.0051746
0.959558845,0.004954569,2.1279e-05,-0.000353741,-0.002511718,0.003653102,-0.000721878,-0.004429017,0.003392,-0.010446553,-0.002477117,0.000728794,-0.003858325,0.003898322,-0.005809482,-0.00449789
0.973480284,0.00232539,2e-07,0.000702921,-0.001537656,0.001961637,0.000964586,-0.006424535,0.005498844,-0.004624711,-0.001731052,0.001446563,-0.002681704,0.002783875,0.001476402,0.001898542
0.984602332,0.002816536,-5.0353e-05,0.002216329,-0.002820156,0.005753683,-0.002189459,0.010409199,-0.012755751,-0.014857002,-0.00149447,0.002110545,-0.002939209,0.002877273,-0.00724432,-0.009589439
0.983257473,0.00566659,7.482e-06,0.001900074,-0.005849787,0.007579581,-0.002274885,0.004373777,-0.004473401,-0.018717649,-0.001908454,0.012364394,-0.008362964,0.008853159,-0.004120036,-0.002241736
0.991143703,0.002737259,1.3371e-05,0.001107453,-0.000420202,0.002454875,-0.003841787,0.00936279,-0.011388836,-0.007538488,-0.001630668,-0.001339379,-0.004449319,0.004281271,0.00142225,0.004208426
0.94765377,0.002557534,1.3115e-05,0.000261976,0.000251368,0.000645265,-0.000792467,0.003576514,-0.004143369,-0.001440058,-0.001671817,-0.00024222,-0.003563726,0.003598459,0.004915825,0.004715642
