0,1,2,3,4,5,6,7,8,9,10,11
0.8212589407179477,0.011346746152034197,-0.001645377616083965,0.0029494267764165194,-0.003985650795006124,0.005029001452688253,0.0027827122876443733,-0.010305888670002705,0.0004822320843185235,0.0005968654497392478,0.0005968654497392478,0.0005968654497392478
0.97136638636678,0.006616642837727153,0.0014326467291191358,0.001302839523839583,0.005612943928046232,0.0031222474228704833,-0.0018670873823548595,-0.006762301125242565,-0.0011491007943912335,0.0009126443931531947,0.0009126443931531947,0.0009126443931531947
0.9871367488984104,0.00918736257054599,-0.001444027441718454,0.004622289506524879,0.013571562183099073,0.004691607665003539,-0.0036269443504890475,-0.011460181672170111,0.0008163828430247655,0.004008633865891231,0.004008633865891231,0.004008633865891231
1.0048919377527528,0.008620502089986212,0.004378374845525723,0.006168396619332106,0.016719618814387216,0.004834239642737215,0.000192596968702885,-0.01457138924913215,0.0030448543194629973,0.012113092318743135,0.012113092318743135,0.012113092318743135
0.9838119055458983,0.012440890914474622,0.004664617507265767,-0.004717734823826536,-0.008984315011389632,0.007490214252761085,0.04694265577625578,-0.03472688170343963,-0.015288458113515868,-0.011195208905348086,-0.011195208905348086,-0.011195208905348086
1.02592224762351,0.01070598678428585,0.002396150993484003,0.003027360972360338,0.024247545456228314,0.006419453117041618,0.005794567487354962,-0.015038916430607063,0.0011155770512232266,0.001512305826041782,0.001512305826041782,0.001512305826041782
1.0362841451502036,0.00907063875683202,0.002919000028758223,0.006723872845507017,0.01676616123113983,0.005741925020632976,0.003816404790436323,-0.011031716926161339,-0.023121720311019,-0.029447406739243842,-0.029447406739243842,-0.029447406739243842
1.0099021734725881,0.011224730875586805,-0.0003379312551299307,0.0019032099658635726,0.0043919829331018345,0.007396671000259314,0.0044969585194407635,-0.013763563023037273,-0.0033359664784393672,-0.009319734962600856,-0.009319734962600856,-0.009319734962600856
0.9766010058001453,0.0061764800689587925,0.0007120687291004568,-0.0017433774360826604,-0.013216433482693302,0.0041189751198896785,0.0019464552028890525,-0.007190789803906639,0.00026028230929731055,0.0005045848977590639,0.0005045848977590639,0.0005045848977590639
0.9637797400659207,0.013466811973878806,0.0008141951444056161,-0.0037432271470937417,-0.018553067194793105,0.009095676976117906,0.003253728027428404,-0.014542005213991738,-0.010296272933792205,-0.01088166938220314,-0.01088166938220314,-0.01088166938220314
0.9553961471369113,0.013361589649790435,0.001364562080456988,-0.002375759688966639,-0.026465978042130245,0.00917512051960856,0.0015515852245359119,-0.014642216126841023,-0.014653485465932037,-0.010932299221754427,-0.010932299221754427,-0.010932299221754427
0.9708705832441018,0.006190117898673494,8.482769003748114e-05,-0.0024683400390372867,-0.01908996622709358,0.004100820630552615,0.0014630262207459,-0.006798159946688087,0.0025627439159110477,0.0031772954542571563,0.0031772954542571563,0.0031772954542571563
0.9765294029831628,0.010600393894820028,0.0006758197973273372,-0.001989060325956582,-0.004496781577284614,0.006792144464555561,0.003115893941144532,-0.012851990821468151,0.0057853216806961205,0.01240452837195849,0.01240452837195849,0.01240452837195849
1.028231767387218,0.009191766720954767,0.0011506089156405608,0.007745351833473579,0.016678250626855906,0.00582721232104344,0.0052154799613526315,-0.01192520173268008,-0.026197288177386646,-0.03155195132882549,-0.03155195132882549,-0.03155195132882549
1.0212173390405912,0.010775149330559286,0.007956681160731005,0.0043441992664836615,0.01457489423058611,0.006419487732996387,0.0059446643802612,-0.01852011378169305,-0.0027790207226547903,0.004812258660941815,0.004812258660941815,0.004812258660941815
1.0380486351090403,0.013583482627809364,-0.00802421512467344,0.006907483765104638,0.021294630230917155,0.008421491357983202,0.02484040260579623,-0.03553742107170832,-0.02000097142608115,-0.012020679743182994,-0.012020679743182994,-0.012020679743182994
1.0331520118630344,0.009079505058557575,0.001489325720117174,0.006814221433009582,0.018977985406542386,0.00517540714381437,0.00014471826158368728,-0.014812076595224655,0.0030051782842877017,-0.005965972554726751,-0.005965972554726751,-0.005965972554726751
1.0289286325733515,0.009733533474769109,-7.693560105126451e-05,0.008368964236718845,0.023379859515789025,0.005111502399985701,-0.0030940924266420478,-0.01210492930534146,-0.004176733888257234,1.6394825361532028e-05,1.6394825361532028e-05,1.6394825361532028e-05
0.9716151625541631,0.006563053927669992,0.001979311507843473,0.0020167290868984278,0.0069127406713053174,0.0031162986110893076,0.0006929424340593737,-0.007003650871369227,0.001804225386934255,0.0024230705874113134,0.0024230705874113134,0.0024230705874113134
0.9182917622827339,0.012052463512346795,-0.00020384060995337627,0.002207772413550635,0.008370098430740547,0.005574173201758792,-0.0025940679651247356,-0.010828402078119304,0.009253579860345251,0.004434443238470309,0.004434443238470309,0.004434443238470309
0.8639397175715022,0.006084742026013517,0.0008868368225350975,-0.0017466366662082233,-0.002567104757376093,0.0025408562403753665,0.0020124658899390857,-0.005042022132191515,0.0020505574559329665,-0.005211178799184202,-0.005211178799184202,-0.005211178799184202
0.9850440122453282,0.003483564271053866,-7.452065589508283e-05,0.00016198442967196858,-0.001092856564765099,0.0015411046177221666,-0.0013238452271945311,-0.0031200715793998635,0.0020390447490783448,0.0007661926486756121,0.0007661926486756121,0.0007661926486756121
0.97213607563405,0.0045204889278586124,0.0022663043974467945,0.001735762815647801,0.003485365685517494,0.0021511819406313526,-0.004204466424941211,-0.005287926488172112,-0.002030569825455908,-0.0013949092826390785,-0.0013949092826390785,-0.0013949092826390785
0.9626423518959527,0.0039355224754867475,0.001229572347802188,-0.0028898129943703,-0.007866950529059724,0.002033216458915743,-0.0012167708719914572,-0.006385447434371194,-0.0011998135461744885,-0.0004106382278006304,-0.0004106382278006304,-0.0004106382278006304
0.9590086941620457,0.005278482939297133,-0.00022360000604482178,-0.01013771213915815,-0.05307225295826856,0.002842618244408013,0.06885883472813803,-0.031092268699812742,-0.0167465080625252,-0.0023224901324795377,-0.0023224901324795377,-0.0023224901324795377
0.9448699224086585,0.004461820319993602,-0.0006860364596770196,-0.00406086726872279,-0.019015132437793958,0.0023230039086958865,0.0028224663909438563,-0.005802840543376653,-0.002857120117360945,-0.004413097495387985,-0.004413097495387985,-0.004413097495387985
0.9698330490478191,0.003747072706471801,0.000322817023826083,-0.0006103253043031609,-0.006031310147776914,0.0021143788940187758,-0.0005729652250672235,-0.004478988617470092,-0.0014052732995211148,-0.0005736315419403448,-0.0005736315419403448,-0.0005736315419403448
0.9488735216802096,0.004878343500200805,-0.0002593987204434489,-0.0018834561736307265,-0.01309023814268706,0.002857348113736502,0.004027138645341988,-0.005387682130292726,-0.0009705422873346192,-0.0008584803682609721,-0.0008584803682609721,-0.0008584803682609721
0.9745043732090745,0.002746979121894172,0.001355419511714251,-0.0016541777255990597,-0.007279533208605415,0.0016577697778625833,0.002311606298206481,-0.002894978985067076,0.000267127417710622,-0.0019022673297045545,-0.0019022673297045545,-0.0019022673297045545
0.9621751732972577,0.005684242246737113,-0.0007243451710394755,-0.0023267494932344146,-0.014503423092261825,0.0033403025734146663,0.005363218651014301,-0.006088450776086662,-0.001601913121830112,0.0021550487137289576,0.0021550487137289576,0.0021550487137289576
0.9461547499516583,0.005618233814536834,-0.0005236075619809988,-0.004392961425058961,-0.02680459923796996,0.0032645571523121086,0.0012306242794000166,-0.006172196339120917,-0.011549813889356053,-0.010724568035558879,-0.010724568035558879,-0.010724568035558879
0.9652327198621108,0.0027379456627396903,4.748621089512017e-05,-0.0017579991153972019,-0.008894711283527257,0.001649921335881599,0.00349642914931525,-0.0028157175497272036,-0.0027237335487723113,-0.002858291479310271,-0.002858291479310271,-0.002858291479310271
0.9653042301233297,0.0050254073172225,0.0008391320592219254,-0.001177156151289216,-0.004251153366208182,0.003038027378037156,0.006374705796426183,-0.005476120412105989,0.0034805853248495167,0.003624655324500292,0.003624655324500292,0.003624655324500292
0.9762506896164829,0.003789410089889939,0.001624565705422576,-0.0019982736248052024,-0.002606552641007953,0.002164370690101225,0.001835025979048166,-0.00443088109965073,-0.0005071163903090925,-0.002318866873375014,-0.002318866873375014,-0.002318866873375014
0.953547296634657,0.0045225185570966836,0.0002434744881859574,-0.0021137624913639685,-0.01061649643201612,0.00240877266737749,0.006315770082258365,-0.005592518131379398,-0.0038738753035655327,-0.010021503752301819,-0.010021503752301819,-0.010021503752301819
1.0424811645182788,0.0059899391017983975,0.002889892391144011,0.0022744398193856874,0.030293129018625464,0.0037032659282933977,0.022508172998013665,-0.026273195377696235,0.002189204333682415,-0.005514145626501321,-0.005514145626501321,-0.005514145626501321
0.96447909752571,0.0038998923587999393,0.0011848546696567874,-0.0010261277627977572,-0.007398259105510285,0.0020396372680040464,-0.000775061637444896,-0.006321754254230427,-0.006717693953564363,-0.00384299876946137,-0.00384299876946137,-0.00384299876946137
0.992480020633033,0.004593809830655708,0.001170950809004756,0.0017613384824266554,0.0016317130498649801,0.0022214482464366636,-0.0030313812098740067,-0.005605509832411593,0.0017779975056088082,-0.0014292518403413723,-0.0014292518403413723,-0.0014292518403413723
0.9821320374001958,0.003391273697254301,0.001253459349533359,-0.0010555809440926378,0.00015049183286441892,0.0015072517132754815,0.0021966833252962115,-0.0032626811549834045,-0.0012619305761173427,-0.0013618290721113535,-0.0013618290721113535,-0.0013618290721113535
0.8927221043988353,0.006000334858350093,-0.0003068031043199637,-0.00294253334065786,-0.004605180865865033,0.00259083420777384,0.009105916548229231,-0.005291608675400017,0.0027114174694155,-0.0014579251681264838,-0.0014579251681264838,-0.0014579251681264838
0.8431523035992825,0.003857365519891043,-0.0009417919866051561,-0.0032040755252895625,-0.007090338688908515,0.001156711416713807,-0.0042601860786347645,-0.0026748895630430702,0.0009044302128596859,0.002611143886689815,0.002611143886689815,0.002611143886689815
0.9804393792269832,0.0020977437616364453,-0.0003167938256424252,0.0008960661255865698,0.000568035758247154,0.0007316513849153772,-0.0014464232497317653,-0.0015276757364287574,-7.127745396551255e-05,0.0004223457302019451,0.0004223457302019451,0.0004223457302019451
0.9664201593797075,0.0026895351045562272,5.363784494483159e-05,-0.0009653678921087705,-0.005346655629996255,0.0009851566820302526,-0.00045352731314163286,-0.0023025663661273565,-1.0273416650719014e-07,-0.0005413008808760056,-0.0005413008808760056,-0.0005413008808760056
0.9464857864599457,0.002126357336567058,0.00011732313050927257,-0.0036809639617444434,-0.0165300356038377,0.000888065491018164,-0.0007759839537857527,-0.0023804592793909007,0.0008735451461101551,2.4595662636017757e-05,2.4595662636017757e-05,2.4595662636017757e-05
0.9650490850926265,0.003368209906703995,0.0004221598168854257,-0.01019020062869258,-0.0313736725828605,0.001190170985846839,0.020035109361646986,-0.006426582641078982,0.0003087073736665058,0.006768447512675579,0.006768447512675579,0.006768447512675579
0.9523959082284366,0.0024029700347579694,-3.1088466880158094e-05,-0.0014335318286755605,-0.0064773708320707835,0.0010041604575987684,0.0010180497991414406,-0.0025722858682410976,-0.001029657015371277,-0.003744784833874304,-0.003744784833874304,-0.003744784833874304
0.9648627021860177,0.0018664804748494551,-0.0003151850838633008,-0.00142228977887926,-0.008037197986594968,0.0008065522175456641,-0.00019585646502984222,-0.0019323939028466075,-0.0012555079040917905,-0.0015408060604595875,-0.0015408060604595875,-0.0015408060604595875
0.9591728095876831,0.002387932814011261,-0.00022044544859645132,-0.001791661246759002,-0.007462756825369565,0.0010808695999714457,0.00017526350614693875,-0.002383763190731081,-0.004041872079156517,-0.0037763742555135815,-0.0037763742555135815,-0.0037763742555135815
0.9760218915869352,0.001361987231401963,-4.240139333422377e-06,-0.0008686583543772164,-0.004427747600992626,0.0006679335096754224,0.002507449100572212,-0.001393533814707637,-0.0013673887424121567,-0.0012182993855476276,-0.0012182993855476276,-0.0012182993855476276
0.9773750505288232,0.003009527357742498,-0.00012568764292786305,-0.0017062916593084676,-0.004533920863747043,0.0014419934439975357,0.002552221875004146,-0.00294409906506643,0.0014941391706555507,0.0017489256196964176,0.0017489256196964176,0.0017489256196964176
0.9642968781110762,0.0030154428418383904,-0.0009266521725862509,-0.0028780403283024114,-0.008972970434547256,0.001348394693733379,0.0017333004059275625,-0.0033761870287218887,-0.003632928210065889,-0.0043459441754261086,-0.0043459441754261086,-0.0043459441754261086
0.9762917820971181,0.0013639492655434459,-0.0004297326652736855,-0.0010453323348963428,-0.005888704500478181,0.0006756640299709904,0.002906027777748399,-0.0014079500098165276,-0.002042649154199827,-0.0023156117750170457,-0.0023156117750170457,-0.0023156117750170457
0.9669724796576613,0.002406206760166413,0.0002721767439312073,-0.0008794429955193417,-0.004254612486289999,0.0011438007810903317,0.002247888504956941,-0.0024359782150434883,-0.001259417745017255,-0.003179576043567889,-0.003179576043567889,-0.003179576043567889
0.9614874158628832,0.0018688992633851685,-0.0005103170023813552,-0.0015047338725249215,-0.008529370168287476,0.000809543394654666,0.0007941598212120038,-0.0019166890306551165,-0.0007156909918998311,-0.0027546969773254437,-0.0027546969773254437,-0.0027546969773254437
0.9587476716214985,0.0024232505167867758,-0.0006379862511014522,-0.001435230079575689,-0.010106670957744979,0.0010181190714040333,0.0019861446157231066,-0.0026688116971683717,0.0024900791806545808,0.0017521628993426575,0.0017521628993426575,0.0017521628993426575
0.9681911209075174,0.003374398080127826,-0.002166310561116047,-0.011344600237812363,-0.031019473876388592,0.0012067882774825511,0.0192233219459631,-0.006691646330447165,0.003063909213524285,0.0074016633465096016,0.0074016633465096016,0.0074016633465096016
0.9593379387363848,0.0021162390994834855,-0.0004356384344751385,-0.002125503756996938,-0.00946862273959137,0.0008874497470879872,-0.003481572078357087,-0.002349023571990072,0.0027152683920970144,0.002984059390012339,0.002984059390012339,0.002984059390012339
0.9776622418279858,0.002690597001386463,0.0006802487613520869,-0.0007321236682570342,-0.005095309573740936,0.0009817511441015947,-0.002214428048133321,-0.0022559302876268283,-0.0008521895972636306,-0.0009641422393456001,-0.0009641422393456001,-0.0009641422393456001
0.9828444498244167,0.0020609977418601646,-0.00035282115650669965,-0.0010160144183002373,-0.004136431940297003,0.0007312378201214109,-0.0001931710288373134,-0.001552742549012387,0.0006545034142008133,0.0008262506730004615,0.0008262506730004615,0.0008262506730004615
0.883470530596701,0.0038192015933023573,-0.0010244190798839314,-0.0029225813496459585,-0.009397273820628937,0.0012271094650257997,0.0038714112012488977,-0.002869997101945909,0.0015419142539898623,0.0009126474867926504,0.0009126474867926504,0.0009126474867926504
0.8521952328168648,0.0030029050241395564,6.234113480674264e-05,-0.001209601407070937,-0.003091014607796483,0.000691476306613481,-0.000764132662642969,-0.0019541787411793132,-0.0010717727285491918,3.916132241377213e-06,3.916132241377213e-06,3.916132241377213e-06
0.9981630356525177,0.001533927502867084,9.423652907825097e-05,-0.00017057076945192762,-0.0012474654650702632,0.0004134956952994706,-0.0013263807895098623,-0.0009840047397435825,0.00018398356702176155,2.263951096204142e-05,2.263951096204142e-05,2.263951096204142e-05
1.002558302092391,0.0019044163445046413,-2.0389694350031462e-05,0.0007561541363290125,-0.001079426840851827,0.0005587977393128885,-0.0011080301910910695,-0.0013284807105466978,-0.0004080821851040195,-1.6451260347549734e-05,-1.6451260347549734e-05,-1.6451260347549734e-05
0.9609119579434469,0.0014488270702124942,0.00016527789299680684,-0.0021219430717746013,-0.005384781345991074,0.000465183771927169,-0.0016775952381938852,-0.0012484385617683724,0.0015113248986933225,0.0012642004275508212,0.0012642004275508212,0.0012642004275508212
0.9954417555543816,0.002267723181278397,0.0004633640013838036,-0.0032537451476734036,-0.0035044539845358047,0.0007011464367782105,-0.0009456753587401279,-0.0021640521259834733,0.0006749246458263025,0.0013970541827121874,0.0013970541827121874,0.0013970541827121874
0.9741483179674922,0.0015178836085858736,0.0003971591598770363,-0.0006771270380530048,-0.0032199191692205975,0.0004899727433613776,-0.00021031076843547325,-0.0012456631314943234,0.001004154445023997,0.00097670322921517,0.00097670322921517,0.00097670322921517
0.9931789755936988,0.0011424854869871725,-1.6666404950460567e-05,-0.000257573353642071,-0.0013323045393264232,0.0003738947703632034,-4.587393030230924e-05,-0.0008880302325768863,-9.163211187435127e-05,-0.0007093367078774282,-0.0007093367078774282,-0.0007093367078774282
0.976513386350328,0.0013489604730838895,0.00020778542304666914,-0.0007674519558804604,-0.0013016847514978336,0.0004469768860856371,0.0008561039771081136,-0.0010304556236254703,0.00016557210804168943,-0.0002504796885299809,-0.0002504796885299809,-0.0002504796885299809
0.990994266815673,0.0008186325443853929,0.000139719698484142,-0.00038070154919767063,-0.0016574981185694115,0.0002998702122641861,0.0007785965689223184,-0.0006845598517745133,0.00032730321982743504,5.746539147644114e-05,5.746539147644114e-05,5.746539147644114e-05
0.982636591650132,0.001977283005454404,0.000288706906076297,0.0005836897436989341,9.907854985036213e-05,0.0006866927996468375,0.001653746460554828,-0.001715328811655037,0.004354883593063685,0.004099713167228458,0.004099713167228458,0.004099713167228458
0.9842226751695529,0.0020562859823628097,0.00019094748732795264,-0.0007481426431862337,-0.0011518408034442151,0.0006815082916730164,0.0006484332619337563,-0.0018622250189821443,0.0008435069205461332,0.001322649627355621,0.001322649627355621,0.001322649627355621
0.9882817772797317,0.0008110570964563808,3.4738283327562236e-05,-0.000425575428390057,-0.0014307974604479412,0.00029483579743272426,0.0007766874287833403,-0.0006758565750412115,0.0005859143266320199,0.0001080007537294092,0.0001080007537294092,0.0001080007537294092
0.9770451335711867,0.0013352807506450198,8.673075752974047e-05,-0.000533376490540638,-0.002375670485369019,0.00045268529729902696,0.0009783197277096756,-0.0010404693748317095,0.0006178451869075507,0.0003509461318346174,0.0003509461318346174,0.0003509461318346174
0.9912523715878266,0.001135545719284995,-0.00017909381051839368,-0.0002243520468629967,-0.0010217561637200223,0.0003662909695496541,0.0005156346649630716,-0.0008784657660185768,-0.0005783832752848106,-0.0009150131685888852,-0.0009150131685888852,-0.0009150131685888852
0.9736302145875936,0.0015200613658653084,9.284317480118265e-05,-0.000810257378875967,-0.0038821740079032496,0.0004884617766296451,-3.829731868854047e-05,-0.001251568040505524,-0.000353276727939944,-0.0015359023182470732,-0.0015359023182470732,-0.0015359023182470732
1.014854428048389,0.0022709963559042457,0.0007689256209260087,-0.0022254007578412782,-0.007451829289476519,0.0007326881139921859,-8.813464440726726e-05,-0.0023320750080162433,-0.0010658497877455986,-0.0007636286687842109,-0.0007636286687842109,-0.0007636286687842109
0.9796070669102394,0.0014344416231818768,0.0005420331483479979,-0.0006484077796866661,-0.002204463627725972,0.0004955863065069233,-0.0014397141843048855,-0.0012479390422805992,8.120010385870291e-05,9.538351387505806e-06,9.538351387505806e-06,9.538351387505806e-06
1.0120982387994977,0.0019045802579803477,-0.00028682731794948957,-0.0006487862849045012,-0.001549716970830728,0.0005805500117568307,-0.0006905650737754065,-0.0013339488606665117,0.00010999555383883752,-0.000630692413080336,-0.000630692413080336,-0.000630692413080336
1.000308008179341,0.0015002976161107957,-0.00019704377242879545,-0.0006777873903283105,-0.00135868189707411,0.00040993650356990763,-0.00019057145839718181,-0.0009981598418045134,7.167591312717825e-05,-0.0007640402648410038,-0.0007640402648410038,-0.0007640402648410038
0.8900802310106765,0.0029141843152278466,0.0002949714464619557,-0.0021208856375062313,-0.0032393220263760014,0.0007122140641931951,0.002222448021154233,-0.001996163555649244,0.0016021875893124093,-0.001077552008954874,-0.001077552008954874,-0.001077552008954874
0.8468047584769469,0.0025902847975324103,0.00038089038419453214,-0.0010529391076202765,-0.0010559125397633373,0.0004310651975423241,-0.0005573444473530031,-0.0014932649854180191,0.0005169900310239006,0.0010681575372929464,0.0010681575372929464,0.0010681575372929464
0.9916779225266718,0.0012097448828694373,-9.871197049937663e-05,-0.0002070499250254043,-0.0009334712511174237,0.0002494418151244293,-0.000564678465880375,-0.0006845422193950679,-0.0006761987567055483,-0.0016073920915525841,-0.0016073920915525841,-0.0016073920915525841
1.0031206901182195,0.001464338634312741,0.00020045594516560072,0.00028045438411772317,-0.0009301819243603404,0.00033088154318683394,-0.0003405066164596793,-0.0008230904086790058,-0.0005535780442769145,-0.0002623312590195326,-0.0002623312590195326,-0.0002623312590195326
0.9644241286032854,0.001051972968383583,0.00013559118087747013,-0.0009664231282181523,-0.0011135396680347354,0.00024176321247770804,-0.00010610774216313068,-0.0006870645508445516,0.0007327956803664382,0.0010832370547134706,0.0010832370547134706,0.0010832370547134706
0.9893182691323669,0.0016680087447489345,0.00027695513679415473,-0.0005673786546105397,-0.0019021384065488478,0.0003597945479242304,0.0006705469843120149,-0.001038866917355108,0.00019848579097081487,-0.00073698579060133,-0.00073698579060133,-0.00073698579060133
0.970785022125641,0.0010652329623096477,0.00014055262366263754,-0.0002919523129086832,-0.0014063108712489836,0.00023158057285654898,-0.00012246293569007083,-0.0005945714515599443,2.7709358456751154e-05,0.00016283472492584217,0.00016283472492584217,0.00016283472492584217
0.9928116933959247,0.0007997801811342087,0.0001602668352594927,-0.00010274192727355302,-0.0008029300842039566,0.00017507207095057709,-0.0001023977872721682,-0.00043651568464908586,-0.0002082076304739111,-0.0008405481254850633,-0.0008405481254850633,-0.0008405481254850633
0.9813115034504679,0.0009545158970321393,0.00019426414666356973,-0.00037783925220802317,-0.001375841164470759,0.0002218911395137635,0.0003420031343051022,-0.0005619904127892594,-0.00020308978639460573,-0.0006369403740018598,-0.0006369403740018598,-0.0006369403740018598
0.9924220179103755,0.0006027506330734524,-5.7533641398821445e-06,-0.00015568415585986983,-0.0003594729176975564,0.00014928458813168177,0.00019815998613492702,-0.0003591057461035385,0.0001083481633368244,7.443917431237956e-06,7.443917431237956e-06,7.443917431237956e-06
0.9843030153124765,0.001480857653529188,3.3570863128939976e-05,-0.00038841961300617456,-0.0011045156122431177,0.00033167223909269516,0.00019791854546802323,-0.0008925845307352631,0.0021713335932684874,0.0018049979860886856,0.0018049979860886856,0.0018049979860886856
0.9851872940126735,0.001533523329349948,0.00037655543879000497,0.00018727218407044166,0.00036281297461093764,0.0003285189664187227,0.00022171711602625432,-0.0009360425823536911,0.0007009418470587114,0.0005838689538955055,0.0005838689538955055,0.0005838689538955055
0.9916025224115413,0.0005969533282389821,1.2627673216858426e-05,-0.0001379628661551946,-0.0011946775135597276,0.00014820685492356045,0.00017035693640266025,-0.00036395280717660405,7.939756317620894e-05,-4.1332540865246514e-05,-4.1332540865246514e-05,-4.1332540865246514e-05
0.9803959351624687,0.0009444429397243354,2.2202810911586823e-05,-0.0006830935507576852,-0.0006103189445989532,0.00022729348170469343,0.0002369908810857524,-0.0005438191972778617,0.00035836075393314015,0.0002888128564372261,0.0002888128564372261,0.0002888128564372261
0.9933526672086751,0.0007969010777253591,-2.0854349145782436e-05,-0.00037463637352030954,-0.0010172557500450763,0.00017916964790876122,-7.437181410052673e-05,-0.00043800499053958664,-0.00032863494484447475,-0.0006006938513507531,-0.0006006938513507531,-0.0006006938513507531
0.9733721478598922,0.0010644573775262448,0.00025914667683957227,-0.0004952565372169371,-0.0012340858265061927,0.00023101136356884489,0.00015219523733867035,-0.0006068991424396097,0.0008002768246379022,0.0006573244588674587,0.0006573244588674587,0.0006573244588674587
1.0066404419916786,0.0016456783584585628,-0.00019060196349895975,5.8253899023474887e-05,-0.00028069073137748646,0.0003864431847522276,-4.1726196501112867e-05,-0.0010684286211120053,-0.0005878002315808928,-0.00119282632645068,-0.00119282632645068,-0.00119282632645068
0.9745231581929125,0.0010277938880811303,8.54843755940804e-05,-0.0004803485817667097,-0.0019860448899736705,0.0002481201532087418,-0.0002759264186068533,-0.0006722285156506302,0.00030934827113604513,0.0008066226785105046,0.0008066226785105046,0.0008066226785105046
1.013017813303416,0.0014485900283326444,0.00014036346588808257,0.0005166826735123475,-0.0008202987604177814,0.00032492584829646454,-0.00022343736934593572,-0.0008235465481820636,-0.00013279422494139048,-0.0003225816627669964,-0.0003225816627669964,-0.0003225816627669964
0.995972743426441,0.0011781584896211625,0.00015661839988156956,-0.0003044091732887777,-0.0015014118903627915,0.00024733185151748494,-0.00042666305231431334,-0.0006959023895982686,-0.0005627042231511892,-0.0005965735342862155,-0.0005965735342862155,-0.0005965735342862155
0.8893273796530854,0.0024971810391611476,0.0003160939698361176,-0.0009307784475329761,-0.0012219506542137104,0.000441280217911455,0.0007328026271384847,-0.001488475790263788,0.0013174353159010055,0.0014231225955821936,0.0014231225955821936,0.0014231225955821936
0.8224547249373342,0.002397612522259635,-3.4237619048305135e-05,0.0003429223092757949,-0.0006158695766264044,0.00031654304550166046,0.00020614880523839307,-0.0011576344428251284,-4.413926681923197e-05,-0.0011421400828968142,-0.0011421400828968142,-0.0011421400828968142
0.9764853264585465,0.0010214604130577925,5.9098432669935086e-05,0.0002081172399321929,-4.366893276064321e-05,0.00015701052700700657,-4.175760453284383e-05,-0.0004974577446635875,-1.0764348896019627e-05,-0.00031572014370184753,-0.00031572014370184753,-0.00031572014370184753
0.9884249371703848,0.0011879036620621893,7.462906909505573e-05,-0.00017034448027208882,0.00012824567415070653,0.00019467218123703223,2.0455186921397583e-05,-0.0005645112714364187,0.0002501415865725498,5.887756863376392e-05,5.887756863376392e-05,5.887756863376392e-05
0.9694567620729929,0.0008671917282990789,-2.759549574049558e-05,-0.00017727554285307257,-0.0009580975932969027,0.00015442970022683244,7.180950122176455e-05,-0.0004559310514617998,-0.00010216689611863838,-3.6122225266610464e-05,-3.6122225266610464e-05,-3.6122225266610464e-05
0.9775591043312962,0.0015079174282178333,0.00021432607833982154,-0.0003582911190014304,-0.0013004701509158334,0.0002486740158869072,0.0008339595559830881,-0.0007864578247559484,0.0002053063331923788,-0.0005906769460369832,-0.0005906769460369832,-0.0005906769460369832
0.968301437830761,0.0008795215125931982,-2.564656260140019e-05,-9.066398742840764e-05,-0.0005686243125730961,0.00014210253459334687,-6.394561348876948e-06,-0.00041083243351924814,0.0002457114821300399,-0.0002127688816416784,-0.0002127688816416784,-0.0002127688816416784
1.0014144169581587,0.0006836940501372004,4.2788787233183356e-05,-8.081520111979934e-05,-0.0003866039652649089,0.00011389366742209361,7.395115843245037e-05,-0.00030580527348900155,-0.00022394100089040414,-0.00048415489167474846,-0.00048415489167474846,-0.00048415489167474846
0.9831670036129518,0.0008279330106032458,-6.859625134580938e-08,-7.114193866930574e-05,-6.70761139438536e-05,0.0001502999911071612,2.546975890693748e-05,-0.000393816124797719,-9.926076110089443e-05,-0.000301513648184204,-0.000301513648184204,-0.000301513648184204
0.9912249976600765,0.0005052360015904641,5.9583104972560363e-05,-9.639113837867086e-05,-0.00018172056094611921,8.787773882568128e-05,0.0001055995360791373,-0.0002262771314913703,0.00013885537991153996,6.812683959400712e-05,6.812683959400712e-05,6.812683959400712e-05
0.9853779126084217,0.001203014126723156,0.0002095800740635756,0.00019391614755770448,-0.0005945095430734959,0.00018762919297088398,0.00012675117932114954,-0.0005423763769042411,0.00045586416003784436,0.0005091714627640798,0.0005091714627640798,0.0005091714627640798
0.987059551014122,0.0012497874829577634,-2.25774717936833e-05,0.0004002828557936322,0.0002506411159095556,0.00018829959818833508,0.0001960256220228107,-0.0005841948134868158,0.0004210597934852789,0.0005196948158481263,0.0005196948158481263,0.0005196948158481263
0.9900183227948834,0.0005003970280820409,-3.515159157152503e-05,8.931146744739493e-05,-0.00012053401928113772,8.874417209159269e-05,0.0001329633100696226,-0.00022071136037293826,-8.839543910998948e-05,-0.00025035506095516524,-0.00025035506095516524,-0.00025035506095516524
0.9816387304380251,0.0008089645898950313,2.0524211782890767e-05,-6.152863751252013e-05,-0.0005101897654449239,0.00014542630362324172,0.0001759451039508031,-0.00037996277921636956,-2.01611152681469e-05,-0.00018516040988714177,-0.00018516040988714177,-0.00018516040988714177
0.9970247778576815,0.0006786246942485283,-2.1740723312291266e-05,-7.104632970056368e-05,-0.0007452662524108922,0.00011332558689025607,7.400271248969581e-05,-0.0003071302035192458,-0.00016055002864057144,-0.00038177257220362026,-0.00038177257220362026,-0.00038177257220362026
0.9694765204166008,0.0008717955884114427,0.00013385988707526053,-0.0002863079735543339,-0.000223743268116805,0.00013863832909055684,4.379169283019735e-05,-0.0004021412858166151,0.00014904364303325313,6.506383935611648e-05,6.506383935611648e-05,6.506383935611648e-05
0.9938829864154752,0.0014677307653633022,5.80175605937594e-05,-0.0003227616669078115,-0.0009274692832591525,0.00024092936803121745,0.000767624324005789,-0.0007940500297795028,-0.00047087316920313427,-0.0005274437980011815,-0.0005274437980011815,-0.0005274437980011815
0.9773062404473946,0.0008405157320621797,0.00010921031025290517,9.146982105523449e-05,-0.0009718965071373598,0.00015948379363006637,6.399276217394778e-05,-0.00044709522644292843,-0.0004754089379592763,-0.0008819990249294696,-0.0008819990249294696,-0.0008819990249294696
0.9994961265022454,0.0011655633227262501,-1.0828892213154973e-05,-0.00028471774033078656,-0.00024210166091553909,0.00019637414915429918,0.00013354816514710155,-0.0005624369980757882,2.982619403169018e-05,-0.0002082063650116206,-0.0002082063650116206,-0.0002082063650116206
0.978590413942409,0.0009941500899962004,3.0144129290143873e-05,-8.964937439137621e-05,-0.0002246514498955854,0.00015686708980366948,5.910960079158478e-05,-0.0004976167879916504,-0.00031977290855100815,-0.00022695460209820606,-0.00022695460209820606,-0.00022695460209820606
0.8688106617538935,0.0023068255434322018,-5.712836827431733e-05,-0.00045307401696814686,5.128250401131851e-05,0.00029742225661688604,0.001296686550179671,-0.0011794805685994003,2.2973247490898352e-05,7.680236695684073e-05,7.680236695684073e-05,7.680236695684073e-05
0.8173506747970494,0.002898534906547929,-0.0004077693483680589,-0.0005105292095629599,-0.0009400742901249926,0.0003422424348596964,0.0016284837200923885,-0.001434249000430321,-0.0011635611853921812,-0.0014614767071706725,-0.0014614767071706725,-0.0014614767071706725
0.9674033894997677,0.0012033639352070338,1.9541399425171413e-05,-0.00037047592743177926,0.00038080138538787445,0.0001743145300657778,1.3453176315070259e-05,-0.0005920719575847055,0.0001896311623393876,6.234590796039274e-05,6.234590796039274e-05,6.234590796039274e-05
0.9843918063796101,0.0014222075606814537,-0.0001523964982002024,0.00047079459531873535,-0.00043751099889099976,0.0002243275309569137,4.9605899677174214e-05,-0.0006936119318773359,-1.6158997114379403e-05,-0.00042649489042778654,-0.00042649489042778654,-0.00042649489042778654
0.9789463447957757,0.0009944620996952327,0.00022912581989509295,0.0002171765774940937,-0.0002868817460991435,0.00017657902294898609,-0.00014885556329424787,-0.0005642448908484976,-1.341998919068832e-05,-0.00023397073654130018,-0.00023397073654130018,-0.00023397073654130018
0.9832017760642557,0.0016891310994457008,-0.0002584429551361067,-0.00042851231948815016,-0.0016506425804621028,0.0002892166574884891,0.0005932266048798152,-0.0009017698234716764,-0.0007357365361412294,-0.00110127484289535,-0.00110127484289535,-0.00110127484289535
0.9712281526860066,0.00101927272138134,7.809508567246937e-05,0.00010189121299264414,-0.0009542110605655907,0.00016998623421338177,7.360313300508459e-05,-0.0005297816490675844,-0.0008494880308275166,-0.0006778417488274568,-0.0006778417488274568,-0.0006778417488274568
1.0000126916836596,0.0008244419009490561,8.090159304252609e-06,-0.00012886904505649,0.0005014092103514667,0.00013459310532870639,4.8671436538860746e-05,-0.0003732733192867155,-0.0001583798287762006,-0.00018130161246221466,-0.00018130161246221466,-0.00018130161246221466
0.9821325271188791,0.001003594795852874,2.964130463301018e-08,-0.0002302381923633412,2.6042493352917973e-05,0.0001674844759581573,-1.885755459840599e-05,-0.0004433615306573824,0.00016996916308509302,0.00010446429047950012,0.00010446429047950012,0.00010446429047950012
0.9929538082347339,0.0005976284369386429,1.3777549001670053e-05,0.00014800641782353186,-0.0002747236201187109,0.00010116378921676272,3.687504873806091e-05,-0.000256598595527735,0.00010358136014587682,-0.00015104992618930613,-0.00015104992618930613,-0.00015104992618930613
0.9881613873650176,0.0014302415377511197,-1.5718702309208687e-05,0.00010363812561542396,-0.00012992237525477623,0.00022560995845044562,0.0002782823601954476,-0.0006502717635280542,9.217032842845363e-06,-0.0004679073728283134,-0.0004679073728283134,-0.0004679073728283134
0.9900580469720538,0.0014822192206072832,-2.1629255624877608e-05,-0.000509967733604566,-0.00015644197997455311,0.00022867194443776384,0.00032743566816750835,-0.0007194906874707918,-0.0006805945180737849,-0.0005368689650154801,-0.0005368689650154801,-0.0005368689650154801
0.9924587047297401,0.0005932710992029624,6.010812163859125e-05,-0.00012327422166402702,-0.00045360951617778866,0.00010314368503105964,0.00013449522740338615,-0.0002697563322358043,-0.0006310172530492597,-0.0006363161071677448,-0.0006363161071677448,-0.0006363161071677448
0.9817575900857752,0.0009851735210802885,-8.873289347588464e-05,-0.00021180661657393962,-0.0006612749696419673,0.00016384712523032086,9.66054395701299e-05,-0.0004348047110376285,-0.0004158147654020894,-0.0004086532872283888,-0.0004086532872283888,-0.0004086532872283888
0.9968881757054115,0.0008200273678450587,-3.821307458373724e-05,-0.00016086456934105708,-0.00020154148307383046,0.00013260189788166787,0.00018067709340752192,-0.0003770255855420901,-0.00029880035033513774,-0.00037318406841446716,-0.00037318406841446716,-0.00037318406841446716
0.973803156131202,0.0010103825964671031,1.8219570492750137e-05,-0.00012667398285015619,-0.0005546049319824498,0.00017480003094016983,0.00026847185334921697,-0.0005356154428164395,-0.0003972826786088346,-0.0007103574685400904,-0.0007103574685400904,-0.0007103574685400904
0.9903935654921274,0.0016231064825568734,3.953362663011717e-05,-0.00010118707063500043,-0.0010627065572405003,0.00027741260257618805,0.0003787945608167975,-0.0008585516465386966,0.0005577670220054953,-0.0002754398766257049,-0.0002754398766257049,-0.0002754398766257049
0.9845969436049342,0.000964855040858792,-0.00011572056311137668,0.0004082745199180948,-0.00033516504300190597,0.00017619455251471905,0.0001325284460427234,-0.0005518077376460706,-7.008447667333773e-05,-0.00027142568104421283,-0.00027142568104421283,-0.00027142568104421283
0.9911144591129707,0.0013965614689321426,-9.747592095199487e-05,0.00020427057832494988,0.0001534362772175335,0.00022327429002388932,-4.613850291790289e-05,-0.0006841163922473026,-0.00020277782159849878,-0.00010581635393447364,-0.00010581635393447364,-0.00010581635393447364
0.9702805078358764,0.00116754865470525,6.534821924963907e-05,5.710780084200451e-05,-0.00034591751617985,0.00017509455344466573,1.4829903680402268e-05,-0.0005938943446297529,0.00034853477247254183,-0.00018080004771758862,-0.00018080004771758862,-0.00018080004771758862
0.8715429606150448,0.002790819266794104,0.0002568598317724824,-0.00047444021543552317,-0.0006994624575410446,0.0003620026491001349,0.0015820040066772956,-0.0014675214923421942,-0.0010404385300933905,-0.00039815820099764476,-0.00039815820099764476,-0.00039815820099764476
0.8265963809346891,0.0037586476127171842,0.0003215187291661925,0.0003665366894166633,-0.0003756745655394411,0.0005121854254217517,-0.000306721939905108,-0.0021126478770363555,-0.0005054918047765478,-0.0008611101879250072,-0.0008611101879250072,-0.0008611101879250072
0.9665339972677864,0.0015951278086931955,-0.0002627160179597965,-0.00027153511011457354,-0.0006147583912294863,0.0002859941220199058,-0.000591285177190759,-0.0009068045912675737,6.269960912053119e-05,-0.0005348888118340556,-0.0005348888118340556,-0.0005348888118340556
0.9782428003804942,0.0018618788630470175,0.00023483827422898784,0.00039629338130164893,-0.0002138004415017658,0.0003374925282673136,9.055363673449168e-05,-0.001108653503669288,0.0014469122049313166,0.0009435145684920654,0.0009435145684920654,0.0009435145684920654
0.9819895908449509,0.0012827612028112885,-0.00016136071208561198,0.0004602803835053182,-0.0005349067132327523,0.000268988879861487,-0.0003366801291453392,-0.0010369125698919124,-0.0008188395819473948,-0.0010328307544557047,-0.0010328307544557047,-0.0010328307544557047
0.9694637515472939,0.00200879494372173,0.0002677764328526955,-0.0005725128896343357,-0.0015477334159090805,0.00039250029278181664,-0.0002567944901664676,-0.0014956532923829924,-0.002054252394331768,-0.0016952429393586321,-0.0016952429393586321,-0.0016952429393586321
0.9709519889324866,0.0012774932894838785,0.00020845742678576862,-0.00040814064855043686,-0.0008395322672287708,0.0002707195534297213,-0.0005398607787482357,-0.0008405706208762798,-0.0005705915057661048,-0.0007609848541124675,-0.0007609848541124675,-0.0007609848541124675
0.9944603301552201,0.0010241244928144006,0.00019105015608633646,-0.0001376197128913903,0.0004883223353843169,0.0002205307701584891,-0.00017791506248965305,-0.0006006465286253482,-0.0008721018303685657,-0.0015730699490331679,-0.0015730699490331679,-0.0015730699490331679
0.9770760986919172,0.001281235005353138,0.00017485985560206085,-0.00018186606027059682,-0.0008649636322631826,0.0002672985175969922,-0.00021373522028467207,-0.0007428716927814216,0.00013689516027726167,-0.0008157743361748571,-0.0008157743361748571,-0.0008157743361748571
0.9892611707981732,0.0007576589080219284,8.450119093406094e-05,-5.074795353010586e-05,-0.00021052223564588246,0.00016103918789112104,-0.00018638396091985587,-0.0004296901840505907,-6.431621067359838e-05,0.00023580500422404338,0.00023580500422404338,0.00023580500422404338
0.9831537294012381,0.0018062219447852379,-0.0002260632330272072,0.0002663390338688565,-0.0013313710131167555,0.00033144480203406435,0.0002508340168183576,-0.0011062004025303995,0.0007644889859423909,0.0016754619778001079,0.0016754619778001079,0.0016754619778001079
0.9818740360642622,0.0018607289906708503,-3.4957631408705225e-05,-0.0003475188047322719,0.0006273627548535332,0.0003280476774719654,-7.232524121714157e-06,-0.001161464649167998,0.0007803820854981325,-0.0008433999626298316,-0.0008433999626298316,-0.0008433999626298316
0.9893413928242958,0.0007562295195948853,-9.441747163330128e-06,8.352643044018393e-05,-0.0006102576654674063,0.00016761622917649266,-0.0001298569538218386,-0.00043277683291420566,-0.0005667232665512723,-0.00034631619036118444,-0.00034631619036118444,-0.00034631619036118444
0.9819708688053209,0.0012634920367886016,5.005784474454433e-05,0.0001176285049689918,-0.001301749465024371,0.00028876177025094485,-0.00019235768161995903,-0.0007247202862310509,-0.0006587459513899274,-6.123626121901093e-05,-6.123626121901093e-05,-6.123626121901093e-05
0.9889287367068874,0.001017031683733906,-0.00011964095110628126,-0.0003302618723752815,-0.0012021901483822983,0.00021641391467130955,-0.00017457455216174367,-0.0006015159084801214,-0.0003456648236672688,-0.0002096816575065663,-0.0002096816575065663,-0.0002096816575065663
0.9757343725323684,0.001265610478840404,-4.223556679738838e-05,0.00040736136038832527,0.00018923898288913943,0.000297790993109337,-0.000164654223437255,-0.0008402097717263857,-0.0003978761493635963,-0.0014017142704175756,-0.0014017142704175756,-0.0014017142704175756
0.9841513183159183,0.0019259438615291222,-1.8457785870396037e-05,-0.0002721319652821963,-0.0010279144055538314,0.00035487348340623726,-0.0004981512872708205,-0.0014899256343271494,0.0007385994981359278,0.0016364467875816802,0.0016364467875816802,0.0016364467875816802
0.9869150479973159,0.0012449446550964517,-0.0002233589459607055,0.0004960244168692451,-0.001041093991992481,0.0002685317697084244,0.00010354483247831947,-0.0009243218484613624,-0.0008546769338372284,-0.001898617887160614,-0.001898617887160614,-0.001898617887160614
0.9842933236691949,0.00183085118522936,1.1485097280217182e-05,0.0003595984516907569,0.0003952902583745921,0.000342600764268175,0.00028103719807892613,-0.001113075299986166,-5.021560269513614e-05,0.000309924975377851,0.000309924975377851,0.000309924975377851
0.9683877127321973,0.0015458626888394734,0.00019197990540176235,-5.853909661690526e-05,-0.00043815314258044413,0.0002794352990230786,0.000351515791501944,-0.0009303401941970213,0.0005527949379187103,0.0013881482948077117,0.0013881482948077117,0.0013881482948077117
0.8678306149995727,0.0036563789274527913,0.0005712246907662033,0.0008383306772383747,0.0005919006288556128,0.00047677326025452604,0.0013018448506614266,-0.002172515952086007,-0.0013982008345639896,-0.001989301805155552,-0.001989301805155552,-0.001989301805155552
0.8528451029963445,0.006277569999564888,-0.00036170176745875526,0.000469170827115728,0.0027764075976489666,0.0008672684469448466,0.0008341689158944954,-0.003559792176589749,0.0013380196521478593,0.002047519270397813,0.002047519270397813,0.002047519270397813
0.9714548215832428,0.002703574418136008,-5.5145181635518625e-06,0.00014457311912763338,-0.0007222429351119164,0.0005385940385362886,0.00018278802378546288,-0.0015856996674260548,-0.0007693226443766799,-0.0002678546543524174,-0.0002678546543524174,-0.0002678546543524174
0.977197414781517,0.0030368059735497678,4.503078886353151e-05,0.0006938533613437547,-0.001572031742476221,0.0006769387054553766,0.00013909151268454156,-0.001829238300928071,-8.961520778838494e-05,-0.0020083582882114426,-0.0020083582882114426,-0.0020083582882114426
0.9786436400327264,0.002139149540065127,-0.0004747044120361199,-0.00011123795804290904,-0.0027366401369770532,0.000498843031403351,-0.0001817531150442031,-0.0015442067796431758,-0.00032190629917716596,0.0002827177690870597,0.0002827177690870597,0.0002827177690870597
0.9616926830346759,0.0032763963724654704,0.00015849868932815703,-0.0005794618005131591,-0.0030502934376888113,0.000752245378094929,-0.0002633451251465857,-0.002798793062249283,0.0008839400418360066,-0.0031787189811477434,-0.0031787189811477434,-0.0031787189811477434
0.9774502880198866,0.00207812022078759,-0.0003227271259135245,-0.0005875578271949955,-0.0011405894589401333,0.0005395963867693698,-0.0004501259500925281,-0.0014760172714152198,-0.0011807535615591114,-0.003071483134578612,-0.003071483134578612,-0.003071483134578612
0.9848328679188498,0.0015829300155271848,0.00011047992887813773,4.265853358664806e-05,-0.0003280390435000946,0.00039961231403751185,-0.0003454309068126049,-0.0010655332476986468,0.0004938197774868591,-0.00010550522397390072,-0.00010550522397390072,-0.00010550522397390072
0.9732214958059779,0.001976132628139131,-0.0002906592321945123,-0.0002236164896262105,-0.0015030481522857464,0.0004783391865510467,-0.000207721316253906,-0.00127979772548803,0.00031531011464480674,0.0006565680871334356,0.0006565680871334356,0.0006565680871334356
0.9820002211561599,0.001176152125743562,0.0003090061633831409,-0.0002951778171232933,-0.00018466414322182434,0.00028374472424574915,-8.054441075011631e-05,-0.0007436714590041138,0.0003066025924338689,0.00012786117790264395,0.00012786117790264395,0.00012786117790264395
0.9776876023586337,0.002781746382413493,-0.00020852791237802037,-0.0002985037960111514,-0.0012299591473295957,0.0006502662291366645,7.776667162229245e-06,-0.0017956281508331173,0.0013479188745811888,0.00038676662482917123,0.00038676662482917123,0.00038676662482917123
0.9708725442290544,0.0028649978601038672,-0.00014334295188012103,-0.0006774489196709199,-0.0016101557767667085,0.0005927995338608216,0.00011406320782458845,-0.0021866846514251304,-0.0010752812048302474,0.004029302473549712,0.004029302473549712,0.004029302473549712
0.9816980154996591,0.0011757259440880383,0.00011565943370717147,-0.0003351511126215012,-0.0008251177261560105,0.00028824348028089197,-0.00016814568909284677,-0.0007405560510191922,-0.0003984417295495035,-0.0005403940910396754,-0.0005403940910396754,-0.0005403940910396754
0.970480696552738,0.001928096739880972,-0.0001032044081755723,-0.0008035819167591107,-0.0027092947130329392,0.00045010329685213346,-1.3367565428801242e-05,-0.0012456357454625477,-0.0006118812450569555,-0.0014992070468071717,-0.0014992070468071717,-0.0014992070468071717
0.9852323353448893,0.001567851452127621,-0.00019770537353724915,-0.0005667687374626418,-0.0010407684348997526,0.0003970848277358163,-0.00019101913498420497,-0.0011599519242473377,-0.00021069021238906416,-0.0025302890343625872,-0.0025302890343625872,-0.0025302890343625872
0.9753453546155574,0.002057103511776978,-0.0005208657472439704,-0.0004030846909345298,-0.0014677172081385415,0.0005480213904102138,-1.006822305937849e-05,-0.0014631997803962182,-0.0013245970564937926,-0.0022228410231407425,-0.0022228410231407425,-0.0022228410231407425
0.9716326529490693,0.0031245910608245367,0.0001103013624610405,-0.0004140153156015902,-0.0032959696262022664,0.00065308019914323,0.0007814283815096301,-0.002797638152605031,0.0007524162693119951,-0.0009630051013259644,-0.0009630051013259644,-0.0009630051013259644
0.9872566108231458,0.002083859146094581,-0.00030762474132572937,-0.0003106721110452959,-0.001987108173776564,0.0005170589154439575,-0.0001850321716420078,-0.0015185117616248744,-0.00033915547288121406,-0.0015593348346658598,-0.0015593348346658598,-0.0015593348346658598
0.985080218602555,0.003001769126676751,-0.00048519630603882646,-0.00024342374912411646,0.00032496830770889495,0.0006961139294580088,0.0002525414117228175,-0.0018383484558549545,0.00047462783606200265,0.00014855973784544396,0.00014855973784544396,0.00014855973784544396
0.9770231736991907,0.0026272335455887613,-0.0003547823629876934,0.0006172740818292111,0.000600013557945811,0.0005526822927311992,-0.00018829668109909825,-0.0015998781638481008,-0.0013955817051309882,-0.0036507115487633968,-0.0036507115487633968,-0.0036507115487633968
0.892102877860568,0.006101133386054245,-0.00022911060087049684,-0.001762231620135113,-0.0024719121653519194,0.0009207103181955167,0.0017098656335862161,-0.0036035339207053374,-0.0007975539442091062,0.003796645070353155,0.003796645070353155,0.003796645070353155
0.8978366572884011,0.012039466847961757,0.00011387973338816693,0.0030864237314586207,-0.004574477550766676,0.002201150305506827,0.0015653437831828487,-0.007235480064446298,-0.0024190279916080915,-0.009675439735150948,-0.009675439735150948,-0.009675439735150948
0.9765791256019126,0.0050756191046496075,0.000627018968728299,0.0006006909519139514,-0.0017272966298824688,0.0009469719559116463,-1.4361076033031495e-05,-0.0031927219789995576,-0.00042597541964928265,-0.005812221967311015,-0.005812221967311015,-0.005812221967311015
0.9773856690796587,0.005671175178659833,-9.15741608591425e-05,-0.001365035850790064,-0.0013453711155870796,0.0011409350580497968,-9.558438354939636e-05,-0.0035124046595913505,-0.0035021823835567067,-0.0023244987965205244,-0.0023244987965205244,-0.0023244987965205244
0.9894746636312887,0.004035177244198373,-0.00022397256198491977,-0.0007603440334655875,0.003456439739843997,0.0009209510666392529,-0.0005002334714349077,-0.0027718413037346457,-0.0032160392350256695,-0.0067993059096463915,-0.0067993059096463915,-0.0067993059096463915
0.9652529988039857,0.005407058673183243,-0.00042403597541629257,0.0012102997011401717,-0.002519935807463458,0.0011811387168049192,0.0001201095883115455,-0.004449978131034871,-0.0019770454729303166,-0.0036685046774660446,-0.0036685046774660446,-0.0036685046774660446
0.9815221516235312,0.0037293478978418586,1.5745450119841742e-05,-0.0006081088120626355,-0.0015966309196544515,0.000886272370617669,0.00014689837595838195,-0.002792329046531483,-0.0006910578817489466,-0.004217362693193061,-0.004217362693193061,-0.004217362693193061
0.9885898765070938,0.002807209188244561,0.0004199474110752055,-0.0002861214251743682,0.002920796744066201,0.0006663464945748654,0.00018388969316851522,-0.00210096140053162,-0.0007807351522445272,0.0005221700677316976,0.0005221700677316976,0.0005221700677316976
0.9904253047024075,0.0036650108241668296,-0.0008961959306348355,-0.0010514229208840042,0.0017283981941177418,0.000908852936702953,2.358745181552102e-05,-0.0025662383808130462,-0.0017913874501552796,-0.005251540121676168,-0.005251540121676168,-0.005251540121676168
0.9942718125559593,0.0022055328206840763,-0.0009180619230546583,0.0010554675961205184,0.0014087522035545197,0.0005420225081935737,-7.602562381303635e-06,-0.0015504065427179858,-0.0014333864466221646,-0.003196723389351175,-0.003196723389351175,-0.003196723389351175
0.9817048077739001,0.0051862411668742985,0.0015871441155727029,0.002481465338206368,0.0028560636146141016,0.0011726528390615387,9.429587867304523e-05,-0.004115566452186137,0.0008845891746067647,-7.912939555476672e-05,-7.912939555476672e-05,-7.912939555476672e-05
0.985320710896939,0.005245015541819314,-0.00013364965667272966,0.0014551875115075275,-0.003996286339259081,0.0012047537655287544,-1.625651360037672e-05,-0.0044502839009218365,-0.0015085873067151034,-0.004753662921661905,-0.004753662921661905,-0.004753662921661905
0.9936361232386394,0.002175598675539228,-0.00012793477311390244,-0.0005017333832811888,0.0018366290267348706,0.0005326890147946406,4.3293296323243524e-05,-0.0015191906584531845,-0.000661105933815298,-0.0027537957626710963,-0.0027537957626710963,-0.0027537957626710963
0.9916162354955105,0.00351686340673551,0.0006422132477057474,-0.0013564306655654557,-0.001316468232072432,0.0008139791750843006,-3.780827584509705e-05,-0.002274472842411557,-0.001408828185206712,-0.0040167114168120355,-0.0040167114168120355,-0.0040167114168120355
0.9830860212547444,0.002805382280490432,-0.0006021332152353898,-0.0010177581114736434,-0.0025781254608961968,0.0006609342912112792,-1.3192182453103385e-06,-0.0021028149517847705,0.0012926279212235325,0.0013338022853880416,0.0013338022853880416,0.0013338022853880416
0.9863235002679813,0.0037617427947854026,0.0009572079392438093,0.00011638612041176,-0.005711391738334237,0.0009442781578962167,7.775669030996024e-05,-0.002861906156552574,-0.0007150721991984188,-0.003432856833376685,-0.003432856833376685,-0.003432856833376685
0.9948055343689852,0.0053975439807734124,-0.001480497288344873,0.0001995972384705169,-0.00033870889171028207,0.001310154536816488,0.0005189225723569724,-0.0047268327786251785,-0.00020463754020105807,-0.004474055459954274,-0.004474055459954274,-0.004474055459954274
1.0009747084005813,0.0039680037267881265,0.00014405784029292157,0.0004951196141074199,-0.0013139553225234302,0.0009529463073185696,-0.0001516392193940952,-0.002814500628172789,-0.0011200615561065552,-0.007758643101366647,-0.007758643101366647,-0.007758643101366647
0.9794239823480478,0.0055542665217847035,-3.7267731425649764e-05,-0.0007374275811810049,-0.004218485604425948,0.0011551319438756202,-0.0006062227192533687,-0.003698686847845467,0.0008137311232705446,-0.0018936149543942182,-0.0018936149543942182,-0.0018936149543942182
0.9810041352885616,0.0049177129483349395,0.0015205715480116622,-0.0013822178509507177,0.003330126284408874,0.0009046176716794863,7.782514884169256e-05,-0.003156347739696752,0.0003311905112619584,0.0005540946600613994,0.0005540946600613994,0.0005540946600613994
0.9458564040729921,0.012002016245446487,-0.00279262925955881,-0.003758806242811774,-0.010759887151875813,0.002108137913279684,2.090308128177565e-05,-0.008092090926152484,-0.006219132022749818,0.0013421041824447366,0.0013421041824447366,0.0013421041824447366
0.9862168314236527,0.002151476636319547,0.00014944537670114055,0.00019631817229914805,0.00023262706215398943,0.0004090641413221352,0.00030702539979665655,-0.0014185935555637297,0.00013212896567060817,-0.0006408477478252461,-0.0006408477478252461,-0.0006408477478252461
0.9982899334464775,0.014459406578026898,0.0006012065315739168,0.0019194012261413151,0.0020359551258822828,0.002378030808919962,0.004776435591586137,-0.007089875364490905,-0.0038827201320933424,-0.009251479217383562,-0.009251479217383562,-0.009251479217383562
0.9776236510729195,0.01089630941711882,-0.000282211836452273,0.004574953875477239,0.0016860555687910894,0.0016472872665315164,-0.00014367347566590638,-0.005509979529730091,-0.0036644478659151325,0.001969884356912477,0.001969884356912477,0.001969884356912477
0.9763452753874613,0.008198687304360807,-1.9649356568063325e-05,-0.005656505084726815,-0.005211077471542369,0.001161243550845903,-0.00011739552981904211,-0.005120820879237709,2.0361180667616274e-05,0.008972214412587554,0.008972214412587554,0.008972214412587554
0.9861895290507408,0.008298359032970338,0.002440083929105108,-0.00247285012178744,-0.0021086109040564516,0.0015833170910647398,0.002151640679145861,-0.006125127071236691,0.005797528505837923,0.004053991051107708,0.004053991051107708,0.004053991051107708
0.9833463751663098,0.007667604926251275,0.0010055194767569775,-0.0035023235871014524,-0.007242015486678466,0.0013312452350215942,0.0010500051102394492,-0.005664437392979171,-0.007097116565630612,0.0007964051259146121,0.0007964051259146121,0.0007964051259146121
0.991402392057628,0.005596696515990245,-0.00046887348548307894,-0.000693679714670381,-0.001894341787986975,0.0010700228281363966,0.00019943955539136748,-0.004142242091919823,0.0036164366883573162,0.002869251316289234,0.002869251316289234,0.002869251316289234
0.9903627068010931,0.005622177666564903,0.0017407535362631288,0.0021337314514283667,0.0041136267431906015,0.0012325117837103106,0.0001326710283682253,-0.003960885806549963,-0.0021084711044625504,-0.0014813691760880987,-0.0014813691760880987,-0.0014813691760880987
0.9875412851507235,0.004687283101170476,-0.0002737423238610148,-0.0006754245203348663,0.0006454845912100549,0.0009853002364167418,0.00020261867516213616,-0.0029379185550136855,0.0002670548956350549,0.001976462013553726,0.001976462013553726,0.001976462013553726
0.9727673617109022,0.004944738560626653,0.0016528691014527919,0.0009213886663087534,0.0009905761192987583,0.0008877491359591261,0.00022262955788154848,-0.0038382085915174002,0.002985018288853336,0.008250239453665542,0.008250239453665542,0.008250239453665542
0.9727673617109022,0.004944738560626653,0.0016528691014527919,0.0009213886663087534,0.0009905761192987583,0.0008877491359591261,0.00022262955788154848,-0.0038382085915174002,0.002985018288853336,0.008250239453665542,0.008250239453665542,0.008250239453665542
0.9875412851507235,0.004687283101170476,-0.0002737423238610148,-0.0006754245203348663,0.0006454845912100549,0.0009853002364167418,0.00020261867516213616,-0.0029379185550136855,0.0002670548956350549,0.001976462013553726,0.001976462013553726,0.001976462013553726
0.9903627068010931,0.005622177666564903,0.0017407535362631288,0.0021337314514283667,0.0041136267431906015,0.0012325117837103106,0.0001326710283682253,-0.003960885806549963,-0.0021084711044625504,-0.0014813691760880987,-0.0014813691760880987,-0.0014813691760880987
0.991402392057628,0.005596696515990245,-0.00046887348548307894,-0.000693679714670381,-0.001894341787986975,0.0010700228281363966,0.00019943955539136748,-0.004142242091919823,0.0036164366883573162,0.002869251316289234,0.002869251316289234,0.002869251316289234
0.9833463751663098,0.007667604926251275,0.0010055194767569775,-0.0035023235871014524,-0.007242015486678466,0.0013312452350215942,0.0010500051102394492,-0.005664437392979171,-0.007097116565630612,0.0007964051259146121,0.0007964051259146121,0.0007964051259146121
0.9861895290507408,0.008298359032970338,0.002440083929105108,-0.00247285012178744,-0.0021086109040564516,0.0015833170910647398,0.002151640679145861,-0.006125127071236691,0.005797528505837923,0.004053991051107708,0.004053991051107708,0.004053991051107708
0.9763452753874613,0.008198687304360807,-1.9649356568063325e-05,-0.005656505084726815,-0.005211077471542369,0.001161243550845903,-0.00011739552981904211,-0.005120820879237709,2.0361180667616274e-05,0.008972214412587554,0.008972214412587554,0.008972214412587554
0.9776236510729195,0.01089630941711882,-0.000282211836452273,0.004574953875477239,0.0016860555687910894,0.0016472872665315164,-0.00014367347566590638,-0.005509979529730091,-0.0036644478659151325,0.001969884356912477,0.001969884356912477,0.001969884356912477
0.9982899334464775,0.014459406578026898,0.0006012065315739168,0.0019194012261413151,0.0020359551258822828,0.002378030808919962,0.004776435591586137,-0.007089875364490905,-0.0038827201320933424,-0.009251479217383562,-0.009251479217383562,-0.009251479217383562
0.9862168314236527,0.002151476636319547,0.00014944537670114055,0.00019631817229914805,0.00023262706215398943,0.0004090641413221352,0.00030702539979665655,-0.0014185935555637297,0.00013212896567060817,-0.0006408477478252461,-0.0006408477478252461,-0.0006408477478252461
