0,1,2,3,4,5,6
0.8271650769063523,0.08736182772055363,0.07034149559303948,0.06510269306830085,-0.02358460626109027,0.04195572647043755,0.05149249116397825
0.891815670913581,0.025754710734460534,0.015443226090467332,0.023446853159894254,0.004605901700635129,0.07280597276150824,-0.010935736435360721
0.8902801602242728,0.09599635663481793,0.18687818429616343,0.1612924285764642,0.021650584601715983,0.12288212719968461,-0.09241842760106223
0.8773676933110649,0.2519526834055562,0.15825716873983786,0.12730827827987878,8.018518894092885e-05,0.22621411061299745,0.04570088344230827
0.8155107230903238,0.06631244604769351,0.0587012005434534,0.05915514056299076,0.009008795928590385,-0.02067190439726041,-0.04968077352067146
0.7454862663752383,0.13120368238022315,0.1946716907224152,0.23037248375640818,0.00992227863520101,0.17141266174632197,0.12770225553547065
0.9900343021940367,0.09493267370683751,-0.05024183457081155,-0.08105405746652283,-0.008338367815882486,-0.07903547405400468,-0.0638783361792653
0.9801756135389486,0.08760309660992824,-0.04613671428985244,-0.04041946662140006,-0.0005500098570615508,-0.009633466645186162,-0.0064606413439980415
0.9955166975439675,0.15631613361181723,0.04458250008880493,0.004444143578122395,0.024007944592639774,0.05913753843807923,0.07580398873784655
0.9794454086250829,0.2381337344779235,0.05334792868252458,0.042366336821322625,0.028038380050486533,0.06668712978928981,0.06074469009504313
1.0078292265482571,0.1316063858627419,0.021197252976377978,0.015311351269408524,-0.006903943448122174,0.02689616850547516,0.06981998177972981
0.7694466783201267,0.05760408700855988,-0.04168365521304218,-0.04545845754220301,-0.00040109777351260423,0.02256389606892517,0.01691900865295215
0.9057519340331947,0.05068238425424832,-0.05572236321843793,-0.0650875272968221,0.027613935356192387,-0.002349856549111462,0.02444192136347967
0.9704171319256155,0.05212407687447711,-0.03537229187254565,-0.015183600120109997,-0.0036732717440175477,-0.015124450947887613,-0.015399622248035039
0.879636290070145,0.09832713053719871,0.13866752850996444,0.09577562562827235,0.0058369368314786785,0.03456458218320624,-0.014633613390246047
0.9732079347203922,0.1284088705168529,-0.07492759418166928,0.06732971715578817,0.018723219066265395,-0.21357330188643153,-0.011512511579471307
0.9364334562769231,0.05577932497568924,0.04934209281688895,0.0016098263702912785,0.0001471759383669946,-0.00912401317408873,-0.02025067795229385
0.8544608440929274,0.13897169497348258,0.12610278155117982,0.11852380470895985,0.021995658569354704,-0.014010970300212477,-0.0489959966299055
0.8878562104349477,0.16333205259972855,0.06872090379851159,0.07346034426637471,0.01317276437674686,0.007610576530082791,-0.0007936256553846555
0.9609898229465489,0.0680692407351892,0.013039087292988083,-0.0012139934925907703,0.0032741158925169156,-0.02190809347756506,-0.012908921619000369
0.9859335696645704,0.09538506557451316,-0.07294603007882039,-0.05304734358626628,0.001132074640396441,-0.013565580221061357,-0.034899775855233406
1.2911547826745224,0.30992020318930846,-0.08379973876333335,-0.13392622543811594,-0.010806002796647007,-0.09620363392638454,-0.07015077277275483
0.8991611439515799,0.08917714535151376,0.09708638222421506,0.0824336870576281,-0.0046320378359916425,-0.08882747913191091,0.007773607290342155
0.9339017058078247,0.169846699636316,0.15250584175989523,0.09802138614346179,0.019153144574156178,0.04563090686495008,0.014504760493293745
