0,1,2
0.9570455989805033,0.004003089431792878,0.004711388189537947
0.9427457282965063,0.0016148057232138646,0.001739722353007285
0.9248309738716182,0.002145563888603554,0.002114632700724218
0.955068252864261,0.005257045596170896,0.004651501908316317
0.9490093551190367,0.002065571608400419,0.002184138987469613
0.9313079980426562,0.0018769718074810652,0.0022334118102891863
