0,1,2,3,4,5,6,7,8,9,10,11,12
0.7948349597597927,0.0049770047737345,0.0,0.0021190692486258,-0.0076568755167871,0.003592411803042,0.0035855665260701,0.019316469374022,-0.0009826286681307,-0.0113967868848809,0.0,0.0,0.0
0.9475548548921634,0.0029963102469089,0.0,0.0022172687959861,-0.0007989192990607,0.0027649537639201,0.0010176545316356,0.0144724724111066,-0.0010959438337271,-0.0316766323463391,0.0,0.0,0.0
0.9432383432382928,0.0038853882925579,0.0,0.0009889432614006,-0.0036257538682282,0.0053878695656365,0.0021389403442175,0.015303328616534,-0.0008688571206633,-0.0203238909242288,0.0,0.0,0.0
0.9469333182016204,0.0040799429893437,0.0,0.0015175097790798,-0.0062940690227202,0.0097614151007003,-8.908856678258026e-06,0.0106372295714727,-0.001272365387317,-0.0361421563031435,0.0,0.0,0.0
0.9470260615669722,0.0073796767210884,0.0,0.0052893186858248,-0.0146100674575065,0.0154222963596066,0.00508430037728,0.0054011979725372,-0.0024407190849499,-0.0356551953410954,0.0,0.0,0.0
0.928011543612568,0.0051766744918386,0.0,-0.0006154991717811,-0.0136603421931871,0.0144594979262244,0.0042561218597466,0.0039645692151693,-0.0014479891306855,-0.0465189843178134,0.0,0.0,0.0
0.9292650573371888,0.0037673746246672,0.0,0.0011734171469323,-0.0166167826229955,0.0116162300875344,0.0001484837265475,0.0029861946228966,-0.0015149380472113,-0.0344195457118838,0.0,0.0,0.0
0.9382773572577632,0.0045457892438152,0.0,0.0012099749029629,-0.0093536352160017,0.0158635042314869,-0.0001291622462441,0.0022535878504048,-0.0018596601660535,-0.030235433606007,0.0,0.0,0.0
0.9452295481734768,0.0026217081583995,0.0,0.0015354738461843,-0.0105848052983233,0.0106941909738881,0.0066970612518634,0.0026005273411817,-0.0020153244042432,-0.0229903456127603,0.0,0.0,0.0
0.9651551826487064,0.0057997348682258,0.0,-0.0008924842389231,-0.0076103070028938,0.0095419209681919,-0.0049492692499037,0.0030650506540943,-0.0022917814376213,-0.0233394228936135,0.0,0.0,0.0
0.9489373585936648,0.005525143129868,0.0,-0.0007798890730864,-0.0042492462180941,0.0128762284375737,0.0021787695734518,0.0030017816382589,-0.0022760718813665,-0.0223481045864923,0.0,0.0,0.0
0.9454812495863708,0.0026725411697369,0.0,0.000909668029161,-0.0101115571232146,0.0105615888205006,0.0081012392692781,0.0023855696552653,-0.0021574045540425,-0.023373049225243,0.0,0.0,0.0
0.9328288405994845,0.0044749167693925,0.0,-0.0015794341689483,-0.0168723561200596,0.0103951832841967,0.0023227218719358,0.00216133513267,-0.0018618691828518,-0.0287657499373009,0.0,0.0,0.0
0.922701743493707,0.0037914976026502,0.0,0.0021427037999113,-0.0125942366332283,0.0130865285748915,0.004444993297662,0.0029402521676277,-0.0014873385803713,-0.0397141260641342,0.0,0.0,0.0
0.9159764511315254,0.0049723001066208,0.0,0.0026878251142457,-0.0165177677723806,0.0193407062447504,0.0098313028343266,0.0039875147336559,-0.0015288954487905,-0.0432779046471403,0.0,0.0,0.0
0.9629648264887454,0.0074869159736591,0.0,0.0023441749336097,-0.0100510145084558,0.0130218756912423,-5.727966720781019e-05,0.0058441506586148,-0.0021341222012675,-0.0352919223295116,0.0,0.0,0.0
0.9449177612939964,0.0040558542640527,0.0,0.0023966270150657,-0.006364726413768,0.0093657893002129,0.0051621337209287,0.01060416506811,-0.0011264542624148,-0.0360002091421748,0.0,0.0,0.0
0.964180745022818,0.0040613443972926,0.0,0.0010450705566027,-0.0013269256987596,0.0034515591434646,-0.0005884201097136,0.0159714332114576,-0.0010027186573023,-0.0191001516739522,0.0,0.0,0.0
0.9582121373876918,0.0030877089417105,0.0,0.0017680912796804,0.0045438882757086,-0.0028429741897789,-0.0022293581597968,0.0152073844860626,-0.0011151512344552,-0.0311782743751749,0.0,0.0,0.0
0.902148750016432,0.0057628820450666,0.0,-0.0002232635360829,-0.0102544044165221,0.0046913404780989,0.0048148162406209,0.023025943972485,-0.000714360365677,-0.011130261349082,0.0,0.0,0.0
