0,1,2,3,4,5,6,7,8,9,10,11,12,13,14,15,16,17
0.9570455989805032,0.004003089431792811,0.0047113881895379135,0.0,0.0,0.0,0.0,0.0,-0.0008515461752576,-0.0055524406593839,0.0088883997880573,-0.0013275925265945,0.0030332591266715,-0.002284017493305,-0.0228404258306154,0.0,0.0,0.0
0.9427457282965064,0.0016148057232138315,0.0,0.001739722353007234,0.0,0.0,0.0,0.0,0.0008467873809486,-0.0100159094467996,0.0099885393457396,0.005740814195797,0.002420338039758,-0.0020225238176242,-0.0248579989184917,0.0,0.0,0.0
0.9248309738716182,0.0021455638886035194,0.0,0.0,0.002114632700724219,0.0,0.0,0.0,0.0014440660995851,-0.0133475045553741,0.0120987725491955,0.0040987821899642,0.0033688602830613,-0.0014949171687966,-0.040404621969168,0.0,0.0,0.0
0.955068252864261,0.005257045596170826,0.0,0.0,0.0,0.004651501908316324,0.0,0.0,0.0038174161939774,-0.0124132969728287,0.0127218966734915,0.0024848678555032,0.0056266776539065,-0.0022852949872456,-0.0355192181744332,0.0,0.0,0.0
0.9490093551190368,0.002065571608400377,0.0,0.0,0.0,0.0,0.0021841389874695753,0.0,0.0015746734606729,-0.0042651311362063,0.0064002821609808,0.00188235012733,0.0125659932419568,-0.0010969514452233,-0.0298967944362827,0.0,0.0,0.0
0.9313079980426562,0.0018769718074810539,0.0,0.0,0.0,0.0,0.0,0.0022334118102891637,0.0017875366149945,0.0018252910319473,0.0015548388100742,0.0004637238547094,0.016302119056252,-0.001039425309005,-0.030203742444285,0.0,0.0,0.0
