0,1,2,3,4,5,6,7,8,9,10,11,12,13,14,15
0.8212589407179477,0.007217623465171269,0.0,-0.0016453776160839,-0.0016453776160839,0.0005732341120208,-0.0029494267764165,-0.0015800980977798,0.0039856507950061,0.0050290014526882,-0.0049681561738684,0.0027827122876443,-0.010056938073674,0.0103058886700027,0.0004822320843185,0.0005968654497392
0.97136638636678,0.004309111811656771,0.0,0.0014326467291191,0.0014326467291191,0.0013028395238395,0.0009981613346082,0.0023765243825311,-0.0056129439280462,0.0031222474228704,-0.0031023040503953,-0.0018670873823548,-0.0065209568674139,0.0067623011252425,-0.0011491007943912,0.0009126443931531
0.9871367488984104,0.0060530712621127665,0.0,-0.0014440274417184,-0.0014440274417184,-4.768632445972809e-05,-0.0046222895065248,0.005968932694891,-0.013571562183099,0.0046916076650035,-0.0046474315656332,-0.003626944350489,-0.0111187775041384,0.0114601816721701,0.0008163828430247,0.0040086338658912
1.0048919377527528,0.005796739790494268,0.0,0.0043783748455257,0.0043783748455257,0.0037612019494945,-0.0061683966193321,0.0077753780633782,-0.0167196188143872,0.0048342396427372,-0.0047881706801959,0.0001925969687028,-0.0143466829020991,0.0145713892491321,0.0030448543194629,0.0121130923187431
0.9838119055458984,0.008376131285385119,0.0,0.0046646175072657,0.0046646175072657,-0.0047177348238265,0.000362357892451,-0.0028433864909911,0.0089843150113896,0.007490214252761,-0.007377871961696,0.0469426557762557,-0.0315528724294731,0.0347268817034396,-0.0152884581135158,-0.011195208905348
1.02592224762351,0.007281076416416112,0.0,0.002396150993484,0.002396150993484,0.0024532468061841,-0.0030273609723603,0.0151552996814277,-0.0242475454562283,0.0064194531170416,-0.0063401097989579,0.0057945674873549,-0.0146575887439059,0.015038916430607,0.0011155770512232,0.0015123058260417
1.0362841451502036,0.006151478506854005,0.0,0.0029190000287582,0.0029190000287582,-0.0001895619691005,-0.006723872845507,0.0127934174895849,-0.0167661612311398,0.0057419250206329,-0.0056789918081392,0.0038164047904363,-0.0110317169261613,0.0100776897651255,-0.023121720311019,-0.0294474067392438
1.009902173472588,0.007601783486695711,0.0,-0.0003379312551299,-0.0003379312551299,0.0013472469180828,-0.0019032099658635,0.0033725511656539,-0.0043919829331018,0.0073966710002593,-0.0072898866120003,0.0044969585194407,-0.0122726231707666,0.0137635630230372,-0.0033359664784393,-0.0093197349626008
0.9766010058001452,0.0041617814231367815,0.0,0.0007120687291004,0.0007120687291004,-0.0017433774360826,0.0008543061645428,-0.0132164334826933,0.0113041026064615,0.0041189751198896,-0.0040845208450384,0.001946455202889,-0.0065419164498076,0.0071907898039066,0.0002602823092973,0.000504584897759
0.9637797400659208,0.009014487279303342,0.0,0.0008141951444056,0.0008141951444056,-0.0036182167618322,0.0037432271470937,-0.0185530671947931,0.0139323566837842,0.0090956769761179,-0.0089271764160553,0.0032537280274284,-0.014229039556172,0.0145420052139917,-0.0102962729337922,-0.0108816693822031
0.9553961471369112,0.008913998452711935,0.0,0.0013645620804569,0.0013645620804569,-0.0020009669441514,0.0023757596889666,-0.0264659780421302,0.0237146307373422,0.0091751205196085,-0.0090022154643045,0.0015515852245359,-0.0143301867622233,0.014642216126841,-0.014653485465932,-0.0109322992217544
0.9708705832441018,0.004182838397422478,0.0,8.482769003748114e-05,8.482769003748114e-05,-0.0024683400390372,0.0021923289075311,-0.0190899662270935,0.0162051417503722,0.0041008206305526,-0.0040664682519978,0.0014630262207459,-0.0067153936236992,0.006798159946688,0.002562743915911,0.0031772954542571
0.9765294029831628,0.007177569624201743,0.0,0.0006758197973273,0.0006758197973273,0.0013236495426134,0.0019890603259565,-0.0039809604461197,0.0044967815772846,0.0067921444645555,-0.0066989567290367,0.0031158939411445,-0.0120791049849463,0.0128519908214681,0.0057853216806961,0.0124045283719584
1.028231767387218,0.006231359303078694,0.0,0.0011506089156405,0.0011506089156405,0.0077453518334735,0.0009117901951638,0.0123205056215829,-0.0166782506268559,0.0058272123210434,-0.0057619043985148,0.0052154799613526,-0.0116263101895779,0.01192520173268,-0.0261972881773866,-0.0315519513288254
1.0212173390405912,0.007323042608981765,0.0,0.007956681160731,0.007956681160731,0.0012818397243365,-0.0043441992664836,0.0095289737627941,-0.0145748942305861,0.0064194877329963,-0.0063397825521933,0.0059446643802612,-0.018520113781693,0.0154386965364199,-0.0027790207226547,0.0048122586609418
1.0380486351090403,0.009230161837077795,0.0,-0.0080242151246734,-0.0080242151246734,0.0056779681002583,-0.0069074837651046,0.0071499221454542,-0.0212946302309171,0.0084214913579832,-0.0082870291715488,0.0248404026057962,-0.0327973942526209,0.0355374210717083,-0.0200009714260811,-0.0120206797431829
1.0331520118630344,0.006135526359794256,0.0,0.0014893257201171,0.0014893257201171,0.0028722092507518,-0.0068142214330095,0.0092830390847118,-0.0189779854065423,0.0051754071438143,-0.005124070744078,0.0001447182615836,-0.0144354214135373,0.0148120765952246,0.0030051782842877,-0.0059659725547267
1.0289286325733515,0.006436683069852726,0.0,-7.693560105126451e-05,-7.693560105126451e-05,0.0031931416467614,-0.0083689642367188,0.0093087098733675,-0.023379859515789,0.0051115023999857,-0.0050612162707133,-0.003094092426642,-0.0121049293053414,0.0111717654559684,-0.0041767338882572,1.6394825361532028e-05
0.9716151625541632,0.004306414223277823,0.0,0.0019793115078434,0.0019793115078434,0.0018372316768709,-0.0020167290868984,0.0029981932324,-0.0069127406713053,0.0031162986110893,-0.00309643597514,0.0006929424340593,-0.0069097387630852,0.0070036508713692,0.0018042253869342,0.0024230705874113
0.918291762282734,0.007856604841209506,0.0,-0.0002038406099533,-0.0002038406099533,0.0022077724135506,0.0012138826458134,0.0037120989462271,-0.0083700984307405,0.0055741732017587,-0.0055073127196407,-0.0025940679651247,-0.0105887451389282,0.0108284020781193,0.0092535798603452,0.0044344432384703
0.8639397175715022,0.003725450181644522,0.0,0.000886836822535,0.000886836822535,-0.00090485614163,0.0017466366662082,-0.0005546350618592,0.002567104757376,0.0025408562403753,-0.0025259982628593,0.002012465889939,-0.004989614995662,0.0050420221321915,0.0020505574559329,-0.0052111787991842
0.9850440122453282,0.0021385615809199347,0.0,-7.452065589508283e-05,-7.452065589508283e-05,-0.0001302477037523,-0.0001619844296719,-0.0003743206403388,0.001092856564765,0.0015411046177221,-0.0015362975325722,-0.0013238452271945,-0.0031026846083545,0.0031200715793998,0.0020390447490783,0.0007661926486756
0.97213607563405,0.002784795837316536,0.0,0.0022663043974467,0.0022663043974467,0.0011540146261106,-0.0017357628156478,0.0010485881420582,-0.0034853656855174,0.0021511819406313,-0.0021417034449997,-0.0042044664249412,-0.0052421463764119,0.0052879264881721,-0.0020305698254559,-0.001394909282639
0.9626423518959528,0.002466803831932753,0.0,0.0012295723478021,0.0012295723478021,0.0003524518989201,0.0028898129943703,-0.0021012236110837,0.0078669505290597,0.0020332164589157,-0.0020246637919001,-0.0012167708719914,-0.0063113223430721,0.0063854474343711,-0.0011998135461744,-0.0004106382278006
0.9590086941620456,0.0033237677790796316,0.0,-0.0002236000060448,-0.0002236000060448,-0.0101377121391581,0.007839575640147,-0.0037481113524758,0.0530722529582685,0.002842618244408,-0.0028258658253725,0.068858834728138,-0.0301806375808869,0.0310922686998127,-0.0167465080625252,-0.0023224901324795
0.9448699224086584,0.002765305737082757,0.0,-0.000686036459677,-0.000686036459677,-0.0028117991036141,0.0040608672687227,-0.0056375600716742,0.0190151324377939,0.0023230039086958,-0.0023116373860541,0.0028224663909438,-0.0057016470474989,0.0058028405433766,-0.0028571201173609,-0.0044130974953879
0.9698330490478192,0.002321672788119548,0.0,0.000322817023826,0.000322817023826,-0.0006103253043031,0.0001822770265743,-0.0022081644788531,0.0060313101477769,0.0021143788940187,-0.0021051996035961,-0.0005729652250672,-0.0042661581392453,0.00447898861747,-0.0014052732995211,-0.0005736315419403
0.9488735216802096,0.0030779638290509503,0.0,-0.0002593987204434,-0.0002593987204434,-0.0018834561736307,0.001460447074237,-0.0055614176597365,0.013090238142687,0.0028573481137365,-0.0028402424380329,0.0040271386453419,-0.0053434749408723,0.0053876821302927,-0.0009705422873346,-0.0008584803682609
0.9745043732090743,0.0017245372231620732,0.0,0.0013554195117142,0.0013554195117142,-0.001654177725599,0.0005279844432322,-0.0038052813921287,0.0072795332086054,0.0016577697778625,-0.0016521487006058,0.0023116062982064,-0.0028829751009734,0.002894978985067,0.0002671274177106,-0.0019022673297045
0.9621751732972575,0.0035091378954400358,0.0,-0.0007243451710394,-0.0007243451710394,-0.0023267494932344,0.0007286432184679,-0.0072714079068555,0.0145034230922618,0.0033403025734146,-0.0033172699992587,0.0053632186510143,-0.0060306744267187,0.0060884507760866,-0.0016019131218301,0.0021550487137289
0.9461547499516584,0.003468252652463539,0.0,-0.0005236075619809,-0.0005236075619809,-0.0035350581862096,0.0043929614250589,-0.0099771403352815,0.0268045992379699,0.0032645571523121,-0.0032421838681611,0.0012306242794,-0.0061697760486485,0.0061721963391209,-0.011549813889356,-0.0107245680355588
0.9652327198621108,0.001724989520468965,0.0,4.748621089512017e-05,4.748621089512017e-05,-0.0017579991153972,0.0013355934125448,-0.0046125820656559,0.0088947112835272,0.0016499213358815,-0.0016442999649127,0.0034964291493152,-0.0028093386004127,0.0028157175497272,-0.0027237335487723,-0.0028582914793102
0.9653042301233296,0.0031687362503171543,0.0,0.0008391320592219,0.0008391320592219,-0.0011771561512892,0.0008807249899429,-0.0016072963113826,0.0042511533662081,0.0030380273780371,-0.0030190242945009,0.0063747057964261,-0.0054206646579105,0.0054761204121059,0.0034805853248495,0.0036246553245002
0.9762506896164828,0.002355579476518923,0.0,0.0016245657054225,0.0016245657054225,-0.0019982736248052,-0.0007030900790061,-0.0010912445443772,0.0026065526410079,0.0021643706901012,-0.0021548161342215,0.0018350259790481,-0.0044019152569868,0.0044308810996507,-0.000507116390309,-0.002318866873375
0.953547296634657,0.0027814939939284013,0.0,0.0002434744881859,0.0002434744881859,-0.0016593178119934,0.0021137624913639,-0.0031046578427277,0.0106164964320161,0.0024087726673774,-0.0023966641560693,0.0063157700822583,-0.0055436413249961,0.0055925181313793,-0.0038738753035655,-0.0100215037523018
1.0424811645182788,0.0038255531874479822,0.0,0.002889892391144,0.002889892391144,0.0022744398193856,-0.0008827583609845,0.0047788953745175,-0.0302931290186254,0.0037032659282933,-0.003677140889239,0.0225081729980136,-0.025497503069465,0.0262731953776962,0.0021892043336824,-0.0055141456265013
0.96447909752571,0.0024505195382914066,0.0,0.0011848546696567,0.0011848546696567,-0.0010261277627977,0.0005893840288259,-0.0017993291561529,0.0073982591055102,0.002039637268004,-0.0020310469335338,-0.0007750616374448,-0.0062341860760576,0.0063217542542304,-0.0067176939535643,-0.0038429987694613
0.992480020633033,0.002853489989233251,0.0,0.0011709508090047,0.0011709508090047,-0.0006790452737172,-0.0017613384824266,0.0004935885393949,-0.0016317130498649,0.0022214482464366,-0.0022115481182983,-0.003031381209874,-0.0055556129555398,0.0056055098324115,0.0017779975056088,-0.0014292518403413
0.9821320374001958,0.0020883736634103468,0.0,0.0012534593495333,0.0012534593495333,-0.0010555809440926,-4.9484034726265946e-05,8.568660965968533e-05,-0.0001504918328644,0.0015072517132754,-0.0015026395918643,0.0021966833252962,-0.0032439587930742,0.0032626811549834,-0.0012619305761173,-0.0013618290721113
0.8927221043988353,0.003715401279133071,0.0,-0.0003068031043199,-0.0003068031043199,0.0004474123444584,0.0029425333406578,-0.0011382486385029,0.004605180865865,0.0025908342077738,-0.0025758828909498,0.0091059165482292,-0.0052304316941341,0.0052916086754,0.0027114174694155,-0.0014579251681264
0.8431523035992825,0.0021851894788079917,0.0,-0.0009417919866051,-0.0009417919866051,0.0006228568621469,0.0032040755252895,-0.0010240248347195,0.0070903386889085,0.0011567114167138,-0.0011535463415136,-0.0042601860786347,-0.0026625263994222,0.002674889563043,0.0009044302128596,0.0026111438866898
0.9804393792269832,0.001148817640685724,0.0,-0.0003167938256424,-0.0003167938256424,-0.0008213139644169,-0.0008960661255865,0.0001557776225959,-0.0005680357582471,0.0007316513849153,-0.0007305610248241,-0.0014464232497317,-0.0015276757364287,0.0015246827845543,-7.127745396551255e-05,0.0004223457302019
0.9664201593797076,0.0014667931293016428,0.0,5.363784494483159e-05,5.363784494483159e-05,-0.0005579322642879,0.0009653678921087,-0.0007602595899753,0.0053466556299962,0.0009851566820302,-0.0009831522556846,-0.0004535273131416,-0.002294396910353,0.0023025663661273,-1.0273416650719015e-07,-0.000541300880876
0.9464857864599456,0.0012119380035013085,0.0,0.0001173231305092,0.0001173231305092,-0.0025377144832977,0.0036809639617444,-0.0024153621782612,0.0165300356038377,0.0008880654910181,-0.000886402110254,-0.0007759839537857,-0.0023714720171725,0.0023804592793909,0.0008735451461101,2.459566263601776e-05
0.9650490850926264,0.0016964805004072707,0.0,0.0004221598168854,0.0004221598168854,-0.0079834872989078,0.0101902006286925,-0.0016459126834683,0.0313736725828605,0.0011901709858468,-0.0011872425924446,0.0200351093616469,-0.0063751207196204,0.0064265826410789,0.0003087073736665,0.0067684475126755
0.9523959082284366,0.0013256302440079843,0.0,-3.1088466880158094e-05,-3.1088466880158094e-05,-0.0012179428372895,0.0014335318286755,-0.0008325418282395,0.0064773708320707,0.0010041604575987,-0.0010020474363154,0.0010180497991414,-0.0025655377516617,0.002572285868241,-0.0010296570153712,-0.0037447848338743
0.9648627021860176,0.0010350625148680158,0.0,-0.0003151850838633,-0.0003151850838633,-0.0014222897788792,0.0010700169161536,-0.0013238156860252,0.0080371979865949,0.0008065522175456,-0.000805206034899,-0.0001958564650298,-0.0019274559318094,0.0019323939028466,-0.0012555079040917,-0.0015408060604595
0.9591728095876833,0.001348685302837784,0.0,-0.0002204454485964,-0.0002204454485964,-0.0010688440247018,0.001791661246759,-0.0013594429403573,0.0074627568253695,0.0010808695999714,-0.0010784390640181,0.0001752635061469,-0.0023753609878236,0.002383763190731,-0.0040418720791565,-0.0037763742555135
0.9760218915869352,0.0007778682416097125,0.0,-4.240139333422377e-06,-4.240139333422377e-06,-0.000650382343507,0.0008686583543772,-0.0010309052349999,0.0044277476009926,0.0006679335096754,-0.0006670205682893,0.0025074491005722,-0.0013913848641464,0.0013935338147076,-0.0013673887424121,-0.0012182993855476
0.9773750505288232,0.001675243346797566,0.0,-0.0001256876429278,-0.0001256876429278,-0.0017062916593084,-0.0003314215216447,-0.0010699530606086,0.004533920863747,0.0014419934439975,-0.0014377510039623,0.0025522218750041,-0.0029301780419643,0.0029440990650664,0.0014941391706555,0.0017489256196964
0.9642968781110762,0.0016663094428661896,0.0,-0.0009266521725862,-0.0009266521725862,-0.0028780403283024,0.0020237599848815,-0.0013817574422009,0.0089729704345472,0.0013483946937333,-0.0013446342383939,0.0017333004059275,-0.0033761870287218,0.0033709370516792,-0.0036329282100658,-0.0043459441754261
0.976291782097118,0.0007818981726810233,0.0,-0.0004297326652736,-0.0004297326652736,-0.0010453323348963,0.0009011678622793,-0.0013490499087496,0.0058887045004781,0.0006756640299709,-0.0006747301065861,0.0029060277777483,-0.0014038700383852,0.0014079500098165,-0.0020426491541998,-0.002315611775017
0.9669724796576612,0.0013603158645057096,0.0,0.0002721767439312,0.0002721767439312,-0.0008794429955193,0.0005174629927038,-0.0009778713335414,0.0042546124862899,0.0011438007810903,-0.0011411012368666,0.0022478885049569,-0.00242778515174,0.0024359782150434,-0.0012594177450172,-0.0031795760435678
0.9614874158628832,0.0010379146767632954,0.0,-0.0005103170023813,-0.0005103170023813,-0.0014741997409529,0.0015047338725249,-0.0013933754137126,0.0085293701682874,0.0008095433946546,-0.0008081824641532,0.000794159821212,-0.0019096488758484,0.0019166890306551,-0.0007156909918998,-0.0027546969773254
0.9587476716214984,0.0013381808878250674,0.0,-0.0006379862511014,-0.0006379862511014,-0.0013131547846721,0.0014352300795756,-0.0015853964327894,0.0101066709577449,0.001018119071404,-0.001015961319941,0.0019861446157231,-0.0026670423064396,0.0026688116971683,0.0024900791806545,0.0017521628993426
0.9681911209075174,0.0017298647701099313,0.0,-0.002166310561116,-0.002166310561116,-0.0113446002378123,0.0085510077429431,-0.0014509273959715,0.0310194738763885,0.0012067882774825,-0.0012037873895811,0.0192233219459631,-0.0065876438361186,0.0066916463304471,0.0030639092135242,0.0074016633465096
0.9593379387363848,0.0012168929732611889,0.0,-0.0004356384344751,-0.0004356384344751,-0.001257642867289,0.0021255037569969,-0.0014650452431682,0.0094686227395913,0.0008874497470879,-0.0008858108821757,-0.003481572078357,-0.0023445983886621,0.00234902357199,0.002715268392097,0.0029840593900123
0.9776622418279858,0.0014792281987220186,0.0,0.000680248761352,0.000680248761352,-0.0004806837798237,0.000732123668257,-0.0007925884914468,0.0050953095737409,0.0009817511441015,-0.0009797833817909,-0.0022144280481333,-0.0022479449242805,0.0022559302876268,-0.0008521895972636,-0.0009641422393456
0.9828444498244168,0.0011424033280602018,0.0,-0.0003528211565066,-0.0003528211565066,-0.0005529113674724,0.0010160144183002,-0.0006390170709068,0.004136431940297,0.0007312378201214,-0.0007301513526065,-0.0001931710288373,-0.0015502301517897,0.0015527425490123,0.0006545034142008,0.0008262506730004
0.883470530596701,0.0022188384141127917,0.0,-0.0010244190798839,-0.0010244190798839,-0.0006076169900062,0.0029225813496459,-0.001571315151389,0.0093972738206289,0.0012271094650257,-0.0012237100845704,0.0038714112012488,-0.0028367106275402,0.0028699971019459,0.0015419142539898,0.0009126474867926
0.8521952328168648,0.0016792101629335284,0.0,6.234113480674264e-05,6.234113480674264e-05,-0.0004974708522507,0.0012096014070709,-0.0003540194590585,0.0030910146077964,0.0006914763066134,-0.0006903559886607,-0.0007641326626429,-0.0019483064831542,0.0019541787411793,-0.0010717727285491,3.916132241377213e-06
0.9981630356525176,0.0007685486192625808,0.0,9.423652907825096e-05,9.423652907825096e-05,-0.0001705707694519,2.624169579068525e-05,-0.0001723323763217,0.0012474654650702,0.0004134956952994,-0.0004131533922026,-0.0013263807895098,-0.0009840047397435,0.000976507555866,0.0001839835670217,2.263951096204142e-05
1.002558302092391,0.0009349140756106938,0.0,-2.0389694350031465e-05,-2.0389694350031465e-05,-0.0001670399350901,-0.000756154136329,4.06183854877451e-05,0.0010794268408518,0.0005587977393128,-0.0005581755167123,-0.001108030191091,-0.0013284807105466,0.0013253250386078,-0.000408082185104,-1.6451260347549734e-05
0.9609119579434467,0.0007272911652035877,0.0,0.0001652778929968,0.0001652778929968,-4.2600274539728034e-05,0.0021219430717746,-0.0005685781884893,0.005384781345991,0.0004651837719271,-0.0004647338105644,-0.0016775952381938,-0.0012449535695702,0.0012484385617683,0.0015113248986933,0.0012642004275508
0.9954417555543816,0.0009684472546361995,0.0,0.0004633640013838,0.0004633640013838,-0.000443521062963,0.0032537451476734,-0.0004037696189395,0.0035044539845358,0.0007011464367782,-0.0007001601113313,-0.0009456753587401,-0.002150210530518,0.0021640521259834,0.0006749246458263,0.0013970541827121
0.9741483179674922,0.000735933257016196,0.0,0.000397159159877,0.000397159159877,-0.000222291611214,0.000677127038053,-0.0003364448895114,0.0032199191692205,0.0004899727433613,-0.0004894803501077,-0.0002103107684354,-0.0012456631314943,0.00124272218066,0.0010041544450239,0.0009767032292151
0.9931789755936988,0.0005404683497744004,0.0,-1.6666404950460567e-05,-1.6666404950460567e-05,-0.000257573353642,-5.972820510569132e-05,-0.000123975369729,0.0013323045393264,0.0003738947703632,-0.0003736134673451,-4.587393030230924e-05,-0.0008880302325768,0.0008791971055476,-9.163211187435127e-05,-0.0007093367078774
0.976513386350328,0.0006493193111575912,0.0,0.0002077854230466,0.0002077854230466,-2.318755646268933e-05,0.0007674519558804,-9.90680953408818e-05,0.0013016847514978,0.0004469768860856,-0.0004465680732427,0.0008561039771081,-0.0010279982592381,0.0010304556236254,0.0001655721080416,-0.0002504796885299
0.990994266815673,0.0004013914706166821,0.0,0.0001397196984841,0.0001397196984841,-0.0003807015491976,-1.06058284969901e-05,-0.0002214736761215,0.0016574981185694,0.0002998702122641,-0.0002996888433905,0.0007785965689223,-0.0006844469170368,0.0006845598517745,0.0003273032198274,5.746539147644114e-05
0.982636591650132,0.0009612363704241502,0.0,0.0002887069060762,0.0002887069060762,-0.0005705810859846,-0.0005836897436989,-5.235729506825049e-05,-9.907854985036212e-05,0.0006866927996468,-0.0006857343805007,0.0016537464605548,-0.0017117318363352,0.001715328811655,0.0043548835930636,0.0040997131672284
0.9842226751695528,0.0010076022135212083,0.0,0.0001909474873279,0.0001909474873279,-0.0007481426431862,5.5640193641792735e-05,-9.224120306483564e-05,0.0011518408034442,0.000681508291673,-0.0006805657991926,0.0006484332619337,-0.0018584983681382,0.0018622250189821,0.0008435069205461,0.0013226496273556
0.9882817772797317,0.0003994293252271826,0.0,3.473828332756224e-05,3.473828332756224e-05,-0.00042557542839,-2.6555758874891037e-05,-0.0001990992177181,0.0014307974604479,0.0002948357974327,-0.0002946599845954,0.0007766874287833,-0.0006757846192136,0.0006758565750412,0.000585914326632,0.0001080007537294
0.9770451335711868,0.0006450301965772085,0.0,8.673075752974047e-05,8.673075752974047e-05,-0.0005333764905406,0.0003315558516954,-0.000287598291737,0.002375670485369,0.000452685297299,-0.0004522662086486,0.0009783197277096,-0.0010404693748317,0.0010343566420635,0.0006178451869075,0.0003509461318346
0.9912523715878266,0.0005386263888690821,0.0,-0.0001790938105183,-0.0001790938105183,-0.0001145305405957,0.0002243520468629,-9.055220140774534e-05,0.00102175616372,0.0003662909695496,-0.0003660204632806,0.000515634664963,-0.0008772647502486,0.0008784657660185,-0.0005783832752848,-0.0009150131685888
0.9736302145875936,0.0007421126482954111,0.0,9.284317480118263e-05,9.284317480118263e-05,-0.0006903932812232,0.0008102573788759,-0.0002462096138275,0.0038821740079032,0.0004884617766296,-0.0004879721538922,-3.829731868854047e-05,-0.0012494323287406,0.0012515680405055,-0.0003532767279399,-0.001535902318247
1.014854428048389,0.0009983649500536912,0.0,0.000768925620926,0.000768925620926,-0.0014078930671241,0.0022254007578412,-0.00065260229772,0.0074518292894765,0.0007326881139921,-0.0007316316908658,-8.813464440726726e-05,-0.0023320750080162,0.0023220664893217,-0.0010658497877455,-0.0007636286687842
0.9796070669102394,0.0007263013737357829,0.0,0.0005420331483479,0.0005420331483479,-8.962272699153395e-05,0.0006484077796866,-0.0001344890624667,0.0022044636277259,0.0004955863065069,-0.0004950853759988,-0.0014397141843048,-0.0012464075106323,0.0012479390422805,8.120010385870291e-05,9.538351387505806e-06
1.0120982387994977,0.0009487003558985941,0.0,-0.0002868273179494,-0.0002868273179494,-0.0006487862849045,-6.417248768997297e-05,-0.0001956167235868,0.0015497169708307,0.0005805500117568,-0.0005798847559763,-0.0006905650737754,-0.0013310430124839,0.0013339488606665,0.0001099955538388,-0.0006306924130803
1.000308008179341,0.0007663925009061096,0.0,-0.0001970437724287,-0.0001970437724287,-0.0001481988472762,0.0006777873903283,-0.0001201974250808,0.0013586818970741,0.0004099365035699,-0.0004096007863451,-0.0001905714583971,-0.00099333129383,0.0009981598418045,7.167591312717825e-05,-0.000764040264841
0.8900802310106765,0.0016482110717780207,0.0,0.0002949714464619,0.0002949714464619,-0.0005474003009133,0.0021208856375062,-0.0002140429173419,0.003239322026376,0.0007122140641931,-0.0007110761029541,0.0022224480211542,-0.0019866635106012,0.0019961635556492,0.0016021875893124,-0.0010775520089548
0.8468047584769469,0.001330884843273329,0.0,0.0003808903841945,0.0003808903841945,-0.000307304278951,0.0010529391076202,-0.000133475592752,0.0010559125397633,0.0004310651975423,-0.0004306267771984,-0.000557344447353,-0.0014827124663325,0.001493264985418,0.0005169900310239,0.0010681575372929
0.9916779225266718,0.0005645057676541373,0.0,-9.871197049937663e-05,-9.871197049937663e-05,-0.0001410904146964,0.0002070499250254,-5.273928553151119e-05,0.0009334712511174,0.0002494418151244,-0.0002493163914725,-0.0005646784658803,-0.0006826013101114,0.000684542219395,-0.0006761987567055,-0.0016073920915525
1.0031206901182197,0.0006454217942632057,0.0,0.0002004559451656,0.0002004559451656,5.741009549864451e-05,-0.0002804543841177,-9.376610873812474e-05,0.0009301819243603,0.0003308815431868,-0.0003306634031006,-0.0003405066164596,-0.0008012866929221,0.000823090408679,-0.0005535780442769,-0.0002623312590195
0.9644241286032854,0.0004744311964858737,0.0,0.0001355911808774,0.0001355911808774,0.0002243587190267,0.0009664231282181,-7.258910491314552e-05,0.0011135396680347,0.0002417632124777,-0.0002416420621261,-0.0001061077421631,-0.0006867819720516,0.0006870645508445,0.0007327956803664,0.0010832370547134
0.9893182691323668,0.000615929549063521,0.0,0.0002769551367941,0.0002769551367941,-0.0005673786546105,-0.0001673679288367,-0.0001521236424311,0.0019021384065488,0.0003597945479242,-0.0003595330384966,0.000670546984312,-0.0010388669173551,0.0010307375853499,0.0001984857909708,-0.0007369857906013
0.970785022125641,0.0004341848762620112,0.0,0.0001405526236626,0.0001405526236626,-0.0002919523129086,0.0002311739989526,-0.0001079568327142,0.0014063108712489,0.0002315805728565,-0.000231470138546,-0.00012246293569,-0.0005827118365243,0.0005945714515599,2.7709358456751158e-05,0.0001628347249258
0.9928116933959248,0.00032487618316863514,0.0,0.0001602668352594,0.0001602668352594,-0.0001027419272735,7.079987789360143e-05,-5.200642125857691e-05,0.0008029300842039,0.0001750720709505,-0.0001750103484218,-0.0001023977872721,-0.0004324216674255,0.000436515684649,-0.0002082076304739,-0.000840548125485
0.981311503450468,0.0004108840328879972,0.0,0.0001942641466635,0.0001942641466635,-0.000162348078198,0.000377839252208,-0.0001549314178898,0.0013758411644707,0.0002218911395137,-0.0002217908381891,0.0003420031343051,-0.0005489437167374,0.0005619904127892,-0.0002030897863946,-0.0006369403740018
0.9924220179103757,0.0002505326101818865,0.0,-5.7533641398821445e-06,-5.7533641398821445e-06,-0.0001556841558598,-0.0001171161602721,5.732333102637099e-07,0.0003594729176975,0.0001492845881316,-0.0001492396895198,0.0001981599861349,-0.0003591057461035,0.0003589691686646,0.0001083481633368,7.443917431237956e-06
0.9843030153124764,0.0006247037624253813,0.0,3.3570863128939976e-05,3.3570863128939976e-05,-0.0003884196130061,-0.0001766741300026,-4.4397477204860536e-05,0.0011045156122431,0.0003316722390926,-0.0003314488680645,0.000197918545468,-0.0008897349388303,0.0008925845307352,0.0021713335932684,0.0018049979860886
0.9851872940126736,0.0006519596196029952,0.0,0.00037655543879,0.00037655543879,-9.167411151334016e-05,-0.0001872721840704,1.0296584825875144e-05,-0.0003628129746109,0.0003285189664187,-0.0003283000176296,0.0002217171160262,-0.0009355404346422,0.0009360425823536,0.0007009418470587,0.0005838689538955
0.9916025224115412,0.0002488365417750874,0.0,1.2627673216858426e-05,1.2627673216858426e-05,-0.0001379628661551,-2.797987762814813e-05,-0.00013204054739,0.0011946775135597,0.0001482068549235,-0.0001481625655893,0.0001703569364026,-0.0003512600273901,0.0003639528071766,7.939756317620894e-05,-4.1332540865246514e-05
0.9803959351624688,0.00040811578603639295,0.0,2.2202810911586823e-05,2.2202810911586823e-05,-4.637656872286122e-05,0.0006830935507576,-4.3862832421748266e-07,0.0006103189445989,0.0002272934817046,-0.0002271881398087,0.0002369908810857,-0.0005438191972778,0.0005385535001721,0.0003583607539331,0.0002888128564372
0.9933526672086752,0.00032495683361840716,0.0,-2.085434914578244e-05,-2.085434914578244e-05,-6.60233248923614e-05,0.0003746363735203,-9.43157970826336e-05,0.001017255750045,0.0001791696479087,-0.0001791050380522,-7.437181410052673e-05,-0.0004341475695952,0.0004380049905395,-0.0003286349448444,-0.0006006938513507
0.9733721478598922,0.0004413086364246098,0.0,0.0002591466768395,0.0002591466768395,-0.0004952565372169,0.0001914876968376,-0.0001661232316558,0.0012340858265061,0.0002310113635688,-0.0002309017632863,0.0001521952373386,-0.0006068991424396,0.0005941170837542,0.0008002768246379,0.0006573244588674
1.0066404419916786,0.0006134375144627044,0.0,-0.0001906019634989,-0.0001906019634989,5.8253899023474887e-05,-4.374954915542517e-05,1.596399145653571e-05,0.0002806907313774,0.0003864431847522,-0.0003861467059769,-4.172619650111287e-05,-0.0010668276129497,0.001068428621112,-0.0005878002315808,-0.0011928263264506
0.9745231581929124,0.00046553343387031014,0.0,8.54843755940804e-05,8.54843755940804e-05,-0.0004803485817667,0.0004343860672844,-0.0001014628963076,0.0019860448899736,0.0002481201532087,-0.0002479938713926,-0.0002759264186068,-0.0006722285156506,0.0006691064986827,0.000309348271136,0.0008066226785105
1.013017813303416,0.0006461040077427323,0.0,0.000140363465888,0.000140363465888,-0.0004659404562095,-0.0005166826735123,-9.27440111375688e-06,0.0008202987604177,0.0003249258482964,-0.0003247175417466,-0.0002234373693459,-0.0008217494614424,0.000823546548182,-0.0001327942249413,-0.0003225816627669
0.995972743426441,0.0005618198998771786,0.0,0.0001566183998815,0.0001566183998815,-0.0003044091732887,0.0002518984137164,-0.00017362400398,0.0015014118903627,0.0002473318515174,-0.000247209071697,-0.0004266630523143,-0.0006959023895982,0.0006863902241354,-0.0005627042231511,-0.0005965735342862
0.8893273796530854,0.0012790530576484024,0.0,0.0003160939698361,0.0003160939698361,0.0007649166012734,0.0009307784475329,-0.0001002578255117,0.0012219506542137,0.0004412802179114,-0.0004408427295801,0.0007328026271384,-0.0014884757902637,0.0014828045713904,0.001317435315901,0.0014231225955821
0.8224547249373342,0.0012074527932853362,0.0,-3.4237619048305135e-05,-3.4237619048305135e-05,-5.56371998401417e-05,-0.0003429223092757,-2.0995521833100383e-05,0.0006158695766264,0.0003165430455016,-0.0003162995733027,0.0002061488052383,-0.0011551334655278,0.0011576344428251,-4.413926681923197e-05,-0.0011421400828968
0.9764853264585464,0.00045207674507129637,0.0,5.9098432669935086e-05,5.9098432669935086e-05,0.0002081172399321,0.0001474443007744,-4.366893276064321e-05,-1.893255783225189e-05,0.000157010527007,-0.0001569600513271,-4.175760453284383e-05,-0.0004936113965126,0.0004974577446635,-1.0764348896019628e-05,-0.0003157201437018
0.9884249371703848,0.0004944151321232888,0.0,7.462906909505573e-05,7.462906909505573e-05,9.080868625388485e-06,0.000170344480272,-1.713817590454081e-05,-0.0001282456741507,0.000194672181237,-0.000194595529314,2.0455186921397583e-05,-0.0005645112714364,0.0005612405607134,0.0002501415865725,5.887756863376392e-05
0.9694567620729928,0.0003665485358365761,0.0,-2.759549574049558e-05,-2.759549574049558e-05,-3.668083141794565e-05,0.000177275542853,-6.425335612025851e-05,0.0009580975932969,0.0001544297002268,-0.0001543805161112,7.180950122176455e-05,-0.0004559310514617,0.0004390022428165,-0.0001021668961186,-3.6122225266610464e-05
0.9775591043312962,0.0005554405274828086,0.0,0.0002143260783398,0.0002143260783398,-4.920263303964667e-05,0.0003582911190014,-5.677111364010834e-05,0.0013004701509158,0.0002486740158869,-0.0002485475635413,0.000833959555983,-0.0007864578247559,0.0007776216490548,0.0002053063331923,-0.0005906769460369
0.968301437830761,0.00034091877941429624,0.0,-2.564656260140019e-05,-2.564656260140019e-05,-9.066398742840764e-05,8.521858394883175e-05,-7.005685717598187e-05,0.000568624312573,0.0001421025345933,-0.0001420608384758,-6.394561348876948e-06,-0.0004108324335192,0.0004014132170742,0.00024571148213,-0.0002127688816416
1.0014144169581587,0.0002497956785255156,0.0,4.278878723318336e-05,4.278878723318336e-05,-7.113572162742443e-05,8.081520111979934e-05,-2.348209431191073e-05,0.0003866039652649,0.000113893667422,-0.000113867766422,7.395115843245037e-05,-0.000305805273489,0.0003012802148705,-0.0002239410008904,-0.0004841548916747
0.9831670036129518,0.0003255509823634215,0.0,-6.859625134580939e-08,-6.859625134580939e-08,-7.114193866930574e-05,1.984659788611953e-05,9.063492062311164e-06,6.70761139438536e-05,0.0001502999911071,-0.0001502540514398,2.546975890693748e-05,-0.0003879492984751,0.0003938161247977,-9.926076110089443e-05,-0.0003015136481842
0.9912249976600764,0.00018321374351938462,0.0,5.958310497256036e-05,5.958310497256036e-05,1.1455220921385845e-05,9.639113837867086e-05,-4.006281798529798e-06,0.0001817205609461,8.787773882568128e-05,-8.786215986456014e-05,0.0001055995360791,-0.0002192453948275,0.0002262771314913,0.0001388553799115,6.812683959400712e-05
0.9853779126084216,0.0004444977340823899,0.0,0.0002095800740635,0.0002095800740635,3.446016991470735e-05,-0.0001939161475577,-4.043962965505354e-05,0.0005945095430734,0.0001876291929708,-0.0001875577659341,0.0001267511793211,-0.0005423763769042,0.000535332069475,0.0004558641600378,0.000509171462764
0.987059551014122,0.0004695094709597838,0.0,-2.25774717936833e-05,-2.25774717936833e-05,-0.0002129506317292,-0.0004002828557936,-3.617031263902781e-05,-0.0002506411159095,0.0001882995981883,-0.0001882277824283,0.0001960256220228,-0.0005803955177824,0.0005841948134868,0.0004210597934852,0.0005196948158481
0.9900183227948834,0.0001825344201679074,0.0,-3.515159157152503e-05,-3.515159157152503e-05,-2.981132869850356e-05,-8.931146744739493e-05,-2.6545262261090663e-05,0.0001205340192811,8.874417209159269e-05,-8.87282650801069e-05,0.0001329633100696,-0.0002207113603729,0.0002160341804195,-8.839543910998948e-05,-0.0002503550609551
0.9816387304380252,0.0003164750335122969,0.0,2.0524211782890767e-05,2.0524211782890767e-05,-6.152863751252013e-05,-5.255268741011232e-05,-4.4605033270861405e-05,0.0005101897654449,0.0001454263036232,-0.0001453832276019,0.0001759451039508,-0.0003799627792163,0.0003709326312254,-2.01611152681469e-05,-0.0001851604098871
0.9970247778576816,0.0002502727640013176,0.0,-2.1740723312291262e-05,-2.1740723312291262e-05,-6.362470047782676e-05,7.104632970056368e-05,-8.002908348736515e-05,0.0007452662524108,0.0001133255868902,-0.0001132998307205,7.400271248969581e-05,-0.0003011784426476,0.0003071302035192,-0.0001605500286405,-0.0003817725722036
0.9694765204166008,0.00034080969096028576,0.0,0.0001338598870752,0.0001338598870752,-9.896661032371412e-05,0.0002863079735543,5.4134794003068976e-06,0.0002237432681168,0.0001386383290905,-0.0001385986889542,4.379169283019735e-05,-0.0004021412858166,0.0004011254305154,0.0001490436430332,6.506383935611648e-05
0.9938829864154752,0.0005551103423352385,0.0,5.80175605937594e-05,5.80175605937594e-05,-0.0001352919676393,0.0003227616669078,-0.0001181008023874,0.0009274692832591,0.0002409293680312,-0.0002408126161959,0.0007676243240057,-0.0007940500297795,0.0007767739147217,-0.0004708731692031,-0.0005274437980011
0.9773062404473946,0.0003570732141779057,0.0,0.0001092103102529,0.0001092103102529,9.41229496576046e-06,-9.146982105523448e-05,-0.0001258744154015,0.0009718965071373,0.00015948379363,-0.0001594317592097,6.399276217394778e-05,-0.0004361134740038,0.0004470952264429,-0.0004754089379592,-0.0008819990249294
0.9994961265022454,0.0004934400037049031,0.0,-1.0828892213154973e-05,-1.0828892213154973e-05,-0.0002847177403307,0.0001039701341745,-7.842426778881251e-05,0.0002421016609155,0.0001963741491542,-0.0001962970149694,0.0001335481651471,-0.0005624369980757,0.0005545761439463,2.982619403169018e-05,-0.0002082063650116
0.978590413942409,0.0004491634186415411,0.0,3.0144129290143876e-05,3.0144129290143876e-05,-5.194099892413817e-05,8.964937439137621e-05,-5.675743871302874e-05,0.0002246514498955,0.0001568670898036,-0.0001568168146386,5.910960079158478e-05,-0.0004976167879916,0.0004953544297164,-0.000319772908551,-0.0002269546020982
0.8688106617538935,0.001147154119052144,0.0,-5.712836827431733e-05,-5.712836827431733e-05,3.334885606598448e-05,0.0004530740169681,1.883623205689577e-05,-5.128250401131851e-05,0.0002974222566168,-0.0002972187612443,0.0012966865501796,-0.0011686744675423,0.0011794805685994,2.2973247490898352e-05,7.680236695684073e-05
0.8173506747970494,0.0014189047815759178,0.0,-0.000407769348368,-0.000407769348368,-0.0005105292095629,7.68165955411515e-05,-0.0001956113903096,0.0009400742901249,0.0003422424348596,-0.0003419560660337,0.0016284837200923,-0.0014273645541157,0.0014342490004303,-0.0011635611853921,-0.0014614767071706
0.9674033894997676,0.000532917411456231,0.0,1.9541399425171413e-05,1.9541399425171413e-05,0.0002081865717541,0.0003704759274317,2.9614288957535703e-05,-0.0003808013853878,0.0001743145300657,-0.0001742517339059,1.345317631507026e-05,-0.0005914556616866,0.0005920719575847,0.0001896311623393,6.234590796039274e-05
0.98439180637961,0.0005780884725709076,0.0,-0.0001523964982002,-0.0001523964982002,-0.000196522637949,-0.0004707945953187,-2.479512604458556e-06,0.0004375109988909,0.0002243275309569,-0.0002242253360468,4.960589967717421e-05,-0.0006878208296486,0.0006936119318773,-1.6158997114379403e-05,-0.0004264948904277
0.9789463447957756,0.0004084752701799148,0.0,0.000229125819895,0.000229125819895,0.0001117210495814,-0.000217176577494,-0.0001347393407908,0.0002868817460991,0.0001765790229489,-0.00017651534447,-0.0001488555632942,-0.0005502350247243,0.0005642448908484,-1.341998919068832e-05,-0.0002339707365413
0.9832017760642556,0.0006046682631505289,0.0,-0.0002584429551361,-0.0002584429551361,-0.0004285123194881,0.0003118665224833,-0.0002039893224549,0.0016506425804621,0.0002892166574884,-0.0002890466067514,0.0005932266048798,-0.0009016838947706,0.0009017698234716,-0.0007357365361412,-0.0011012748428953
0.9712281526860066,0.00042138183554202134,0.0,7.809508567246937e-05,7.809508567246937e-05,5.68274748853348e-05,-0.0001018912129926,-6.5386325662109e-05,0.0009542110605655,0.0001699862342133,-0.0001699267523941,7.360313300508459e-05,-0.0005297816490675,0.0005195953816812,-0.0008494880308275,-0.0006778417488274
1.0000126916836596,0.0003033949428633169,0.0,8.090159304252609e-06,8.090159304252609e-06,-6.405147994215099e-07,0.0001288690450564,6.602560873503194e-05,-0.0005014092103514,0.0001345931053287,-0.0001345568849302,4.8671436538860746e-05,-0.0003725553167662,0.0003732733192867,-0.0001583798287762,-0.0001813016124622
0.9821325271188792,0.00037742525807047983,0.0,2.9641304633010183e-08,2.9641304633010183e-08,-0.0001688900080351,0.0002302381923633,1.138529928979004e-05,-2.6042493352917973e-05,0.0001674844759581,-0.0001674273726957,-1.885755459840599e-05,-0.0004433615306573,0.0004432805096732,0.000169969163085,0.0001044642904795
0.992953808234734,0.00021844012626300822,0.0,1.3777549001670051e-05,1.3777549001670051e-05,9.5887125042049e-05,-0.0001480064178235,-5.271857109034883e-05,0.0002747236201187,0.0001011637892167,-0.0001011431799453,3.687504873806091e-05,-0.0002565985955277,0.0002562159671211,0.0001035813601458,-0.0001510499261893
0.9881613873650176,0.0005272981221785128,0.0,-1.5718702309208687e-05,-1.5718702309208687e-05,-8.612258502727066e-05,-0.0001036381256154,-9.671329143101648e-05,0.0001299223752547,0.0002256099584504,-0.000225506986158,0.0002782823601954,-0.0006422815908606,0.000650271763528,9.217032842845365e-06,-0.0004679073728283
0.9900580469720538,0.0005571309918705017,0.0,-2.1629255624877608e-05,-2.1629255624877608e-05,-0.0001158738546921,0.0005099677336045,-4.160659335739059e-05,0.0001564419799745,0.0002286719444377,-0.0002285663613065,0.0003274356681675,-0.0007180116396627,0.0007194906874707,-0.0006805945180737,-0.0005368689650154
0.99245870472974,0.00021679171494451392,0.0,6.010812163859125e-05,6.010812163859125e-05,-7.820382387346836e-05,0.000123274221664,-6.458353827443197e-05,0.0004536095161777,0.000103143685031,-0.0001031222505698,0.0001344952274033,-0.0002697563322358,0.0002554932272552,-0.0006310172530492,-0.0006363161071677
0.9817575900857752,0.00036785155940497675,0.0,-8.873289347588464e-05,-8.873289347588464e-05,-0.0002118066165739,6.131473217085848e-05,-6.978784504552138e-05,0.0006612749696419,0.0001638471252303,-0.0001637924540508,9.66054395701299e-05,-0.000433690679146,0.0004348047110376,-0.000415814765402,-0.0004086532872283
0.9968881757054115,0.00030468641405109997,0.0,-3.821307458373724e-05,-3.821307458373724e-05,-0.000160864569341,7.1218133873562905e-06,-3.455428917398251e-05,0.0002015414830738,0.0001326018978816,-0.0001325666309637,0.0001806770934075,-0.0003755140410286,0.000377025585542,-0.0002988003503351,-0.0003731840684144
0.973803156131202,0.0004231401613154458,0.0,1.8219570492750137e-05,1.8219570492750137e-05,-0.0001266739828501,-5.632743839245613e-05,-9.610560820427771e-05,0.0005546049319824,0.0001748000309401,-0.0001747372994013,0.0002684718533492,-0.0005346138160947,0.0005356154428164,-0.0003972826786088,-0.00071035746854
0.9903935654921274,0.0005862985449433919,0.0,3.953362663011717e-05,3.953362663011717e-05,-0.000101187070635,-5.1678307132374535e-05,4.60453266315497e-06,0.0010627065572405,0.0002774126025761,-0.0002772572811633,0.0003787945608167,-0.0008559491861187,0.0008585516465386,0.0005577670220054,-0.0002754398766257
0.9845969436049342,0.00040004161512789585,0.0,-0.0001157205631113,-0.0001157205631113,-0.0001082589461283,-0.000408274519918,-4.717698596246045e-05,0.0003351650430019,0.0001761945525147,-0.0001761315147129,0.0001325284460427,-0.000551807737646,0.0005334285108454,-7.008447667333773e-05,-0.0002714256810442
0.9911144591129708,0.0005712500348061033,0.0,-9.747592095199488e-05,-9.747592095199488e-05,-1.428715896700794e-05,-0.0002042705783249,1.6273565435209747e-05,-0.0001534362772175,0.0002232742900238,-0.0002231737386545,-4.613850291790289e-05,-0.0006841163922473,0.0006747413556207,-0.0002027778215984,-0.0001058163539344
0.9702805078358764,0.000531012675294007,0.0,6.534821924963907e-05,6.534821924963907e-05,5.710780084200451e-05,-2.209393921548397e-05,-1.0314815020118218e-05,0.0003459175161798,0.0001750945534446,-0.0001750313819359,1.4829903680402268e-05,-0.0005932620617151,0.0005938943446297,0.0003485347724725,-0.0001808000477175
0.8715429606150448,0.0013643960671657347,0.0,0.0002568598317724,0.0002568598317724,-0.0004744402154355,-0.0003090318669617,-1.6277903197359223e-05,0.000699462457541,0.0003620026491001,-0.0003617021770588,0.0015820040066772,-0.0014579243212865,0.0014675214923421,-0.0010404385300933,-0.0003981582009976
0.8265963809346891,0.0018213648832510003,0.0,0.0003215187291661,0.0003215187291661,0.0001033388174151,-0.0003665366894166,-0.0003756745655394,-3.467207487251045e-05,0.0005121854254217,-0.0005115514782678,-0.0003067219399051,-0.0021126478770363,0.0021065924996398,-0.0005054918047765,-0.000861110187925
0.9665339972677864,0.0007509575961732731,0.0,-0.0002627160179597,-0.0002627160179597,9.67370919332522e-05,0.0002715351101145,-0.0002268595946511,0.0006147583912294,0.0002859941220199,-0.0002858249727454,-0.0005912851771907,-0.0009058123986251,0.0009068045912675,6.269960912053119e-05,-0.000534888811834
0.9782428003804942,0.0008369248591897055,0.0,0.0002348382742289,0.0002348382742289,-1.5652641058627736e-05,-0.0003962933813016,-0.0002138004415017,0.0001614909421037,0.0003374925282673,-0.0003372598198452,9.055363673449168e-05,-0.0011034216733981,0.0011086535036692,0.0014469122049313,0.000943514568492
0.9819895908449509,0.0005934724287715065,0.0,-0.0001613607120856,-0.0001613607120856,2.204558612484142e-05,-0.0004602803835053,-6.437132410830326e-05,0.0005349067132327,0.0002689888798614,-0.0002688415964268,-0.0003366801291453,-0.0009335276799503,0.0010369125698919,-0.0008188395819473,-0.0010328307544557
0.969463751547294,0.0008184376532106383,0.0,0.0002677764328526,0.0002677764328526,-0.0002396217128297,0.0005725128896343,-0.000146612366667,0.001547733415909,0.0003925002927818,-0.0003921827319923,-0.0002567944901664,-0.0014902647858442,0.0014956532923829,-0.0020542523943317,-0.0016952429393586
0.9709519889324866,0.0006234573378709769,0.0,0.0002084574267857,0.0002084574267857,-0.0004081406485504,3.0501880274647064e-05,0.0001925646336816,0.0008395322672287,0.0002707195534297,-0.0002705686742274,-0.0005398607787482,-0.0008358490979401,0.0008405706208762,-0.0005705915057661,-0.0007609848541124
0.99446033015522,0.0004537497905422312,0.0,0.0001910501560863,0.0001910501560863,-2.642233912408809e-05,0.0001376197128913,0.0002021997657513,-0.0004883223353843,0.0002205307701584,-0.0002204330040461,-0.0001779150624896,-0.0006006465286253,0.000599475830849,-0.0008721018303685,-0.0015730699490331
0.9770760986919172,0.0005663965706993184,0.0,0.000174859855602,0.000174859855602,-0.0001818660602705,-0.000127730520662,-0.0001589322885701,0.0008649636322631,0.0002672985175969,-0.0002671523479653,-0.0002137352202846,-0.0007428716927814,0.0007427839542319,0.0001368951602772,-0.0008157743361748
0.9892611707981732,0.0003314994388664142,0.0,8.450119093406094e-05,8.450119093406094e-05,2.879871747862861e-05,5.074795353010586e-05,-1.0959920967779093e-05,0.0002105222356458,0.0001610391878911,-0.0001609867746755,-0.0001863839609198,-0.0004284863386738,0.0004296901840505,-6.431621067359838e-05,0.000235805004224
0.983153729401238,0.0007858890812203208,0.0,-0.0002260632330272,-0.0002260632330272,-0.0002136560734687,-0.0002663390338688,-0.000113531689502,0.0013313710131167,0.000331444802034,-0.0003312214765591,0.0002508340168183,-0.0011026861824757,0.0011062004025303,0.0007644889859423,0.0016754619778001
0.9818740360642622,0.0008040053988189945,0.0,-3.4957631408705225e-05,-3.4957631408705225e-05,-0.0003475188047322,-5.7641979529621246e-05,-7.185920397656531e-05,-0.0006273627548535,0.0003280476774719,-0.0003278286200092,-7.232524121714157e-06,-0.0011596693335614,0.0011614646491679,0.0007803820854981,-0.0008433999626298
0.9893413928242958,0.0003338064702996969,0.0,-9.441747163330128e-06,-9.441747163330128e-06,4.32343466191254e-05,-8.352643044018393e-05,-4.873912163982919e-05,0.0006102576654674,0.0001676162291764,-0.0001675594526503,-0.0001298569538218,-0.0004327768329142,0.0004253052215132,-0.0005667232665512,-0.0003463161903611
0.9819708688053208,0.0005639551424943228,0.0,5.005784474454433e-05,5.005784474454433e-05,0.0001176285049689,2.403765462266616e-05,-0.0001500327871726,0.0013017494650243,0.0002887617702509,-0.0002885920414911,-0.0001923576816199,-0.000724720286231,0.0007223826769447,-0.0006587459513899,-6.123626121901093e-05
0.9889287367068874,0.00045020288713631685,0.0,-0.0001196409511062,-0.0001196409511062,-0.0003302618723752,-0.0002136478770714,-0.0001503889585929,0.0012021901483822,0.0002164139146713,-0.0002163192374894,-0.0001745745521617,-0.00060078368282,0.0006015159084801,-0.0003456648236672,-0.0002096816575065
0.9757343725323684,0.0006150788723856376,0.0,-4.223556679738838e-05,-4.223556679738838e-05,5.690041195671736e-05,-0.0004073613603883,-8.14595992773004e-05,-0.0001892389828891,0.0002977909931093,-0.0002976093342856,-0.0001646542234372,-0.0008402097717263,0.0008348329781352,-0.0003978761493635,-0.0014017142704175
0.9841513183159184,0.0008039470505979355,0.0,-1.845778587039604e-05,-1.845778587039604e-05,-0.0002721319652821,0.0002079436438578,0.000141895556902,0.0010279144055538,0.0003548734834062,-0.0003546177413658,-0.0004981512872708,-0.0014865140466667,0.0014899256343271,0.0007385994981359,0.0016364467875816
0.986915047997316,0.0005820146375554113,0.0,-0.0002233589459607,-0.0002233589459607,-0.0001162626202362,-0.0004960244168692,-0.0002857010832428,0.0010410939919924,0.0002685317697084,-0.0002683857184507,0.0001035448324783,-0.0009094862344026,0.0009243218484613,-0.0008546769338372,-0.0018986178871606
0.9842933236691948,0.0008425307606220147,0.0,1.1485097280217182e-05,1.1485097280217182e-05,0.0003595984516907,-0.0003582970130849,-0.0001374696162964,-0.0003952902583745,0.0003426007642681,-0.000342362433623,0.0002810371980789,-0.0011130752999861,0.0011026534971722,-5.021560269513614e-05,0.0003099249753778
0.9683877127321971,0.0007374571196534006,0.0,0.0001919799054017,0.0001919799054017,-5.853909661690526e-05,-8.081915440105725e-06,-0.0004381531425804,-5.608581551830305e-05,0.000279435299023,-0.0002792741258734,0.0003515157915019,-0.0009243489150018,0.000930340194197,0.0005527949379187,0.0013881482948077
0.8678306149995727,0.001836196002958176,0.0,0.0005712246907662,0.0005712246907662,-0.0007207252625905,-0.0008383306772383,0.0001229738215613,-0.0005919006288556,0.0004767732602545,-0.0004762499709225,0.0013018448506614,-0.0021460637361815,0.002172515952086,-0.0013982008345639,-0.0019893018051555
0.8528451029963445,0.003258247018853386,0.0,-0.0003617017674587,-0.0003617017674587,0.0004691708271157,0.0004135116189505,0.0004575177134702,-0.0027764075976489,0.0008672684469448,-0.0008655081556294,0.0008341689158944,-0.0035083504876702,0.0035597921765897,0.0013380196521478,0.0020475192703978
0.9714548215832428,0.0014501184730995236,0.0,-5.514518163551863e-06,-5.514518163551863e-06,-7.007637980582793e-05,-0.0001445731191276,6.624671694455131e-05,0.0007222429351119,0.0005385940385362,-0.0005379974853425,0.0001827880237854,-0.0015805390644799,0.001585699667426,-0.0007693226443766,-0.0002678546543524
0.977197414781517,0.0015955922335453051,0.0,4.503078886353151e-05,4.503078886353151e-05,-0.0002954776962056,-0.0006938533613437,-3.1914287908385575e-05,0.0015720317424762,0.0006769387054553,-0.0006760021249929,0.0001390915126845,-0.0018228072764153,0.001829238300928,-8.961520778838494e-05,-0.0020083582882114
0.9786436400327264,0.001183544933809301,0.0,-0.0004747044120361,-0.0004747044120361,-0.0001112379580429,5.665427930123812e-07,-2.785132406002422e-05,0.002736640136977,0.0004988430314033,-0.0004983349998139,-0.0001817531150442,-0.0015395086436506,0.0015442067796431,-0.0003219062991771,0.000282717769087
0.961692683034676,0.0016805803261290128,0.0,0.0001584986893281,0.0001584986893281,-0.0005794618005131,0.0005319663577039,0.0001880361181539,0.0030502934376888,0.0007522453780949,-0.0007510703889558,-0.0002633451251465,-0.0027822091481818,0.0027987930622492,0.000883940041836,-0.0031787189811477
0.9774502880198866,0.0012124824052322123,0.0,-0.0003227271259135,-0.0003227271259135,-0.0005875578271949,-0.0001377831373386,0.0001344662548838,0.0011405894589401,0.0005395963867693,-0.0005390012810188,-0.0004501259500925,-0.0014718978325819,0.0014760172714152,-0.0011807535615591,-0.0030714831345786
0.9848328679188498,0.000882232923503309,0.0,0.0001104799288781,0.0001104799288781,1.563530658466039e-05,-4.265853358664806e-05,0.0001929257064292,0.0003280390435,0.0003996123140375,-0.0003992882783192,-0.0003454309068126,-0.0010655332476986,0.0010621139433384,0.0004938197774868,-0.0001055052239739
0.973221495805978,0.0010670316781930197,0.0,-0.0002906592321945,-0.0002906592321945,-0.0001003703253885,0.0002236164896262,-5.5522010297015534e-05,0.0015030481522857,0.000478339186551,-0.0004778694400848,-0.0002077213162539,-0.0012760517738598,0.001279797725488,0.0003153101146448,0.0006565680871334
0.98200022115616,0.0006376842037762396,0.0,0.0003090061633831,0.0003090061633831,-0.0001383120402056,0.0002951778171232,0.0001453330393096,0.0001846641432218,0.0002837447242457,-0.0002835808453239,-8.054441075011631e-05,-0.0007436714590041,0.0007431396383718,0.0003066025924338,0.0001278611779026
0.9776876023586336,0.001432264930344008,0.0,-0.000208527912378,-0.000208527912378,-0.0002985037960111,-3.578590288189076e-05,-2.1971013441368648e-05,0.0012299591473295,0.0006502662291366,-0.0006494023858402,7.776667162229245e-06,-0.0017907975591254,0.0017956281508331,0.0013479188745811,0.0003867666248291
0.9708725442290544,0.0015057616819973774,0.0,-0.0001433429518801,-0.0001433429518801,-0.0006506738803652,0.0006774489196709,-0.0001703382347244,0.0016101557767667,0.0005927995338608,-0.0005920765086185,0.0001140632078245,-0.0021794838612779,0.0021866846514251,-0.0010752812048302,0.0040293024735497
0.9816980154996592,0.0006387360237216018,0.0,0.0001156594337071,0.0001156594337071,-0.0003351511126215,0.0001678771115214,1.885999759509982e-05,0.000825117726156,0.0002882434802808,-0.0002880743131005,-0.0001681456890928,-0.0007395272993753,0.0007405560510191,-0.0003984417295495,-0.0005403940910396
0.970480696552738,0.001048117341814418,0.0,-0.0001032044081755,-0.0001032044081755,-0.000599359747489,0.0008035819167591,-4.37150981725809e-05,0.0027092947130329,0.0004501032968521,-0.000449686173194,-1.3367565428801242e-05,-0.0012427524497068,0.0012456357454625,-0.0006118812450569,-0.0014992070468071
0.9852323353448892,0.0008757288046825149,0.0,-0.0001977053735372,-0.0001977053735372,0.0002139825297897,0.0005667687374626,9.499593093931225e-06,0.0010407684348997,0.0003970848277358,-0.000396765005987,-0.0001910191349842,-0.0010558324770285,0.0011599519242473,-0.000210690212389,-0.0025302890343625
0.9753453546155574,0.0011934951948214775,0.0,-0.0005208657472439,-0.0005208657472439,-0.0002611834318657,0.0004030846909345,-6.288774397789076e-05,0.0014677172081385,0.0005480213904102,-0.0005474062435201,-1.006822305937849e-05,-0.0014509879753566,0.0014631997803962,-0.0013245970564937,-0.0022228410231407
0.9716326529490692,0.001634627539796819,0.0,0.000110301362461,0.000110301362461,-0.0002910840046639,0.0004140153156015,0.0006918247699831,0.0032959696262022,0.0006530801991432,-0.0006522034456603,0.0007814283815096,-0.0027699710374241,0.002797638152605,0.0007524162693119,-0.0009630051013259
0.9872566108231458,0.001163553035747088,0.0,-0.0003076247413257,-0.0003076247413257,-0.0002963227874145,0.0003106721110452,7.067434761420799e-05,0.0019871081737765,0.0005170589154439,-0.0005165178804745,-0.000185032171642,-0.0015110823259789,0.0015185117616248,-0.0003391554728812,-0.0015593348346658
0.985080218602555,0.001604635381231542,0.0,-0.0004851963060388,-0.0004851963060388,3.120102763187749e-05,0.0002434237491241,0.0002159665091439,-0.0003249683077088,0.000696113929458,-0.0006951314902535,0.0002525414117228,-0.0018316614765421,0.0018383484558549,0.000474627836062,0.0001485597378454
0.9770231736991908,0.0014281925801656037,0.0,-0.0003547823629876,-0.0003547823629876,0.0006172740818292,9.980907243267724e-05,-5.288450820428725e-05,-0.0006000135579458,0.0005526822927311,-0.0005520577169115,-0.000188296681099,-0.0015925484484252,0.0015998781638481,-0.0013955817051309,-0.0036507115487633
0.892102877860568,0.0032195085244787164,0.0,-0.0002291106008704,-0.0002291106008704,-0.0001276449645369,0.0017622316201351,0.0001112424505831,0.0024719121653519,0.0009207103181955,-0.0009188137626912,0.0017098656335862,-0.0035914682517079,0.0036035339207053,-0.0007975539442091,0.0037966450703531
0.8978366572884011,0.006254100782123603,0.0,0.0001138797333881,0.0001138797333881,-0.0028009340227593,-0.0030864237314586,-0.0001788718574564,0.0045744775507666,0.0022011503055068,-0.0021904102180279,0.0015653437831828,-0.0071210428716544,0.0072354800644462,-0.002419027991608,-0.0096754397351509
0.9765791256019126,0.0027250108574225227,0.0,0.0006270189687282,0.0006270189687282,0.0006006909519139,-0.000263744715096,-3.571138418156927e-05,0.0017272966298824,0.0009469719559116,-0.0009451389859238,-1.4361076033031496e-05,-0.0031736697475375,0.0031927219789995,-0.0004259754196492,-0.005812221967311
0.9773856690796588,0.0031273963698251455,0.0,-9.15741608591425e-05,-9.15741608591425e-05,-0.0008679740942341,0.00136503585079,-2.64177018483025e-07,0.001345371115587,0.0011409350580497,-0.0011382775589399,-9.558438354939636e-05,-0.0034872916975449,0.0035124046595913,-0.0035021823835567,-0.0023244987965205
0.9894746636312888,0.002339536135542895,0.0,-0.0002239725619849,-0.0002239725619849,0.0005878295238973,0.0007603440334655,4.9561137732578864e-05,-0.0034564397398439,0.0009209510666392,-0.0009192399061555,-0.0005002334714349,-0.0027550737793836,0.0027718413037346,-0.0032160392350256,-0.0067993059096463
0.9652529988039856,0.0030327226009330315,0.0,-0.0004240359754162,-0.0004240359754162,0.0012102997011401,0.0001624833812444,-0.0002629569108744,0.0025199358074634,0.0011811387168049,-0.0011782551561531,0.0001201095883115,-0.00443416344251,0.0044499781310348,-0.0019770454729303,-0.003668504677466
0.9815221516235312,0.0023038560063828777,0.0,1.5745450119841742e-05,1.5745450119841742e-05,-0.0006081088120626,0.0005239425987633,-0.0001023029781681,0.0015966309196544,0.0008862723706176,-0.000884674724016,0.0001468983759583,-0.0027763281181203,0.0027923290465314,-0.0006910578817489,-0.004217362693193
0.9885898765070938,0.0016997630666433945,0.0,0.0004199474110752,0.0004199474110752,4.901149966529683e-05,0.0002861214251743,0.0001115958529881,-0.0029207967440662,0.0006663464945748,-0.0006654494190571,0.0001838896931685,-0.002091963269087,0.0021009614005316,-0.0007807351522445,0.0005221700677316
0.9904253047024076,0.002201027720871011,0.0,-0.0008961959306348,-0.0008961959306348,-0.0001065360287191,0.001051422920884,-6.661850039613171e-06,-0.0017283981941177,0.0009088529367029,-0.0009071879944423,2.358745181552102e-05,-0.0025617327601751,0.002566238380813,-0.0017913874501552,-0.0052515401216761
0.9942718125559592,0.0013521007368117132,0.0,-0.0009180619230546,-0.0009180619230546,0.0010554675961205,0.0005474041893712,9.044323363882611e-05,-0.0014087522035545,0.0005420225081935,-0.0005414321898722,-7.602562381303635e-06,-0.0015458954135014,0.0015504065427179,-0.0014333864466221,-0.0031967233893511
0.9817048077739,0.003042602532022715,0.0,0.0015871441155727,0.0015871441155727,0.0024814653382063,8.286765806830854e-05,-9.483452680913997e-05,-0.0028560636146141,0.0011726528390615,-0.0011698580328575,9.429587867304524e-05,-0.0040798040755525,0.0041155664521861,0.0008845891746067,-7.912939555476672e-05
0.985320710896939,0.003055413583828001,0.0,-0.0001336496566727,-0.0001336496566727,0.0006743373456258,-0.0014551875115075,-0.0001983739920344,0.003996286339259,0.0012047537655287,-0.0012018148423117,-1.625651360037672e-05,-0.0044392251291314,0.0044502839009218,-0.0015085873067151,-0.0047536629216619
0.9936361232386394,0.0013337086337924101,0.0,-0.0001279347731139,-0.0001279347731139,-0.0005017333832811,-0.0003482237124505,6.168575915777019e-05,-0.0018366290267348,0.0005326890147946,-0.0005321184766259,4.329329632324352e-05,-0.001515361956658,0.0015191906584531,-0.0006611059338152,-0.002753795762671
0.9916162354955104,0.0021114499785178124,0.0,0.0006422132477057,0.0006422132477057,0.0006866471506189,0.0013564306655654,-0.0002506321569976,0.0013164682320724,0.0008139791750843,-0.0008126450377161,-3.780827584509705e-05,-0.0022643691407615,0.0022744728424115,-0.0014088281852067,-0.004016711416812
0.9830860212547444,0.0017105995628894375,0.0,-0.0006021332152353,-0.0006021332152353,3.377927065706388e-05,0.0010177581114736,-0.0002070470938411,0.0025781254608961,0.0006609342912112,-0.0006600467848395,-1.3192182453103385e-06,-0.0020625871219557,0.0021028149517847,0.0012926279212235,0.001333802285388
0.9863235002679812,0.0023312286494086417,0.0,0.0009572079392438,0.0009572079392438,-0.0001052741336184,-0.0001163861204117,-0.0002335472708926,0.0057113917383342,0.0009442781578962,-0.0009424735629542,7.775669030996024e-05,-0.0028267236219677,0.0028619061565525,-0.0007150721991984,-0.0034328568333766
0.9948055343689852,0.003134036193700839,0.0,-0.0014804972883448,-0.0014804972883448,0.0001995972384705,-0.0001319263017369,0.0002041561593698,0.0003387088917102,0.0013101545368164,-0.0013067126670845,0.0005189225723569,-0.0047268327786251,0.0041807057161223,-0.000204637540201,-0.0044740554599542
1.0009747084005811,0.0023483848157421295,0.0,0.0001440578402929,0.0001440578402929,0.0004951196141074,0.0001345991989387,-0.0001161954673096,0.0013139553225234,0.0009529463073185,-0.000951135310748,-0.000151639219394,-0.0027914631002344,0.0028145006281727,-0.0011200615561065,-0.0077586431013666
0.9794239823480478,0.0031101939424825384,0.0,-3.726773142564976e-05,-3.726773142564976e-05,-1.028257741642058e-05,0.000737427581181,-0.0003091236714795,0.0042184856044259,0.0011551319438756,-0.0011524136322492,-0.0006062227192533,-0.0036660461857002,0.0036986868478454,0.0008137311232705,-0.0018936149543942
0.9810041352885616,0.0026801883340233416,0.0,0.0015205715480116,0.0015205715480116,0.0005663689578309,0.0013822178509507,7.812751701519183e-05,-0.0033301262844088,0.0009046176716794,-0.0009029523847464,7.782514884169256e-05,-0.0030987733379179,0.0031563477396967,0.0003311905112619,0.0005540946600613
0.945856404072992,0.0066736507047116655,0.0,-0.0027926292595588,-0.0027926292595588,-0.0037588062428117,-0.0014035770879919,-0.0003953111669978,0.0107598871518758,0.0021081379132796,-0.0020987823227961,2.090308128177565e-05,-0.0079100727536924,0.0080920909261524,-0.0062191320227498,0.0013421041824447
0.9862168314236528,0.001308464019813837,0.0,0.0001494453767011,0.0001494453767011,0.0001963181722991,9.575023274333017e-05,-1.332061515579852e-05,-0.0002326270621539,0.0004090641413221,-0.0004087250784143,0.0003070253997966,-0.001414350793825,0.0014185935555637,0.0001321289656706,-0.0006408477478252
0.9982899334464777,0.007374993666802591,0.0,0.0006012065315739,0.0006012065315739,0.0019194012261413,0.0009406007894453,0.000347924342017,-0.0020359551258822,0.0023780308089199,-0.0023667550936364,0.0047764355915861,-0.0069478687795409,0.0070898753644909,-0.0038827201320933,-0.0092514792173835
0.9776236510729196,0.005377553545845434,0.0,-0.0002822118364522,-0.0002822118364522,-0.002260032734268,-0.0045749538754772,8.404301018882787e-05,-0.001686055568791,0.0016472872665315,-0.0016417545824246,-0.0001436734756659,-0.0054371862508681,0.00550997952973,-0.0036644478659151,0.0019698843569124
0.9763452753874612,0.004679731992864643,0.0,-1.9649356568063325e-05,-1.9649356568063325e-05,-0.0013232667238838,0.0056565050847268,-0.0003114977612834,0.0052110774715423,0.0011612435508459,-0.001158487791157,-0.000117395529819,-0.0050473826929094,0.0051208208792377,2.0361180667616274e-05,0.0089722144125875
0.9861895290507408,0.005105276616809423,0.0,0.0024400839291051,0.0024400839291051,0.0003384103206169,0.0024728501217874,-0.000281433379799,0.0021086109040564,0.0015833170910647,-0.0015782493649938,0.0021516406791458,-0.0060421248151959,0.0061251270712366,0.0057975285058379,0.0040539910511077
0.9833463751663098,0.004664275607316781,0.0,0.0010055194767569,0.0010055194767569,-0.0028475204055646,0.0035023235871014,-0.0003193887102425,0.0072420154866784,0.0013312452350215,-0.0013276505130314,0.0010500051102394,-0.0055610589546115,0.0056644373929791,-0.0070971165656306,0.0007964051259146
0.991402392057628,0.0035175502109378166,0.0,-0.000468873485483,-0.000468873485483,-0.0004160651013889,0.0006936797146703,-9.5622855790789e-05,0.0018943417879869,0.0010700228281363,-0.0010677180471641,0.0001994395553913,-0.0041094554553562,0.0041422420919198,0.0036164366883573,0.0028692513162892
0.9903627068010932,0.003531776296352143,0.0,0.0017407535362631,0.0017407535362631,0.0021337314514283,7.686751813096304e-05,0.000210658941169,-0.0041136267431906,0.0012325117837103,-0.0012294516651207,0.0001326710283682,-0.0039133280680749,0.0039608858065499,-0.0021084711044625,-0.001481369176088
0.9875412851507236,0.0029909001694960933,0.0,-0.000273742323861,-0.000273742323861,-0.0006754245203348,0.0002021947624805,-0.0001293983710159,-0.00064548459121,0.0009853002364167,-0.0009833380233901,0.0002026186751621,-0.0029238418300809,0.0029379185550136,0.000267054895635,0.0019764620135537
0.9727673617109022,0.003098845831922908,0.0,0.0016528691014527,0.0016528691014527,0.0009213886663087,-0.0002839531946819,5.903377702110024e-05,-0.0009905761192987,0.0008877491359591,-0.00088613176527,0.0002226295578815,-0.0037818154384049,0.0038382085915174,0.0029850182888533,0.0082502394536655
0.9727673617109022,0.003098845831922908,0.0,0.0016528691014527,0.0016528691014527,0.0009213886663087,-0.0002839531946819,5.903377702110024e-05,-0.0009905761192987,0.0008877491359591,-0.00088613176527,0.0002226295578815,-0.0037818154384049,0.0038382085915174,0.0029850182888533,0.0082502394536655
0.9875412851507236,0.0029909001694960933,0.0,-0.000273742323861,-0.000273742323861,-0.0006754245203348,0.0002021947624805,-0.0001293983710159,-0.00064548459121,0.0009853002364167,-0.0009833380233901,0.0002026186751621,-0.0029238418300809,0.0029379185550136,0.000267054895635,0.0019764620135537
0.9903627068010932,0.003531776296352143,0.0,0.0017407535362631,0.0017407535362631,0.0021337314514283,7.686751813096304e-05,0.000210658941169,-0.0041136267431906,0.0012325117837103,-0.0012294516651207,0.0001326710283682,-0.0039133280680749,0.0039608858065499,-0.0021084711044625,-0.001481369176088
0.991402392057628,0.0035175502109378166,0.0,-0.000468873485483,-0.000468873485483,-0.0004160651013889,0.0006936797146703,-9.5622855790789e-05,0.0018943417879869,0.0010700228281363,-0.0010677180471641,0.0001994395553913,-0.0041094554553562,0.0041422420919198,0.0036164366883573,0.0028692513162892
0.9833463751663098,0.004664275607316781,0.0,0.0010055194767569,0.0010055194767569,-0.0028475204055646,0.0035023235871014,-0.0003193887102425,0.0072420154866784,0.0013312452350215,-0.0013276505130314,0.0010500051102394,-0.0055610589546115,0.0056644373929791,-0.0070971165656306,0.0007964051259146
0.9861895290507408,0.005105276616809423,0.0,0.0024400839291051,0.0024400839291051,0.0003384103206169,0.0024728501217874,-0.000281433379799,0.0021086109040564,0.0015833170910647,-0.0015782493649938,0.0021516406791458,-0.0060421248151959,0.0061251270712366,0.0057975285058379,0.0040539910511077
0.9763452753874612,0.004679731992864643,0.0,-1.9649356568063325e-05,-1.9649356568063325e-05,-0.0013232667238838,0.0056565050847268,-0.0003114977612834,0.0052110774715423,0.0011612435508459,-0.001158487791157,-0.000117395529819,-0.0050473826929094,0.0051208208792377,2.0361180667616274e-05,0.0089722144125875
0.9776236510729196,0.005377553545845434,0.0,-0.0002822118364522,-0.0002822118364522,-0.002260032734268,-0.0045749538754772,8.404301018882787e-05,-0.001686055568791,0.0016472872665315,-0.0016417545824246,-0.0001436734756659,-0.0054371862508681,0.00550997952973,-0.0036644478659151,0.0019698843569124
0.9982899334464777,0.007374993666802591,0.0,0.0006012065315739,0.0006012065315739,0.0019194012261413,0.0009406007894453,0.000347924342017,-0.0020359551258822,0.0023780308089199,-0.0023667550936364,0.0047764355915861,-0.0069478687795409,0.0070898753644909,-0.0038827201320933,-0.0092514792173835
0.9862168314236528,0.001308464019813837,0.0,0.0001494453767011,0.0001494453767011,0.0001963181722991,9.575023274333017e-05,-1.332061515579852e-05,-0.0002326270621539,0.0004090641413221,-0.0004087250784143,0.0003070253997966,-0.001414350793825,0.0014185935555637,0.0001321289656706,-0.0006408477478252
