0,1,2,3,4,5,6,7,8,9,10,11,12,13,14
0.9612733858428548,0.009501905713147595,0.00018470985312346588,0.00018470985312346588,-0.0023690362268236065,0.001926248964295163,-0.015322907134087127,0.01206920254451238,0.0064654839544817655,-0.006379665239744203,0.002269649715994082,-0.010110570234171501,0.010276107995211059,-0.014655737761178456,-0.011529249854525636
0.9836081740687654,0.0038385470758237833,0.0008272354098186607,0.0008272354098186607,-0.0005315139893771192,0.00013671216584465462,-0.009896017762572207,0.008834306665855496,0.0025366751540508714,-0.002523658382362015,0.0021868092498403824,-0.003935637866340769,0.004108437111449592,0.002059657364633649,0.0027136488156904726
1.0312512634569269,0.00494503811583708,0.0034122238651377312,0.0034122238651377312,0.0046403815292901385,-0.004064084754349162,0.016701614384508456,-0.02372539801978224,0.0030273971553360646,-0.0030097261247512552,0.004332158556697108,-0.00622654457124705,0.006133506317075765,-0.01433537221943526,-0.018872181049425008
1.0232418894969773,0.009396407767296092,-0.000595172104017827,-0.000595172104017827,0.0015654228470949327,-0.006904758670218669,0.002938416942076527,-0.009757812053224013,0.005774912694041179,-0.0057104560190541775,0.03429595779124184,-0.02406894259119463,0.02551717388177943,-0.012848656819411719,-0.00801438247330033
1.011182701570585,0.004584157564000287,0.0010893181612678937,0.0010893181612678937,0.0030459321563933717,-0.0057048728925657155,0.008256493902591089,-0.0177770299906872,0.0024899299841740774,-0.0024777277016636567,-0.0018755872075906233,-0.006928548932729095,0.0066951438184450485,0.0014822470364346252,0.00562469080729433
0.9755709507046637,0.004694076073129464,0.0013132060551452884,0.0013132060551452884,0.0011779952956842976,-0.0023978895363917507,0.003586775489284766,-0.008460118930480709,0.0022285362323640756,-0.002218401065568809,-0.000523423965900216,-0.004819036780480235,0.0048665006976291725,1.1940250488118309e-05,0.00018173224540107835
0.8757838923252232,0.008357437808016165,-0.003387402142577378,-0.003387402142577378,-0.0002324568994098719,-0.0020623280766615126,-0.001085233700635846,0.0025932758143409895,0.003805927544151322,-0.003773133443628396,-0.0005871135528281446,-0.007461122056157676,0.007435713770105323,0.009084973523886819,0.006702902061521465
