{
"id": "JOB_combineZmethodshi_7c818013-008b-4e02-9d34-2084a258ab56",
"task_id": "TASK_combineZmethodshi_ad36ab2c-d7d0-41b6-b37d-fa3ef5763fde",
"status": "<Status.COMPLETED: 7>",
"force": false,
"submit_id": "SUBMISSION_26abf15a-d54e-4f40-86e0-f97c30bb9609",
"submit_entity_id": "SCENARIO_prebinnedScenario_1f54044e-3af6-4c97-a24b-229ebfb4bf9b",
"creation_date": "2024-02-29T17:52:53.062425",
"subscribers": [
{
"fct_name": "_Orchestrator._on_status_change",
"fct_params": [],
"fct_module": "taipy.core._orchestrator._orchestrator"
}
],
"stacktrace": [],
"version": "0.1"
}