{
"id": "JOB_readJpsiPrebin_2661a70c-7cb2-48e5-b000-d2e1ccd5b7a6",
"task_id": "TASK_readJpsiPrebin_90c4c123-9be9-4b06-9e62-945a19c98a85",
"status": "<Status.COMPLETED: 7>",
"force": false,
"submit_id": "SUBMISSION_8890a44d-4216-4adc-bc15-4ae52085ea54",
"submit_entity_id": "SCENARIO_prebinnedScenario_72466c8a-9f63-467a-984f-cf08df595fca",
"creation_date": "2024-02-29T17:47:30.745458",
"subscribers": [
{
"fct_name": "_Orchestrator._on_status_change",
"fct_params": [],
"fct_module": "taipy.core._orchestrator._orchestrator"
}
],
"stacktrace": [],
"version": "0.1"
}