{
"id": "JOB_readZmass_0838cbf5-a156-43ac-93db-c7f1ceac70ee",
"task_id": "TASK_readZmass_5e149245-59e1-4587-bfd7-344531211226",
"status": "<Status.COMPLETED: 7>",
"force": false,
"submit_id": "SUBMISSION_db8cd488-866a-4cff-b3ca-761e0a28a785",
"submit_entity_id": "SCENARIO_prebinnedScenario_2605fed3-6b68-43a5-bc8f-9c2de7cb4e68",
"creation_date": "2024-03-05T12:28:55.492986",
"subscribers": [
{
"fct_name": "_Orchestrator._on_status_change",
"fct_params": [],
"fct_module": "taipy.core._orchestrator._orchestrator"
}
],
"stacktrace": [],
"version": "0.2"
}