{
"id": "JOB_readZmassPrebin_4a6c0542-73ae-4cae-85bb-d1205e162ddf",
"task_id": "TASK_readZmassPrebin_39679bf2-616d-4da1-87f1-d361ee029a00",
"status": "<Status.COMPLETED: 7>",
"force": false,
"submit_id": "SUBMISSION_db8cd488-866a-4cff-b3ca-761e0a28a785",
"submit_entity_id": "SCENARIO_prebinnedScenario_2605fed3-6b68-43a5-bc8f-9c2de7cb4e68",
"creation_date": "2024-03-05T12:28:55.284663",
"subscribers": [
{
"fct_name": "_Orchestrator._on_status_change",
"fct_params": [],
"fct_module": "taipy.core._orchestrator._orchestrator"
}
],
"stacktrace": [],
"version": "0.2"
}