{
"id": "JOB_readZisoStatPrebin_69d29842-6160-4c1f-aeab-5ea654fbe912",
"task_id": "TASK_readZisoStatPrebin_edd76a27-62d9-45b8-b748-d039593128d6",
"status": "<Status.COMPLETED: 7>",
"force": false,
"submit_id": "SUBMISSION_b706f99e-ec5b-481a-a850-13e5467008ea",
"submit_entity_id": "SCENARIO_prebinnedScenario_9c4765b1-5665-4e4a-b728-1f530ef8131e",
"creation_date": "2024-03-05T17:17:29.288009",
"subscribers": [
{
"fct_name": "_Orchestrator._on_status_change",
"fct_params": [],
"fct_module": "taipy.core._orchestrator._orchestrator"
}
],
"stacktrace": [],
"version": "0.2"
}