{
"id": "JOB_convertGeVtoMeVZmassPrebin_36bb7dd6-dc74-4904-bc6f-6ec33e9b020a",
"task_id": "TASK_convertGeVtoMeVZmassPrebin_f9b5c9b9-531e-41b4-a016-00ad5ac13abb",
"status": "<Status.COMPLETED: 7>",
"force": false,
"submit_id": "SUBMISSION_41189474-9cb3-4b21-af56-0f0f55e963c7",
"submit_entity_id": "SCENARIO_prebinnedScenario_1ee1f01a-7025-4658-8b6f-526c883778bb",
"creation_date": "2024-02-29T18:25:32.685764",
"subscribers": [
{
"fct_name": "_Orchestrator._on_status_change",
"fct_params": [],
"fct_module": "taipy.core._orchestrator._orchestrator"
}
],
"stacktrace": [],
"version": "0.1"
}