{
"id": "JOB_combineZmethodshi_9b0e2131-d5ed-4f94-964a-778eb46ad6e5",
"task_id": "TASK_combineZmethodshi_356cd4b2-897b-4c21-9fe4-a6823784f962",
"status": "<Status.COMPLETED: 7>",
"force": false,
"submit_id": "SUBMISSION_b706f99e-ec5b-481a-a850-13e5467008ea",
"submit_entity_id": "SCENARIO_prebinnedScenario_9c4765b1-5665-4e4a-b728-1f530ef8131e",
"creation_date": "2024-03-05T17:17:30.283840",
"subscribers": [
{
"fct_name": "_Orchestrator._on_status_change",
"fct_params": [],
"fct_module": "taipy.core._orchestrator._orchestrator"
}
],
"stacktrace": [],
"version": "0.2"
}