{
"id": "JOB_readZmassStat_93aa7998-263a-46f5-ab26-c6f2f409ed58",
"task_id": "TASK_readZmassStat_69f98ae5-a856-4fe3-9b0e-966e08fce6f4",
"status": "<Status.COMPLETED: 7>",
"force": false,
"submit_id": "SUBMISSION_8890a44d-4216-4adc-bc15-4ae52085ea54",
"submit_entity_id": "SCENARIO_prebinnedScenario_72466c8a-9f63-467a-984f-cf08df595fca",
"creation_date": "2024-02-29T17:47:30.842624",
"subscribers": [
{
"fct_name": "_Orchestrator._on_status_change",
"fct_params": [],
"fct_module": "taipy.core._orchestrator._orchestrator"
}
],
"stacktrace": [],
"version": "0.1"
}