{
"id": "JOB_readJpsiPrebin_c92b83cd-2fe6-4b39-a3bf-b4e51fbe49af",
"task_id": "TASK_readJpsiPrebin_666c4aca-effd-41ce-bf32-b200ee4f7da5",
"status": "<Status.COMPLETED: 7>",
"force": false,
"submit_id": "SUBMISSION_45f721c7-f3e8-40ec-b645-3c7e2e6210e0",
"submit_entity_id": "SCENARIO_prebinnedScenario_e78cb6e6-8b08-444f-90b5-7ce70b99d3ce",
"creation_date": "2024-03-05T12:38:01.710057",
"subscribers": [
{
"fct_name": "_Orchestrator._on_status_change",
"fct_params": [],
"fct_module": "taipy.core._orchestrator._orchestrator"
}
],
"stacktrace": [],
"version": "0.2"
}