{
"id": "JOB_convertGeVtoMeVZmass_cbcec822-a239-43b6-abf4-2d8359c003fa",
"task_id": "TASK_convertGeVtoMeVZmass_b0677e63-50a2-4992-a8fc-443f57aa4dbd",
"status": "<Status.COMPLETED: 7>",
"force": false,
"submit_id": "SUBMISSION_db8cd488-866a-4cff-b3ca-761e0a28a785",
"submit_entity_id": "SCENARIO_prebinnedScenario_2605fed3-6b68-43a5-bc8f-9c2de7cb4e68",
"creation_date": "2024-03-05T12:28:55.609450",
"subscribers": [
{
"fct_name": "_Orchestrator._on_status_change",
"fct_params": [],
"fct_module": "taipy.core._orchestrator._orchestrator"
}
],
"stacktrace": [],
"version": "0.2"
}