{
"id": "JOB_decorrelateStatZiso_b7eaf075-10de-4cd4-80b7-f2f71946ac5e",
"task_id": "TASK_decorrelateStatZiso_47bf6cc0-bd06-4aac-b9d8-40b432c544d6",
"status": "<Status.COMPLETED: 7>",
"force": false,
"submit_id": "SUBMISSION_b706f99e-ec5b-481a-a850-13e5467008ea",
"submit_entity_id": "SCENARIO_prebinnedScenario_9c4765b1-5665-4e4a-b728-1f530ef8131e",
"creation_date": "2024-03-05T17:17:29.816850",
"subscribers": [
{
"fct_name": "_Orchestrator._on_status_change",
"fct_params": [],
"fct_module": "taipy.core._orchestrator._orchestrator"
}
],
"stacktrace": [],
"version": "0.2"
}