{
"id": "JOB_readZisoStatPrebin_d609cec7-5b7c-4e3d-bced-3f3fa1ee5fbc",
"task_id": "TASK_readZisoStatPrebin_6750df78-7987-4d28-9b9c-473eb0c4932c",
"status": "<Status.COMPLETED: 7>",
"force": false,
"submit_id": "SUBMISSION_26abf15a-d54e-4f40-86e0-f97c30bb9609",
"submit_entity_id": "SCENARIO_prebinnedScenario_1f54044e-3af6-4c97-a24b-229ebfb4bf9b",
"creation_date": "2024-02-29T17:52:52.302051",
"subscribers": [
{
"fct_name": "_Orchestrator._on_status_change",
"fct_params": [],
"fct_module": "taipy.core._orchestrator._orchestrator"
}
],
"stacktrace": [],
"version": "0.1"
}