{
"id": "JOB_readZmass_287dddc2-396a-4b32-a8be-dbacb85ce750",
"task_id": "TASK_readZmass_59fc57fb-e90a-4935-bd37-34673d92ba12",
"status": "<Status.COMPLETED: 7>",
"force": false,
"submit_id": "SUBMISSION_8890a44d-4216-4adc-bc15-4ae52085ea54",
"submit_entity_id": "SCENARIO_prebinnedScenario_72466c8a-9f63-467a-984f-cf08df595fca",
"creation_date": "2024-02-29T17:47:30.871668",
"subscribers": [
{
"fct_name": "_Orchestrator._on_status_change",
"fct_params": [],
"fct_module": "taipy.core._orchestrator._orchestrator"
}
],
"stacktrace": [],
"version": "0.1"
}