{
"id": "JOB_readZmassStat_296748bf-2849-45ac-8982-44df50f68c4c",
"task_id": "TASK_readZmassStat_ab4d99b2-66b5-4432-ac47-5a37fd18f0eb",
"status": "<Status.COMPLETED: 7>",
"force": false,
"submit_id": "SUBMISSION_b706f99e-ec5b-481a-a850-13e5467008ea",
"submit_entity_id": "SCENARIO_prebinnedScenario_9c4765b1-5665-4e4a-b728-1f530ef8131e",
"creation_date": "2024-03-05T17:17:29.559462",
"subscribers": [
{
"fct_name": "_Orchestrator._on_status_change",
"fct_params": [],
"fct_module": "taipy.core._orchestrator._orchestrator"
}
],
"stacktrace": [],
"version": "0.2"
}