{
"id": "JOB_readZisoPrebin_e5b458b0-543c-4746-9864-01555c4beed7",
"task_id": "TASK_readZisoPrebin_9c6f8581-394b-424f-8048-2dc86b4b7324",
"status": "<Status.COMPLETED: 7>",
"force": false,
"submit_id": "SUBMISSION_41189474-9cb3-4b21-af56-0f0f55e963c7",
"submit_entity_id": "SCENARIO_prebinnedScenario_1ee1f01a-7025-4658-8b6f-526c883778bb",
"creation_date": "2024-02-29T18:25:32.354688",
"subscribers": [
{
"fct_name": "_Orchestrator._on_status_change",
"fct_params": [],
"fct_module": "taipy.core._orchestrator._orchestrator"
}
],
"stacktrace": [],
"version": "0.1"
}