{
"id": "JOB_convertGeVtoMeVJpsi_11a587d0-194d-4d98-a242-1bb271ae4dc4",
"task_id": "TASK_convertGeVtoMeVJpsi_8a17c28c-56fe-42b0-aa60-4640a11d28be",
"status": "<Status.COMPLETED: 7>",
"force": false,
"submit_id": "SUBMISSION_45f721c7-f3e8-40ec-b645-3c7e2e6210e0",
"submit_entity_id": "SCENARIO_prebinnedScenario_e78cb6e6-8b08-444f-90b5-7ce70b99d3ce",
"creation_date": "2024-03-05T12:38:01.909995",
"subscribers": [
{
"fct_name": "_Orchestrator._on_status_change",
"fct_params": [],
"fct_module": "taipy.core._orchestrator._orchestrator"
}
],
"stacktrace": [],
"version": "0.2"
}