{
"id": "JOB_combineZmethodshi_ebfb9aeb-812e-461f-b8b2-d3b8f5b386b9",
"task_id": "TASK_combineZmethodshi_7bf94405-6768-45e5-8bf4-1c8c2b0be304",
"status": "<Status.COMPLETED: 7>",
"force": false,
"submit_id": "SUBMISSION_41189474-9cb3-4b21-af56-0f0f55e963c7",
"submit_entity_id": "SCENARIO_prebinnedScenario_1ee1f01a-7025-4658-8b6f-526c883778bb",
"creation_date": "2024-02-29T18:25:33.389064",
"subscribers": [
{
"fct_name": "_Orchestrator._on_status_change",
"fct_params": [],
"fct_module": "taipy.core._orchestrator._orchestrator"
}
],
"stacktrace": [],
"version": "0.1"
}