{
"id": "DATANODE_ZisoRebinx_b5547886-9082-4860-9e81-9a2d8f2912c6",
"config_id": "ZisoRebinx",
"scope": "<Scope.SCENARIO: 1>",
"storage_type": "pickle",
"name": null,
"owner_id": "SCENARIO_prebinnedScenario_9c4765b1-5665-4e4a-b728-1f530ef8131e",
"parent_ids": [
"TASK_rebinLowPtZiso_039c13db-0c80-420e-91b9-84b8d8cf8d98"
],
"last_edit_date": "2024-03-05T17:21:46.902362",
"edits": [
{
"job_id": "JOB_rebinLowPtZiso_dabbc358-43ba-4d63-8d27-65bf6077b92f",
"timestamp": "2024-03-05T17:21:46.902362"
}
],
"version": "0.2",
"validity_days": null,
"validity_seconds": null,
"edit_in_progress": false,
"editor_id": null,
"editor_expiration_date": null,
"data_node_properties": {
"is_generated": true
}
}