{
"id": "DATANODE_ChiSquaredScore_b474c0d7-5bc6-405e-90fa-95f7f69dd81b",
"config_id": "ChiSquaredScore",
"scope": "<Scope.SCENARIO: 1>",
"storage_type": "pickle",
"name": null,
"owner_id": "SCENARIO_prebinnedScenario_9c4765b1-5665-4e4a-b728-1f530ef8131e",
"parent_ids": [
"TASK_chiSquared_dbda483d-dfb0-4b90-9e02-e87e49956082"
],
"last_edit_date": "2024-03-05T17:22:12.402617",
"edits": [
{
"job_id": "JOB_chiSquared_55515617-58b1-4840-ad2a-386307a302a9",
"timestamp": "2024-03-05T17:22:12.402617"
}
],
"version": "0.2",
"validity_days": null,
"validity_seconds": null,
"edit_in_progress": false,
"editor_id": null,
"editor_expiration_date": null,
"data_node_properties": {
"is_generated": true
}
}