{
"id": "DATANODE_ZisoPathPrebin_c314e331-be25-4c97-a6e2-44062e3419f9",
"config_id": "ZisoPathPrebin",
"scope": "<Scope.SCENARIO: 1>",
"storage_type": "pickle",
"name": null,
"owner_id": "SCENARIO_prebinnedScenario_1f54044e-3af6-4c97-a24b-229ebfb4bf9b",
"parent_ids": [
"TASK_readZisoStatPrebin_6750df78-7987-4d28-9b9c-473eb0c4932c",
"TASK_readZisoPrebin_7b8923b0-221a-4b4b-8bb0-120bfeabf447",
"TASK_SetPathsforPrebin_e6b13129-7eb8-4b93-a599-fadc81b6b5e7"
],
"last_edit_date": "2024-02-29T17:53:10.406989",
"edits": [
{
"job_id": "JOB_SetPathsforPrebin_a753346e-f5cc-4b59-a903-2fbc4e67e1b0",
"timestamp": "2024-02-29T17:53:10.406989"
}
],
"version": "0.1",
"validity_days": null,
"validity_seconds": null,
"edit_in_progress": false,
"editor_id": null,
"editor_expiration_date": null,
"data_node_properties": {
"is_generated": true
}
}