{
"id": "DATANODE_ZmassPathPrebin_a7eb0703-3895-4bb6-b0fd-903a87fdf239",
"config_id": "ZmassPathPrebin",
"scope": "<Scope.SCENARIO: 1>",
"storage_type": "pickle",
"name": null,
"owner_id": "SCENARIO_prebinnedScenario_1ee1f01a-7025-4658-8b6f-526c883778bb",
"parent_ids": [
"TASK_readZmassStatPrebin_7653228b-f395-45be-abad-687c30b68965",
"TASK_SetPathsforPrebin_110a52c5-e77d-47ec-a1c7-b411135cdc23",
"TASK_readZmassPrebin_040d1173-bf41-4aa8-9a7d-9844ee8d051b"
],
"last_edit_date": "2024-02-29T18:25:33.699939",
"edits": [
{
"job_id": "JOB_SetPathsforPrebin_86555fa4-63bc-403f-83bb-d77995492b47",
"timestamp": "2024-02-29T18:25:33.699939"
}
],
"version": "0.1",
"validity_days": null,
"validity_seconds": null,
"edit_in_progress": false,
"editor_id": null,
"editor_expiration_date": null,
"data_node_properties": {
"is_generated": true
}
}