{
"id": "DATANODE_Ziso_xPrebin_a07f465e-fc56-40ed-9e56-c57a3270f700",
"config_id": "Ziso_xPrebin",
"scope": "<Scope.SCENARIO: 1>",
"storage_type": "csv",
"name": null,
"owner_id": "SCENARIO_prebinnedScenario_1ee1f01a-7025-4658-8b6f-526c883778bb",
"parent_ids": [
"TASK_convertGeVtoMeVZisoPrebin_669ffd5c-47ae-4042-86ec-5975415d9e4e",
"TASK_readZisoPrebin_9c6f8581-394b-424f-8048-2dc86b4b7324"
],
"last_edit_date": "2024-02-29T18:26:41.084595",
"edits": [
{
"job_id": "JOB_readZisoPrebin_e5b458b0-543c-4746-9864-01555c4beed7",
"timestamp": "2024-02-29T18:26:41.084595"
}
],
"version": "0.1",
"validity_days": null,
"validity_seconds": null,
"edit_in_progress": false,
"editor_id": null,
"editor_expiration_date": null,
"data_node_properties": {
"exposed_type": "numpy",
"encoding": "utf-8",
"has_header": true
}
}