{
"id": "DATANODE_Zcombhi_35f05b43-1c9d-4ced-b1de-a6705a7498e2",
"config_id": "Zcombhi",
"scope": "<Scope.SCENARIO: 1>",
"storage_type": "csv",
"name": null,
"owner_id": "SCENARIO_prebinnedScenario_1ee1f01a-7025-4658-8b6f-526c883778bb",
"parent_ids": [
"TASK_combineZmethodshi_7bf94405-6768-45e5-8bf4-1c8c2b0be304"
],
"last_edit_date": "2024-02-29T18:29:34.518540",
"edits": [
{
"job_id": "JOB_combineZmethodshi_ebfb9aeb-812e-461f-b8b2-d3b8f5b386b9",
"timestamp": "2024-02-29T18:29:34.518540"
}
],
"version": "0.1",
"validity_days": null,
"validity_seconds": null,
"edit_in_progress": false,
"editor_id": null,
"editor_expiration_date": null,
"data_node_properties": {
"exposed_type": "numpy",
"encoding": "utf-8",
"has_header": true
}
}