{
"id": "DATANODE_Jpsi_922f8399-d8e4-42e1-8245-b425184c2ab5",
"config_id": "Jpsi",
"scope": "<Scope.SCENARIO: 1>",
"storage_type": "pickle",
"name": null,
"owner_id": "SCENARIO_prebinnedScenario_e78cb6e6-8b08-444f-90b5-7ce70b99d3ce",
"parent_ids": [
"TASK_readJpsiPrebin_666c4aca-effd-41ce-bf32-b200ee4f7da5",
"TASK_decorrelateSystJpsi_b827cfdb-279f-4061-a8e0-3f9e268e7f73"
],
"last_edit_date": "2024-03-05T12:39:32.180246",
"edits": [
{
"job_id": "JOB_readJpsiPrebin_c92b83cd-2fe6-4b39-a3bf-b4e51fbe49af",
"timestamp": "2024-03-05T12:39:32.180246"
}
],
"version": "0.2",
"validity_days": null,
"validity_seconds": null,
"edit_in_progress": false,
"editor_id": null,
"editor_expiration_date": null,
"data_node_properties": {
"is_generated": true
}
}