{
"id": "DATANODE_Zmasshiy_7db1e467-b94f-4915-ac27-c08d588b9cfd",
"config_id": "Zmasshiy",
"scope": "<Scope.SCENARIO: 1>",
"storage_type": "pickle",
"name": null,
"owner_id": "SCENARIO_prebinnedScenario_2605fed3-6b68-43a5-bc8f-9c2de7cb4e68",
"parent_ids": [
"TASK_rebinLowPtZmass_09150ab4-2068-49f1-82ae-a0afb4ebff00"
],
"last_edit_date": "2024-03-05T12:32:03.021916",
"edits": [
{
"job_id": "JOB_rebinLowPtZmass_9990c7cd-17d6-4633-912a-b8b18a7ff38d",
"timestamp": "2024-03-05T12:32:03.021916"
}
],
"version": "0.2",
"validity_days": null,
"validity_seconds": null,
"edit_in_progress": false,
"editor_id": null,
"editor_expiration_date": null,
"data_node_properties": {
"is_generated": true
}
}