{
"id": "DATANODE_ZisoDecorr_41da80ba-2a8b-4757-88d6-cca88dfa3d5b",
"config_id": "ZisoDecorr",
"scope": "<Scope.SCENARIO: 1>",
"storage_type": "pickle",
"name": null,
"owner_id": "SCENARIO_prebinnedScenario_605c438e-8a57-4267-9d67-ba7a0cafa6b3",
"parent_ids": [
"TASK_decorrelateSyst_cd2df44a-882d-48f8-9846-d4f5e2ecc4f3",
"TASK_decorrelateStatZiso_2b5b8030-af93-4e7a-a15b-06ca684ce37e"
],
"last_edit_date": null,
"edits": [],
"version": "0.2",
"validity_days": null,
"validity_seconds": null,
"edit_in_progress": false,
"editor_id": null,
"editor_expiration_date": null,
"data_node_properties": {
"is_generated": true
}
}