{
"id": "DATANODE_Zisohix_6a896f18-399e-4f4b-8018-113460d95ca1",
"config_id": "Zisohix",
"scope": "<Scope.SCENARIO: 1>",
"storage_type": "pickle",
"name": null,
"owner_id": "SCENARIO_prebinnedScenario_2605fed3-6b68-43a5-bc8f-9c2de7cb4e68",
"parent_ids": [
"TASK_rebinLowPtZiso_864d1fef-191a-47f8-9721-612ad5161886",
"TASK_combineZmethodshi_1c3c49ec-15b2-460c-bf0f-454a1e97cede"
],
"last_edit_date": "2024-03-05T12:32:03.702702",
"edits": [
{
"job_id": "JOB_rebinLowPtZiso_4ce44f6d-50f6-41ae-a7bb-2624239c8328",
"timestamp": "2024-03-05T12:32:03.702702"
}
],
"version": "0.2",
"validity_days": null,
"validity_seconds": null,
"edit_in_progress": false,
"editor_id": null,
"editor_expiration_date": null,
"data_node_properties": {
"is_generated": true
}
}