{
"id": "DATANODE_RebinMethod_47d7f633-4b5e-4faf-8326-85e0d27c0640",
"config_id": "RebinMethod",
"scope": "<Scope.SCENARIO: 1>",
"storage_type": "pickle",
"name": null,
"owner_id": "SCENARIO_prebinnedScenario_9c4765b1-5665-4e4a-b728-1f530ef8131e",
"parent_ids": [
"TASK_rebinLowPtZiso_039c13db-0c80-420e-91b9-84b8d8cf8d98",
"TASK_rebinLowPtZmass_38e3a96e-0752-47b3-a0db-ebc6b55a06fe"
],
"last_edit_date": "2024-03-05T17:17:27.624936",
"edits": [
{
"timestamp": "2024-03-05T17:17:26.318723",
"writer_identifier": "TAIPY",
"comments": "Default data written."
},
{
"timestamp": "2024-03-05T17:17:27.624936"
}
],
"version": "0.2",
"validity_days": null,
"validity_seconds": null,
"edit_in_progress": false,
"editor_id": null,
"editor_expiration_date": null,
"data_node_properties": {
"is_generated": true
}
}