{
"id": "DATANODE_ZmassSystDecorrPrebin_3e10f3c9-500a-4402-9734-2dadc648c5f5",
"config_id": "ZmassSystDecorrPrebin",
"scope": "<Scope.SCENARIO: 1>",
"storage_type": "pickle",
"name": null,
"owner_id": "SCENARIO_prebinnedScenario_e78cb6e6-8b08-444f-90b5-7ce70b99d3ce",
"parent_ids": [
"TASK_decorrelateSystPrebin_a8f6859e-e694-441e-b8ef-7e3bbc2af1bb",
"TASK_combineZmethodsRebinPrebin_a4fdb3b5-21ff-4789-a16a-f3b72f598986"
],
"last_edit_date": "2024-03-05T12:41:33.413986",
"edits": [
{
"job_id": "JOB_decorrelateSystPrebin_ea5d9c2b-869b-4c48-a4bd-988469c0cdda",
"timestamp": "2024-03-05T12:41:33.413986"
}
],
"version": "0.2",
"validity_days": null,
"validity_seconds": null,
"edit_in_progress": false,
"editor_id": null,
"editor_expiration_date": null,
"data_node_properties": {
"is_generated": true
}
}