{
"id": "DATANODE_ZcombxPrebin_8b1ef0a0-1cf3-4318-a828-88bb4590d76c",
"config_id": "ZcombxPrebin",
"scope": "<Scope.SCENARIO: 1>",
"storage_type": "pickle",
"name": null,
"owner_id": "SCENARIO_prebinnedScenario_605c438e-8a57-4267-9d67-ba7a0cafa6b3",
"parent_ids": [
"TASK_combineZmethodsRebinPrebin_e6c95b52-1220-4e31-888d-f01d8a8a1821",
"TASK_consistentBinningPrebin_dc62d54b-bda3-448d-8b15-2d13c8d6e919",
"TASK_decorrelateSystPrebin_4b6349ab-7a27-4fe7-8da5-fc6bdaff82f9"
],
"last_edit_date": null,
"edits": [],
"version": "0.2",
"validity_days": null,
"validity_seconds": null,
"edit_in_progress": false,
"editor_id": null,
"editor_expiration_date": null,
"data_node_properties": {
"is_generated": true
}
}