{
"id": "DATANODE_Jpsi_x_9ed06bd2-f07f-43ac-b1fa-dd27c855fc05",
"config_id": "Jpsi_x",
"scope": "<Scope.SCENARIO: 1>",
"storage_type": "csv",
"name": null,
"owner_id": "SCENARIO_prebinnedScenario_1ee1f01a-7025-4658-8b6f-526c883778bb",
"parent_ids": [
"TASK_readJpsiPrebin_59203db7-27a4-446a-ae3b-c785ab3bb635",
"TASK_convertGeVtoMeVJpsi_2ae909cb-aabb-4902-9631-a7226956ee8f"
],
"last_edit_date": "2024-02-29T18:27:02.147575",
"edits": [
{
"job_id": "JOB_readJpsiPrebin_b944f294-1d1d-4b25-8d2d-8a3817c809f0",
"timestamp": "2024-02-29T18:27:02.147575"
}
],
"version": "0.1",
"validity_days": null,
"validity_seconds": null,
"edit_in_progress": false,
"editor_id": null,
"editor_expiration_date": null,
"data_node_properties": {
"exposed_type": "numpy",
"encoding": "utf-8",
"has_header": true
}
}