{
"id": "DATANODE_RebinMethod_5b0321b2-fd00-4a8b-81ff-80c8282246d3",
"config_id": "RebinMethod",
"scope": "<Scope.SCENARIO: 1>",
"storage_type": "pickle",
"name": null,
"owner_id": "SCENARIO_prebinnedScenario_2605fed3-6b68-43a5-bc8f-9c2de7cb4e68",
"parent_ids": [
"TASK_rebinLowPtZiso_864d1fef-191a-47f8-9721-612ad5161886",
"TASK_rebinLowPtZmass_09150ab4-2068-49f1-82ae-a0afb4ebff00"
],
"last_edit_date": "2024-03-05T12:28:48.846690",
"edits": [
{
"timestamp": "2024-03-05T12:28:47.481759",
"writer_identifier": "TAIPY",
"comments": "Default data written."
},
{
"timestamp": "2024-03-05T12:28:48.846690"
}
],
"version": "0.2",
"validity_days": null,
"validity_seconds": null,
"edit_in_progress": false,
"editor_id": null,
"editor_expiration_date": null,
"data_node_properties": {
"is_generated": true
}
}