{
"id": "DATANODE_Ziso_5c7e63fd-458e-4348-a078-54c36f2b8f7e",
"config_id": "Ziso",
"scope": "<Scope.SCENARIO: 1>",
"storage_type": "pickle",
"name": null,
"owner_id": "SCENARIO_prebinnedScenario_e78cb6e6-8b08-444f-90b5-7ce70b99d3ce",
"parent_ids": [
"TASK_decorrelateStatZiso_9d6d0a52-afd4-46f2-8a30-9c8a32f0935d",
"TASK_readZiso_8d336813-ecae-4e60-aba1-35fca219fdce"
],
"last_edit_date": "2024-03-05T12:39:42.856827",
"edits": [
{
"job_id": "JOB_readZiso_c791e5dc-b74c-495f-a48b-6adba4d92a74",
"timestamp": "2024-03-05T12:39:42.856827"
}
],
"version": "0.2",
"validity_days": null,
"validity_seconds": null,
"edit_in_progress": false,
"editor_id": null,
"editor_expiration_date": null,
"data_node_properties": {
"is_generated": true
}
}