{
"id": "DATANODE_ZJpsicomb_38220af4-80ec-45d7-b605-b9bd1f41e65e",
"config_id": "ZJpsicomb",
"scope": "<Scope.SCENARIO: 1>",
"storage_type": "csv",
"name": null,
"owner_id": "SCENARIO_prebinnedScenario_72466c8a-9f63-467a-984f-cf08df595fca",
"parent_ids": [
"TASK_combineHera_7dc41f21-1445-42ac-b198-8a018bbe8f3b",
"TASK_chiSquared_55b05848-5927-439d-8f88-e32981354d82"
],
"last_edit_date": "2024-02-29T17:51:54.044081",
"edits": [
{
"job_id": "JOB_combineHera_0571fd0c-6192-46d4-b2be-b2cb135358b7",
"timestamp": "2024-02-29T17:51:54.044081"
}
],
"version": "0.1",
"validity_days": null,
"validity_seconds": null,
"edit_in_progress": false,
"editor_id": null,
"editor_expiration_date": null,
"data_node_properties": {
"exposed_type": "numpy",
"encoding": "utf-8",
"has_header": true
}
}