{
"id": "DATANODE_Zisohi_4acdfb8f-c0e1-4014-a6d1-a4fa88699c7f",
"config_id": "Zisohi",
"scope": "<Scope.SCENARIO: 1>",
"storage_type": "pickle",
"name": null,
"owner_id": "SCENARIO_prebinnedScenario_b8e48400-1ead-43af-8b47-0e5564d1e919",
"parent_ids": [
"TASK_rebinLowPtZiso_d0cdc951-ce72-463a-95fe-17db384bbe1f",
"TASK_combineZmethodshi_1d8ef296-b44b-40f7-a122-ee2230c62f0b"
],
"last_edit_date": null,
"edits": [],
"version": "0.2",
"validity_days": null,
"validity_seconds": null,
"edit_in_progress": false,
"editor_id": null,
"editor_expiration_date": null,
"data_node_properties": {
"is_generated": true
}
}