{
"id": "DATANODE_ZisoDecorr_e6101e21-b96c-410f-81cc-52ed25355856",
"config_id": "ZisoDecorr",
"scope": "<Scope.SCENARIO: 1>",
"storage_type": "pickle",
"name": null,
"owner_id": "SCENARIO_prebinnedScenario_9c4765b1-5665-4e4a-b728-1f530ef8131e",
"parent_ids": [
"TASK_decorrelateStatZiso_47bf6cc0-bd06-4aac-b9d8-40b432c544d6",
"TASK_decorrelateSyst_f5f0b9fc-b937-49fb-a8f8-7ce3c55da685"
],
"last_edit_date": "2024-03-05T17:21:21.434225",
"edits": [
{
"job_id": "JOB_decorrelateStatZiso_b7eaf075-10de-4cd4-80b7-f2f71946ac5e",
"timestamp": "2024-03-05T17:21:21.434225"
}
],
"version": "0.2",
"validity_days": null,
"validity_seconds": null,
"edit_in_progress": false,
"editor_id": null,
"editor_expiration_date": null,
"data_node_properties": {
"is_generated": true
}
}