{
"id": "DATANODE_Jpsi_y_6d627740-c1d2-4a25-8222-c9f50df0ecaf",
"config_id": "Jpsi_y",
"scope": "<Scope.SCENARIO: 1>",
"storage_type": "csv",
"name": null,
"owner_id": "SCENARIO_prebinnedScenario_72466c8a-9f63-467a-984f-cf08df595fca",
"parent_ids": [
"TASK_decorrelateSystJpsi_0015f6f8-170a-4a44-a0f6-f14bc0b8c35e",
"TASK_combineHera_7dc41f21-1445-42ac-b198-8a018bbe8f3b",
"TASK_readJpsiPrebin_90c4c123-9be9-4b06-9e62-945a19c98a85",
"TASK_chiSquared_55b05848-5927-439d-8f88-e32981354d82"
],
"last_edit_date": "2024-02-29T17:48:57.753256",
"edits": [
{
"job_id": "JOB_readJpsiPrebin_2661a70c-7cb2-48e5-b000-d2e1ccd5b7a6",
"timestamp": "2024-02-29T17:48:57.753256"
}
],
"version": "0.1",
"validity_days": null,
"validity_seconds": null,
"edit_in_progress": false,
"editor_id": null,
"editor_expiration_date": null,
"data_node_properties": {
"exposed_type": "numpy",
"encoding": "utf-8",
"has_header": true
}
}