{
"id": "DATANODE_Zmass_xMeVPrebin_5145d884-4f71-4d71-aeaa-f8c1b4cab536",
"config_id": "Zmass_xMeVPrebin",
"scope": "<Scope.SCENARIO: 1>",
"storage_type": "csv",
"name": null,
"owner_id": "SCENARIO_prebinnedScenario_72466c8a-9f63-467a-984f-cf08df595fca",
"parent_ids": [
"TASK_convertGeVtoMeVZmassPrebin_a9a350fd-5628-4133-9d8c-e20f26b897b8",
"TASK_decorrelateStatZmassPrebin_c67022b1-3a7c-4d56-8182-f8c456892e29",
"TASK_consistentBinningPrebin_c878c341-a2eb-4057-8993-a1999f1c659b"
],
"last_edit_date": "2024-02-29T17:50:22.588633",
"edits": [
{
"job_id": "JOB_convertGeVtoMeVZmassPrebin_89ef2e51-32c9-4f2d-9bb8-7577b6f757a3",
"timestamp": "2024-02-29T17:50:22.588633"
}
],
"version": "0.1",
"validity_days": null,
"validity_seconds": null,
"edit_in_progress": false,
"editor_id": null,
"editor_expiration_date": null,
"data_node_properties": {
"exposed_type": "numpy",
"encoding": "utf-8",
"has_header": true
}
}