{
"id": "DATANODE_ZmassDecorrPrebin_7228409c-e6cf-40fa-abc9-2c558649a45c",
"config_id": "ZmassDecorrPrebin",
"scope": "<Scope.SCENARIO: 1>",
"storage_type": "csv",
"name": null,
"owner_id": "SCENARIO_prebinnedScenario_1f54044e-3af6-4c97-a24b-229ebfb4bf9b",
"parent_ids": [
"TASK_decorrelateStatZmassPrebin_f2350bb0-bd9c-4ffa-8f5e-f6ee10b0e488",
"TASK_decorrelateSystPrebin_10276a0b-cc61-4514-9693-2419ce9a2942"
],
"last_edit_date": "2024-02-29T17:56:08.691347",
"edits": [
{
"job_id": "JOB_decorrelateStatZmassPrebin_f7064bc5-23af-45f2-9168-d6211dcaa254",
"timestamp": "2024-02-29T17:56:08.691347"
}
],
"version": "0.1",
"validity_days": null,
"validity_seconds": null,
"edit_in_progress": false,
"editor_id": null,
"editor_expiration_date": null,
"data_node_properties": {
"exposed_type": "numpy",
"encoding": "utf-8",
"has_header": true
}
}