{
"id": "DATANODE_Zmasslo_72f1e02a-cc68-4c4e-bff8-0c0e5c8b2efe",
"config_id": "Zmasslo",
"scope": "<Scope.SCENARIO: 1>",
"storage_type": "csv",
"name": null,
"owner_id": "SCENARIO_prebinnedScenario_1ee1f01a-7025-4658-8b6f-526c883778bb",
"parent_ids": [
"TASK_rebinLowPtZmass_e655f939-c542-487d-8c82-1ed3f28e5847",
"TASK_combineZmethodslo_a5259786-bcf7-4e64-87bd-f85fc85040d7"
],
"last_edit_date": "2024-02-29T18:29:29.000409",
"edits": [
{
"job_id": "JOB_rebinLowPtZmass_4a72d0f6-4fca-44cb-888d-7b06708bf478",
"timestamp": "2024-02-29T18:29:29.000409"
}
],
"version": "0.1",
"validity_days": null,
"validity_seconds": null,
"edit_in_progress": false,
"editor_id": null,
"editor_expiration_date": null,
"data_node_properties": {
"exposed_type": "numpy",
"encoding": "utf-8",
"has_header": true
}
}