{
"id": "DATANODE_Zisoloy_6c8eb6ca-7024-4572-b5db-0f7f5d02d7c7",
"config_id": "Zisoloy",
"scope": "<Scope.SCENARIO: 1>",
"storage_type": "pickle",
"name": null,
"owner_id": "SCENARIO_prebinnedScenario_9c4765b1-5665-4e4a-b728-1f530ef8131e",
"parent_ids": [
"TASK_rebinLowPtZiso_039c13db-0c80-420e-91b9-84b8d8cf8d98",
"TASK_combineZmethodslo_c5230dee-9927-4ed0-b216-0aec0544cd12"
],
"last_edit_date": "2024-03-05T17:21:46.938680",
"edits": [
{
"job_id": "JOB_rebinLowPtZiso_dabbc358-43ba-4d63-8d27-65bf6077b92f",
"timestamp": "2024-03-05T17:21:46.938680"
}
],
"version": "0.2",
"validity_days": null,
"validity_seconds": null,
"edit_in_progress": false,
"editor_id": null,
"editor_expiration_date": null,
"data_node_properties": {
"is_generated": true
}
}