{
"id": "DATANODE_ZmassPath_17098d3a-9fd2-4cf3-b73a-0b41cbeb8273",
"config_id": "ZmassPath",
"scope": "<Scope.SCENARIO: 1>",
"storage_type": "pickle",
"name": null,
"owner_id": "SCENARIO_prebinnedScenario_2605fed3-6b68-43a5-bc8f-9c2de7cb4e68",
"parent_ids": [
"TASK_SetPaths_6558f604-950e-46c1-9cc6-459639f4bcc4",
"TASK_readZmass_5e149245-59e1-4587-bfd7-344531211226",
"TASK_readZmassStat_ba76004a-9654-47eb-a471-8e046bc9959e"
],
"last_edit_date": "2024-03-05T12:29:04.363130",
"edits": [
{
"timestamp": "2024-03-05T12:28:47.485140",
"writer_identifier": "TAIPY",
"comments": "Default data written."
},
{
"job_id": "JOB_SetPaths_21628d1c-c99e-4ed8-b9f7-e0df5869868d",
"timestamp": "2024-03-05T12:29:04.363130"
}
],
"version": "0.2",
"validity_days": null,
"validity_seconds": null,
"edit_in_progress": false,
"editor_id": null,
"editor_expiration_date": null,
"data_node_properties": {
"is_generated": true
}
}