{
"id": "DATANODE_ZmassSystDecorrPrebin_74c0e2bd-7136-4ce7-b7e3-5d833369a2be",
"config_id": "ZmassSystDecorrPrebin",
"scope": "<Scope.SCENARIO: 1>",
"storage_type": "csv",
"name": null,
"owner_id": "SCENARIO_prebinnedScenario_1ee1f01a-7025-4658-8b6f-526c883778bb",
"parent_ids": [
"TASK_decorrelateSystPrebin_ec0b7cb4-43cc-481d-af91-3044677f0aea",
"TASK_combineZmethodsRebinPrebin_ecfc638d-6274-4592-9262-03c1ad43936f"
],
"last_edit_date": "2024-02-29T18:29:21.620223",
"edits": [
{
"job_id": "JOB_decorrelateSystPrebin_a19fe2c1-dfa1-465a-8cc6-cdb417538e07",
"timestamp": "2024-02-29T18:29:21.620223"
}
],
"version": "0.1",
"validity_days": null,
"validity_seconds": null,
"edit_in_progress": false,
"editor_id": null,
"editor_expiration_date": null,
"data_node_properties": {
"exposed_type": "numpy",
"encoding": "utf-8",
"has_header": true
}
}