{
"id": "DATANODE_ZmassStatUncorrCorrPrebin_9da5e59c-9782-4195-b045-4710cbd43f49",
"config_id": "ZmassStatUncorrCorrPrebin",
"scope": "<Scope.SCENARIO: 1>",
"storage_type": "pickle",
"name": null,
"owner_id": "SCENARIO_prebinnedScenario_605c438e-8a57-4267-9d67-ba7a0cafa6b3",
"parent_ids": [
"TASK_readZmassStatPrebin_fffd90a8-6caa-46ca-beef-dcf5c94b7e90",
"TASK_decorrelateStatZmassPrebin_d58ff71d-c645-41ea-af95-b03008436936"
],
"last_edit_date": null,
"edits": [],
"version": "0.2",
"validity_days": null,
"validity_seconds": null,
"edit_in_progress": false,
"editor_id": null,
"editor_expiration_date": null,
"data_node_properties": {
"is_generated": true
}
}