{
"id": "DATANODE_ZisoPathPrebin_6010015b-ce10-497b-afbb-f0f3addcf591",
"config_id": "ZisoPathPrebin",
"scope": "<Scope.SCENARIO: 1>",
"storage_type": "pickle",
"name": null,
"owner_id": "SCENARIO_prebinnedScenario_b8e48400-1ead-43af-8b47-0e5564d1e919",
"parent_ids": [
"TASK_readZisoStatPrebin_fd72df5d-56c3-4a44-a31c-60a76df7d6de",
"TASK_SetPathsforPrebin_e8096c9f-9df8-409f-bfc4-462d79162571",
"TASK_readZisoPrebin_02a814de-8040-4c83-9ec7-cf836407164d"
],
"last_edit_date": null,
"edits": [],
"version": "0.2",
"validity_days": null,
"validity_seconds": null,
"edit_in_progress": false,
"editor_id": null,
"editor_expiration_date": null,
"data_node_properties": {
"is_generated": true
}
}