{
"id": "DATANODE_Zmass_yPrebin_b0090b3c-875b-4716-917a-861c9beb7c97",
"config_id": "Zmass_yPrebin",
"scope": "<Scope.SCENARIO: 1>",
"storage_type": "pickle",
"name": null,
"owner_id": "SCENARIO_prebinnedScenario_2605fed3-6b68-43a5-bc8f-9c2de7cb4e68",
"parent_ids": [
"TASK_decorrelateStatZmassPrebin_15ed6129-1465-45bd-92df-35d2b6892720",
"TASK_consistentBinningPrebin_81a70ce7-c5a6-4f59-b7e9-16c360ae661c",
"TASK_readZmassPrebin_39679bf2-616d-4da1-87f1-d361ee029a00"
],
"last_edit_date": "2024-03-05T12:29:42.712051",
"edits": [
{
"job_id": "JOB_readZmassPrebin_4a6c0542-73ae-4cae-85bb-d1205e162ddf",
"timestamp": "2024-03-05T12:29:42.712051"
}
],
"version": "0.2",
"validity_days": null,
"validity_seconds": null,
"edit_in_progress": false,
"editor_id": null,
"editor_expiration_date": null,
"data_node_properties": {
"is_generated": true
}
}