{
"id": "DATANODE_ZmassRebin_184648e2-cabd-4e97-be52-a52bf92bb172",
"config_id": "ZmassRebin",
"scope": "<Scope.SCENARIO: 1>",
"storage_type": "csv",
"name": null,
"owner_id": "SCENARIO_prebinnedScenario_1f54044e-3af6-4c97-a24b-229ebfb4bf9b",
"parent_ids": [
"TASK_rebinLowPtZmass_9b05dbdd-34b7-4d11-acc4-7f02b614e206"
],
"last_edit_date": "2024-02-29T17:56:21.835848",
"edits": [
{
"job_id": "JOB_rebinLowPtZmass_7e19df72-344c-4379-8b6d-65a53704f145",
"timestamp": "2024-02-29T17:56:21.835848"
}
],
"version": "0.1",
"validity_days": null,
"validity_seconds": null,
"edit_in_progress": false,
"editor_id": null,
"editor_expiration_date": null,
"data_node_properties": {
"exposed_type": "numpy",
"encoding": "utf-8",
"has_header": true
}
}