{
"id": "DATANODE_Zisolox_b7f132fa-77bc-4cd1-b328-dd20f2dd2db9",
"config_id": "Zisolox",
"scope": "<Scope.SCENARIO: 1>",
"storage_type": "pickle",
"name": null,
"owner_id": "SCENARIO_prebinnedScenario_b8e48400-1ead-43af-8b47-0e5564d1e919",
"parent_ids": [
"TASK_rebinLowPtZiso_d0cdc951-ce72-463a-95fe-17db384bbe1f",
"TASK_combineZmethodslo_a806adaa-d014-4222-8e70-d64b3a610abc"
],
"last_edit_date": null,
"edits": [],
"version": "0.2",
"validity_days": null,
"validity_seconds": null,
"edit_in_progress": false,
"editor_id": null,
"editor_expiration_date": null,
"data_node_properties": {
"is_generated": true
}
}