{
"id": "DATANODE_ZmassSystDecorrPrebin_2ddbd87b-0dd8-401a-8c75-89a782569d4b",
"config_id": "ZmassSystDecorrPrebin",
"scope": "<Scope.SCENARIO: 1>",
"storage_type": "pickle",
"name": null,
"owner_id": "SCENARIO_prebinnedScenario_2605fed3-6b68-43a5-bc8f-9c2de7cb4e68",
"parent_ids": [
"TASK_combineZmethodsRebinPrebin_a7d6adaf-7a5c-41b3-a472-e817c0296585",
"TASK_decorrelateSystPrebin_7d6f1201-4552-4b54-b5a5-2ec5daea194c"
],
"last_edit_date": "2024-03-05T12:31:55.522067",
"edits": [
{
"job_id": "JOB_decorrelateSystPrebin_4b84a907-4b5d-40bf-8246-e7e56348909d",
"timestamp": "2024-03-05T12:31:55.522067"
}
],
"version": "0.2",
"validity_days": null,
"validity_seconds": null,
"edit_in_progress": false,
"editor_id": null,
"editor_expiration_date": null,
"data_node_properties": {
"is_generated": true
}
}