{
"id": "DATANODE_ZisoStatUncorrCorrPrebin_63aa6a6c-7286-4214-ad81-ff3862daddf3",
"config_id": "ZisoStatUncorrCorrPrebin",
"scope": "<Scope.SCENARIO: 1>",
"storage_type": "pickle",
"name": null,
"owner_id": "SCENARIO_prebinnedScenario_605c438e-8a57-4267-9d67-ba7a0cafa6b3",
"parent_ids": [
"TASK_decorrelateStatZisoPrebin_3a57f589-9e68-45f8-9969-12de2b17853a",
"TASK_readZisoStatPrebin_4fbb7b5c-b574-4a7d-ba36-fe0df6e4c38b"
],
"last_edit_date": null,
"edits": [],
"version": "0.2",
"validity_days": null,
"validity_seconds": null,
"edit_in_progress": false,
"editor_id": null,
"editor_expiration_date": null,
"data_node_properties": {
"is_generated": true
}
}