{
"id": "DATANODE_Zisohiy_bbe4b99f-fb11-4a12-821d-14918f9fe80b",
"config_id": "Zisohiy",
"scope": "<Scope.SCENARIO: 1>",
"storage_type": "csv",
"name": null,
"owner_id": "SCENARIO_prebinnedScenario_1ee1f01a-7025-4658-8b6f-526c883778bb",
"parent_ids": [
"TASK_rebinLowPtZiso_31db1239-7b9b-4352-9d67-445a99fed0b9",
"TASK_combineZmethodshi_7bf94405-6768-45e5-8bf4-1c8c2b0be304"
],
"last_edit_date": "2024-02-29T18:29:29.562538",
"edits": [
{
"job_id": "JOB_rebinLowPtZiso_cbb3ae84-bc74-472b-b43c-d234a682121e",
"timestamp": "2024-02-29T18:29:29.562538"
}
],
"version": "0.1",
"validity_days": null,
"validity_seconds": null,
"edit_in_progress": false,
"editor_id": null,
"editor_expiration_date": null,
"data_node_properties": {
"exposed_type": "numpy",
"encoding": "utf-8",
"has_header": true
}
}