{
"id": "DATANODE_Zcombhi_56301e03-a5b5-433c-a35a-9e97ce8599c5",
"config_id": "Zcombhi",
"scope": "<Scope.SCENARIO: 1>",
"storage_type": "csv",
"name": null,
"owner_id": "SCENARIO_prebinnedScenario_1f54044e-3af6-4c97-a24b-229ebfb4bf9b",
"parent_ids": [
"TASK_combineZmethodshi_ad36ab2c-d7d0-41b6-b37d-fa3ef5763fde"
],
"last_edit_date": "2024-02-29T17:56:30.313252",
"edits": [
{
"job_id": "JOB_combineZmethodshi_7c818013-008b-4e02-9d34-2084a258ab56",
"timestamp": "2024-02-29T17:56:30.313252"
}
],
"version": "0.1",
"validity_days": null,
"validity_seconds": null,
"edit_in_progress": false,
"editor_id": null,
"editor_expiration_date": null,
"data_node_properties": {
"exposed_type": "numpy",
"encoding": "utf-8",
"has_header": true
}
}