{
"id": "DATANODE_Zmass_yPrebin_38eb4ba0-85fb-4016-a403-881a7df5b681",
"config_id": "Zmass_yPrebin",
"scope": "<Scope.SCENARIO: 1>",
"storage_type": "pickle",
"name": null,
"owner_id": "SCENARIO_prebinnedScenario_e78cb6e6-8b08-444f-90b5-7ce70b99d3ce",
"parent_ids": [
"TASK_consistentBinningPrebin_4d4009ba-8e5c-4d66-b391-b42605d41d98",
"TASK_readZmassPrebin_735fa908-6fe4-40cc-8727-3f71c7144855",
"TASK_decorrelateStatZmassPrebin_22064ce2-66ad-4de3-b697-a7177087b46f"
],
"last_edit_date": "2024-03-05T12:39:57.032254",
"edits": [
{
"job_id": "JOB_readZmassPrebin_9c6fbaec-abae-4564-bad2-fa6938515706",
"timestamp": "2024-03-05T12:39:57.032254"
}
],
"version": "0.2",
"validity_days": null,
"validity_seconds": null,
"edit_in_progress": false,
"editor_id": null,
"editor_expiration_date": null,
"data_node_properties": {
"is_generated": true
}
}