{
"id": "DATANODE_ZmassPrebin_77c2d87e-f0fd-4fff-bac5-dab2cd2c3416",
"config_id": "ZmassPrebin",
"scope": "<Scope.SCENARIO: 1>",
"storage_type": "csv",
"name": null,
"owner_id": "SCENARIO_prebinnedScenario_72466c8a-9f63-467a-984f-cf08df595fca",
"parent_ids": [
"TASK_readZmassPrebin_73d65320-938a-4c5d-8409-e1dd341f211d",
"TASK_decorrelateStatZmassPrebin_c67022b1-3a7c-4d56-8182-f8c456892e29"
],
"last_edit_date": "2024-02-29T17:49:36.633668",
"edits": [
{
"job_id": "JOB_readZmassPrebin_d8e81250-fa67-448c-833e-02057f91c8a6",
"timestamp": "2024-02-29T17:49:36.633668"
}
],
"version": "0.1",
"validity_days": null,
"validity_seconds": null,
"edit_in_progress": false,
"editor_id": null,
"editor_expiration_date": null,
"data_node_properties": {
"exposed_type": "numpy",
"encoding": "utf-8",
"has_header": true
}
}