{
"id": "DATANODE_ZisoMethodName_aa650c25-bf2f-4f34-bc2d-2f7912856b96",
"config_id": "ZisoMethodName",
"scope": "<Scope.SCENARIO: 1>",
"storage_type": "pickle",
"name": null,
"owner_id": "SCENARIO_prebinnedScenario_e78cb6e6-8b08-444f-90b5-7ce70b99d3ce",
"parent_ids": [
"TASK_rebinLowPtZiso_1155c517-5ae8-45e7-9660-ab27c6e3eb81"
],
"last_edit_date": "2024-03-05T12:37:58.618920",
"edits": [
{
"timestamp": "2024-03-05T12:37:58.618920",
"writer_identifier": "TAIPY",
"comments": "Default data written."
}
],
"version": "0.2",
"validity_days": null,
"validity_seconds": null,
"edit_in_progress": false,
"editor_id": null,
"editor_expiration_date": null,
"data_node_properties": {
"is_generated": true
}
}