{
"id": "DATANODE_ZcombRebin_529f2264-0ff7-4e77-b99c-6c5ccf739126",
"config_id": "ZcombRebin",
"scope": "<Scope.SCENARIO: 1>",
"storage_type": "pickle",
"name": null,
"owner_id": "SCENARIO_prebinnedScenario_2605fed3-6b68-43a5-bc8f-9c2de7cb4e68",
"parent_ids": [
"TASK_decorrelateSystJpsi_164d5a94-b228-44a2-b6d7-d8549e7a7da1",
"TASK_combineZmethodsRebinPrebin_a7d6adaf-7a5c-41b3-a472-e817c0296585"
],
"last_edit_date": "2024-03-05T12:32:02.240639",
"edits": [
{
"job_id": "JOB_combineZmethodsRebinPrebin_98732f01-db4d-4864-b953-7d11349609bb",
"timestamp": "2024-03-05T12:32:02.240639"
}
],
"version": "0.2",
"validity_days": null,
"validity_seconds": null,
"edit_in_progress": false,
"editor_id": null,
"editor_expiration_date": null,
"data_node_properties": {
"is_generated": true
}
}