{
"id": "DATANODE_Ziso_x_864dc357-678b-4d54-817a-b6782d84d1bd",
"config_id": "Ziso_x",
"scope": "<Scope.SCENARIO: 1>",
"storage_type": "csv",
"name": null,
"owner_id": "SCENARIO_prebinnedScenario_72466c8a-9f63-467a-984f-cf08df595fca",
"parent_ids": [
"TASK_readZiso_1470d012-90bd-48bc-89a8-ddc793140fba",
"TASK_convertGeVtoMeVZiso_441bb452-b0ca-4266-bb01-8bb2dfe9a9bd"
],
"last_edit_date": "2024-02-29T17:49:55.341900",
"edits": [
{
"job_id": "JOB_readZiso_94d22e63-a520-45b7-87b3-737f3426e9e0",
"timestamp": "2024-02-29T17:49:55.341900"
}
],
"version": "0.1",
"validity_days": null,
"validity_seconds": null,
"edit_in_progress": false,
"editor_id": null,
"editor_expiration_date": null,
"data_node_properties": {
"exposed_type": "numpy",
"encoding": "utf-8",
"has_header": true
}
}