{
"id": "DATANODE_ZmassPrebin_14923c70-b06f-43e8-8208-0b9f5096149c",
"config_id": "ZmassPrebin",
"scope": "<Scope.SCENARIO: 1>",
"storage_type": "pickle",
"name": null,
"owner_id": "SCENARIO_prebinnedScenario_b8e48400-1ead-43af-8b47-0e5564d1e919",
"parent_ids": [
"TASK_decorrelateStatZmassPrebin_3faafb5a-371d-49df-ace8-f45d9b190011",
"TASK_readZmassPrebin_b9a8fb5e-55f4-4f36-93d6-10a748484249"
],
"last_edit_date": null,
"edits": [],
"version": "0.2",
"validity_days": null,
"validity_seconds": null,
"edit_in_progress": false,
"editor_id": null,
"editor_expiration_date": null,
"data_node_properties": {
"is_generated": true
}
}