{
"id": "DATANODE_JpsiSystDecorr_20d9ec8d-74a7-4052-96a6-47b5136f6533",
"config_id": "JpsiSystDecorr",
"scope": "<Scope.SCENARIO: 1>",
"storage_type": "pickle",
"name": null,
"owner_id": "SCENARIO_prebinnedScenario_9c4765b1-5665-4e4a-b728-1f530ef8131e",
"parent_ids": [
"TASK_combineHera_ca03a51e-8209-44b7-ac97-17161f988d02",
"TASK_chiSquared_dbda483d-dfb0-4b90-9e02-e87e49956082",
"TASK_decorrelateSystJpsi_c8946509-e6bc-49bc-9b21-24b1f6154e5b"
],
"last_edit_date": "2024-03-05T17:21:50.397373",
"edits": [
{
"job_id": "JOB_decorrelateSystJpsi_d3dcef18-e993-4d84-b517-8cc21c503dc8",
"timestamp": "2024-03-05T17:21:50.397373"
}
],
"version": "0.2",
"validity_days": null,
"validity_seconds": null,
"edit_in_progress": false,
"editor_id": null,
"editor_expiration_date": null,
"data_node_properties": {
"is_generated": true
}
}