{
"id": "DATANODE_Ziso_xMeVPrebin_0dbc0039-096c-458e-9f43-0101d6253708",
"config_id": "Ziso_xMeVPrebin",
"scope": "<Scope.SCENARIO: 1>",
"storage_type": "pickle",
"name": null,
"owner_id": "SCENARIO_prebinnedScenario_b8e48400-1ead-43af-8b47-0e5564d1e919",
"parent_ids": [
"TASK_consistentBinningPrebin_6f31b8ee-9cee-477c-ae29-6bc5c5449366",
"TASK_decorrelateStatZisoPrebin_558f8498-6d06-4445-8133-3a1d4bdd9a73",
"TASK_convertGeVtoMeVZisoPrebin_b3ca22b0-78ef-406a-8242-f4d5262cc326"
],
"last_edit_date": null,
"edits": [],
"version": "0.2",
"validity_days": null,
"validity_seconds": null,
"edit_in_progress": false,
"editor_id": null,
"editor_expiration_date": null,
"data_node_properties": {
"is_generated": true
}
}