{
"id": "DATANODE_Zmass_xPrebin_eeb95f44-75d5-4ccf-96e7-8d3768b08296",
"config_id": "Zmass_xPrebin",
"scope": "<Scope.SCENARIO: 1>",
"storage_type": "pickle",
"name": null,
"owner_id": "SCENARIO_prebinnedScenario_605c438e-8a57-4267-9d67-ba7a0cafa6b3",
"parent_ids": [
"TASK_convertGeVtoMeVZmassPrebin_46ef3c3e-35c4-4ba1-8e53-3efc8805a5af",
"TASK_readZmassPrebin_49a77f80-dd80-46eb-87e2-fe74140bf828"
],
"last_edit_date": null,
"edits": [],
"version": "0.2",
"validity_days": null,
"validity_seconds": null,
"edit_in_progress": false,
"editor_id": null,
"editor_expiration_date": null,
"data_node_properties": {
"is_generated": true
}
}