{
"id": "DATANODE_Zmass_y_5d63aa87-d3a5-4ff4-a1a4-d0fd7291340e",
"config_id": "Zmass_y",
"scope": "<Scope.SCENARIO: 1>",
"storage_type": "pickle",
"name": null,
"owner_id": "SCENARIO_prebinnedScenario_2605fed3-6b68-43a5-bc8f-9c2de7cb4e68",
"parent_ids": [
"TASK_decorrelateStatZmass_530e3222-8369-4e5e-bd70-8e3f850511c5",
"TASK_readZmass_5e149245-59e1-4587-bfd7-344531211226",
"TASK_consistentBinning_bf2cb1ef-e5de-4f2a-9589-e43573bc7422"
],
"last_edit_date": "2024-03-05T12:30:39.084912",
"edits": [
{
"job_id": "JOB_readZmass_0838cbf5-a156-43ac-93db-c7f1ceac70ee",
"timestamp": "2024-03-05T12:30:39.084912"
}
],
"version": "0.2",
"validity_days": null,
"validity_seconds": null,
"edit_in_progress": false,
"editor_id": null,
"editor_expiration_date": null,
"data_node_properties": {
"is_generated": true
}
}