{
"id": "DATANODE_Zmasslo_efc36a97-8098-4a5d-beaf-6e65da7ae357",
"config_id": "Zmasslo",
"scope": "<Scope.SCENARIO: 1>",
"storage_type": "csv",
"name": null,
"owner_id": "SCENARIO_prebinnedScenario_72466c8a-9f63-467a-984f-cf08df595fca",
"parent_ids": [
"TASK_rebinLowPtZmass_0f3e00c1-7638-44a5-bec8-d69df7270730",
"TASK_combineZmethodslo_3d832312-60bd-4dcf-ad8a-0ab75978e0b9"
],
"last_edit_date": "2024-02-29T17:51:30.008317",
"edits": [
{
"job_id": "JOB_rebinLowPtZmass_992e6e38-6068-409c-a739-1794b4a780b9",
"timestamp": "2024-02-29T17:51:30.008317"
}
],
"version": "0.1",
"validity_days": null,
"validity_seconds": null,
"edit_in_progress": false,
"editor_id": null,
"editor_expiration_date": null,
"data_node_properties": {
"exposed_type": "numpy",
"encoding": "utf-8",
"has_header": true
}
}