{
"id": "DATANODE_Zmassloy_3f8d46fb-2fcc-43a8-9fc7-61a92cb20269",
"config_id": "Zmassloy",
"scope": "<Scope.SCENARIO: 1>",
"storage_type": "pickle",
"name": null,
"owner_id": "SCENARIO_prebinnedScenario_e78cb6e6-8b08-444f-90b5-7ce70b99d3ce",
"parent_ids": [
"TASK_rebinLowPtZmass_975dcb2e-ef18-493c-8231-ba22278b830d"
],
"last_edit_date": "2024-03-05T12:41:40.601969",
"edits": [
{
"job_id": "JOB_rebinLowPtZmass_36781ed3-160c-407d-a5d6-a7e3f47a72cf",
"timestamp": "2024-03-05T12:41:40.601969"
}
],
"version": "0.2",
"validity_days": null,
"validity_seconds": null,
"edit_in_progress": false,
"editor_id": null,
"editor_expiration_date": null,
"data_node_properties": {
"is_generated": true
}
}