{
"id": "DATANODE_Zmass_y_7feb3ea7-e2d6-4ae5-bb51-278c562bf235",
"config_id": "Zmass_y",
"scope": "<Scope.SCENARIO: 1>",
"storage_type": "csv",
"name": null,
"owner_id": "SCENARIO_prebinnedScenario_72466c8a-9f63-467a-984f-cf08df595fca",
"parent_ids": [
"TASK_readZmass_59fc57fb-e90a-4935-bd37-34673d92ba12",
"TASK_decorrelateStatZmass_476267aa-a98d-4f9d-91b0-c88f2dae9274",
"TASK_consistentBinning_304c0ad2-cb7e-4bf5-920a-5f6b1aa31969"
],
"last_edit_date": "2024-02-29T17:49:47.953832",
"edits": [
{
"job_id": "JOB_readZmass_287dddc2-396a-4b32-a8be-dbacb85ce750",
"timestamp": "2024-02-29T17:49:47.953832"
}
],
"version": "0.1",
"validity_days": null,
"validity_seconds": null,
"edit_in_progress": false,
"editor_id": null,
"editor_expiration_date": null,
"data_node_properties": {
"exposed_type": "numpy",
"encoding": "utf-8",
"has_header": true
}
}