{
"id": "DATANODE_Zisolo_18fb5044-ba10-4a03-9e9b-cd95ae7b8c95",
"config_id": "Zisolo",
"scope": "<Scope.SCENARIO: 1>",
"storage_type": "csv",
"name": null,
"owner_id": "SCENARIO_prebinnedScenario_1ee1f01a-7025-4658-8b6f-526c883778bb",
"parent_ids": [
"TASK_rebinLowPtZiso_31db1239-7b9b-4352-9d67-445a99fed0b9",
"TASK_combineZmethodslo_a5259786-bcf7-4e64-87bd-f85fc85040d7"
],
"last_edit_date": "2024-02-29T18:29:29.490188",
"edits": [
{
"job_id": "JOB_rebinLowPtZiso_cbb3ae84-bc74-472b-b43c-d234a682121e",
"timestamp": "2024-02-29T18:29:29.490188"
}
],
"version": "0.1",
"validity_days": null,
"validity_seconds": null,
"edit_in_progress": false,
"editor_id": null,
"editor_expiration_date": null,
"data_node_properties": {
"exposed_type": "numpy",
"encoding": "utf-8",
"has_header": true
}
}