{
"id": "DATANODE_RemoveNeg_5196d378-d0a2-441b-abbc-d7a0a282421b",
"config_id": "RemoveNeg",
"scope": "<Scope.SCENARIO: 1>",
"storage_type": "pickle",
"name": null,
"owner_id": "SCENARIO_prebinnedScenario_1f54044e-3af6-4c97-a24b-229ebfb4bf9b",
"parent_ids": [
"TASK_readZisoStatPrebin_6750df78-7987-4d28-9b9c-473eb0c4932c",
"TASK_readZmassStatPrebin_fa3986c1-2b01-4ab1-a39e-5bd3b5dfbe45",
"TASK_readZisoPrebin_7b8923b0-221a-4b4b-8bb0-120bfeabf447",
"TASK_readZmassPrebin_4331829b-9914-4fe5-a0a6-5266c5287a7c"
],
"last_edit_date": "2024-02-29T17:52:47.051136",
"edits": [
{
"timestamp": "2024-02-29T17:52:47.051136",
"writer_identifier": "TAIPY",
"comments": "Default data written."
}
],
"version": "0.1",
"validity_days": null,
"validity_seconds": null,
"edit_in_progress": false,
"editor_id": null,
"editor_expiration_date": null,
"data_node_properties": {
"is_generated": true
}
}