{
"id": "DATANODE_Zmass_yPrebin_a31648f1-f3a7-4a45-82e7-0a92b26a004c",
"config_id": "Zmass_yPrebin",
"scope": "<Scope.SCENARIO: 1>",
"storage_type": "csv",
"name": null,
"owner_id": "SCENARIO_prebinnedScenario_72466c8a-9f63-467a-984f-cf08df595fca",
"parent_ids": [
"TASK_readZmassPrebin_73d65320-938a-4c5d-8409-e1dd341f211d",
"TASK_decorrelateStatZmassPrebin_c67022b1-3a7c-4d56-8182-f8c456892e29",
"TASK_consistentBinningPrebin_c878c341-a2eb-4057-8993-a1999f1c659b"
],
"last_edit_date": "2024-02-29T17:49:36.651954",
"edits": [
{
"job_id": "JOB_readZmassPrebin_d8e81250-fa67-448c-833e-02057f91c8a6",
"timestamp": "2024-02-29T17:49:36.651954"
}
],
"version": "0.1",
"validity_days": null,
"validity_seconds": null,
"edit_in_progress": false,
"editor_id": null,
"editor_expiration_date": null,
"data_node_properties": {
"exposed_type": "numpy",
"encoding": "utf-8",
"has_header": true
}
}