{
"id": "DATANODE_ZmassSystDecorr_7219b3fb-2933-42fa-b717-16508ca39447",
"config_id": "ZmassSystDecorr",
"scope": "<Scope.SCENARIO: 1>",
"storage_type": "pickle",
"name": null,
"owner_id": "SCENARIO_prebinnedScenario_b8e48400-1ead-43af-8b47-0e5564d1e919",
"parent_ids": [
"TASK_decorrelateSyst_88c6c6ee-c446-4c7a-a8c8-b04d15c19005",
"TASK_rebinLowPtZmass_32108412-152e-465a-9fb6-670531613e01"
],
"last_edit_date": null,
"edits": [],
"version": "0.2",
"validity_days": null,
"validity_seconds": null,
"edit_in_progress": false,
"editor_id": null,
"editor_expiration_date": null,
"data_node_properties": {
"is_generated": true
}
}