{
"id": "DATANODE_Zisohiy_020bbec6-0114-497d-9643-6b9ed47be433",
"config_id": "Zisohiy",
"scope": "<Scope.SCENARIO: 1>",
"storage_type": "pickle",
"name": null,
"owner_id": "SCENARIO_prebinnedScenario_e78cb6e6-8b08-444f-90b5-7ce70b99d3ce",
"parent_ids": [
"TASK_combineZmethodshi_eabe6170-6d75-47bb-a862-b283d703acf7",
"TASK_rebinLowPtZiso_1155c517-5ae8-45e7-9660-ab27c6e3eb81"
],
"last_edit_date": "2024-03-05T12:41:41.280899",
"edits": [
{
"job_id": "JOB_rebinLowPtZiso_cf732aee-9af3-41d5-b3be-5a019587685f",
"timestamp": "2024-03-05T12:41:41.280899"
}
],
"version": "0.2",
"validity_days": null,
"validity_seconds": null,
"edit_in_progress": false,
"editor_id": null,
"editor_expiration_date": null,
"data_node_properties": {
"is_generated": true
}
}