{
"id": "DATANODE_ZmassRebiny_019d8743-380f-428e-be19-8157259a034a",
"config_id": "ZmassRebiny",
"scope": "<Scope.SCENARIO: 1>",
"storage_type": "pickle",
"name": null,
"owner_id": "SCENARIO_prebinnedScenario_605c438e-8a57-4267-9d67-ba7a0cafa6b3",
"parent_ids": [
"TASK_rebinLowPtZmass_485b010c-7f32-4e2f-8cc4-7ba9c8e2d353"
],
"last_edit_date": null,
"edits": [],
"version": "0.2",
"validity_days": null,
"validity_seconds": null,
"edit_in_progress": false,
"editor_id": null,
"editor_expiration_date": null,
"data_node_properties": {
"is_generated": true
}
}