{
"id": "DATANODE_Zisolo_e1cfd672-8583-41b8-8457-e27332b85f7e",
"config_id": "Zisolo",
"scope": "<Scope.SCENARIO: 1>",
"storage_type": "pickle",
"name": null,
"owner_id": "SCENARIO_prebinnedScenario_605c438e-8a57-4267-9d67-ba7a0cafa6b3",
"parent_ids": [
"TASK_combineZmethodslo_14e4a293-4716-4820-a919-4e8f37b443ec",
"TASK_rebinLowPtZiso_dd184d72-e9e7-4fb8-b891-c1f557c00557"
],
"last_edit_date": null,
"edits": [],
"version": "0.2",
"validity_days": null,
"validity_seconds": null,
"edit_in_progress": false,
"editor_id": null,
"editor_expiration_date": null,
"data_node_properties": {
"is_generated": true
}
}