{
"id": "DATANODE_Ziso_f696772f-75d9-4608-be4f-b25217384bd3",
"config_id": "Ziso",
"scope": "<Scope.SCENARIO: 1>",
"storage_type": "csv",
"name": null,
"owner_id": "SCENARIO_prebinnedScenario_1ee1f01a-7025-4658-8b6f-526c883778bb",
"parent_ids": [
"TASK_decorrelateStatZiso_77dc15c3-aa62-4f85-a636-60da373fb2ca",
"TASK_readZiso_1ddd7e43-accb-41fc-9291-e59a95d437c3"
],
"last_edit_date": "2024-02-29T18:28:03.862985",
"edits": [
{
"job_id": "JOB_readZiso_1db93957-34c3-4428-b407-77d30ea9ad4e",
"timestamp": "2024-02-29T18:28:03.862985"
}
],
"version": "0.1",
"validity_days": null,
"validity_seconds": null,
"edit_in_progress": false,
"editor_id": null,
"editor_expiration_date": null,
"data_node_properties": {
"exposed_type": "numpy",
"encoding": "utf-8",
"has_header": true
}
}