{
"id": "DATANODE_Zcomb_x_a1f93d9c-e935-4b9f-9e6f-cb5fac16704b",
"config_id": "Zcomb_x",
"scope": "<Scope.SCENARIO: 1>",
"storage_type": "pickle",
"name": null,
"owner_id": "SCENARIO_prebinnedScenario_b8e48400-1ead-43af-8b47-0e5564d1e919",
"parent_ids": [
"TASK_decorrelateSyst_88c6c6ee-c446-4c7a-a8c8-b04d15c19005",
"TASK_rebinLowPtZiso_d0cdc951-ce72-463a-95fe-17db384bbe1f",
"TASK_consistentBinning_9a7513c5-c09e-447e-aaae-dc46f25e01f4",
"TASK_rebinLowPtZmass_32108412-152e-465a-9fb6-670531613e01"
],
"last_edit_date": null,
"edits": [],
"version": "0.2",
"validity_days": null,
"validity_seconds": null,
"edit_in_progress": false,
"editor_id": null,
"editor_expiration_date": null,
"data_node_properties": {
"is_generated": true
}
}