{
"id": "DATANODE_Zmass_xPrebin_67b3ad05-c957-4e99-8e78-b7afa434fbd1",
"config_id": "Zmass_xPrebin",
"scope": "<Scope.SCENARIO: 1>",
"storage_type": "csv",
"name": null,
"owner_id": "SCENARIO_prebinnedScenario_1ee1f01a-7025-4658-8b6f-526c883778bb",
"parent_ids": [
"TASK_convertGeVtoMeVZmassPrebin_f9b5c9b9-531e-41b4-a016-00ad5ac13abb",
"TASK_readZmassPrebin_040d1173-bf41-4aa8-9a7d-9844ee8d051b"
],
"last_edit_date": "2024-02-29T18:26:52.596822",
"edits": [
{
"job_id": "JOB_readZmassPrebin_be64be8e-4f68-4610-a5b6-a3f5de5cbf13",
"timestamp": "2024-02-29T18:26:52.596822"
}
],
"version": "0.1",
"validity_days": null,
"validity_seconds": null,
"edit_in_progress": false,
"editor_id": null,
"editor_expiration_date": null,
"data_node_properties": {
"exposed_type": "numpy",
"encoding": "utf-8",
"has_header": true
}
}