{
"id": "DATANODE_ExtraBin_9dc5d706-bb43-48ae-a88b-05fcce9760c9",
"config_id": "ExtraBin",
"scope": "<Scope.SCENARIO: 1>",
"storage_type": "pickle",
"name": null,
"owner_id": "SCENARIO_prebinnedScenario_b8e48400-1ead-43af-8b47-0e5564d1e919",
"parent_ids": [
"TASK_SetPathsforPrebin_e8096c9f-9df8-409f-bfc4-462d79162571"
],
"last_edit_date": "2024-03-05T17:16:54.929800",
"edits": [
{
"timestamp": "2024-03-05T17:16:53.334167",
"writer_identifier": "TAIPY",
"comments": "Default data written."
},
{
"timestamp": "2024-03-05T17:16:54.929800"
}
],
"version": "0.2",
"validity_days": null,
"validity_seconds": null,
"edit_in_progress": false,
"editor_id": null,
"editor_expiration_date": null,
"data_node_properties": {
"is_generated": true
}
}