{
"id": "DATANODE_Ziso_x_243db565-d4c3-4b9c-952c-357e4478f703",
"config_id": "Ziso_x",
"scope": "<Scope.SCENARIO: 1>",
"storage_type": "pickle",
"name": null,
"owner_id": "SCENARIO_prebinnedScenario_9c4765b1-5665-4e4a-b728-1f530ef8131e",
"parent_ids": [
"TASK_readZiso_67df75a4-ee53-4338-b276-42d8589065fd",
"TASK_convertGeVtoMeVZiso_da14f633-1aea-4ebc-b443-c82f220c49bd"
],
"last_edit_date": "2024-03-05T17:20:03.702207",
"edits": [
{
"job_id": "JOB_readZiso_dec993c0-9f5c-4956-a91b-c378cb79a183",
"timestamp": "2024-03-05T17:20:03.702207"
}
],
"version": "0.2",
"validity_days": null,
"validity_seconds": null,
"edit_in_progress": false,
"editor_id": null,
"editor_expiration_date": null,
"data_node_properties": {
"is_generated": true
}
}