{
"id": "DATANODE_Ziso_y_cd33cbae-76ab-44b2-bf5f-e22b748430e2",
"config_id": "Ziso_y",
"scope": "<Scope.SCENARIO: 1>",
"storage_type": "csv",
"name": null,
"owner_id": "SCENARIO_prebinnedScenario_1f54044e-3af6-4c97-a24b-229ebfb4bf9b",
"parent_ids": [
"TASK_readZiso_fa45bab4-442a-4db8-8ae7-cbcc5622cf1e",
"TASK_decorrelateStatZiso_55594b06-8cce-4b2a-bc49-cfd5f4053041",
"TASK_consistentBinning_35c03847-6cf2-4916-914a-2dfc9bf00c5e"
],
"last_edit_date": "2024-02-29T17:53:49.851714",
"edits": [
{
"job_id": "JOB_readZiso_08a2d9dd-ed9e-4511-bb2b-72c5a72c8d2f",
"timestamp": "2024-02-29T17:53:49.851714"
}
],
"version": "0.1",
"validity_days": null,
"validity_seconds": null,
"edit_in_progress": false,
"editor_id": null,
"editor_expiration_date": null,
"data_node_properties": {
"exposed_type": "numpy",
"encoding": "utf-8",
"has_header": true
}
}