{
"id": "DATANODE_ZmassDecorr_6f3d8ab0-1794-4118-a8fa-93ab504e0f72",
"config_id": "ZmassDecorr",
"scope": "<Scope.SCENARIO: 1>",
"storage_type": "csv",
"name": null,
"owner_id": "SCENARIO_prebinnedScenario_1ee1f01a-7025-4658-8b6f-526c883778bb",
"parent_ids": [
"TASK_decorrelateSyst_352fe2c9-2328-470c-a50a-a51308b15764",
"TASK_decorrelateStatZmass_08c995d8-9388-4b50-9ac7-822fb98b67cc"
],
"last_edit_date": "2024-02-29T18:29:11.002386",
"edits": [
{
"job_id": "JOB_decorrelateStatZmass_64178bf6-f15a-4f10-b03d-e0085228150c",
"timestamp": "2024-02-29T18:29:11.002386"
}
],
"version": "0.1",
"validity_days": null,
"validity_seconds": null,
"edit_in_progress": false,
"editor_id": null,
"editor_expiration_date": null,
"data_node_properties": {
"exposed_type": "numpy",
"encoding": "utf-8",
"has_header": true
}
}