{
"id": "DATANODE_Zmass_y_eee37733-0081-4993-b75e-ecc8ca2126f6",
"config_id": "Zmass_y",
"scope": "<Scope.SCENARIO: 1>",
"storage_type": "csv",
"name": null,
"owner_id": "SCENARIO_prebinnedScenario_1ee1f01a-7025-4658-8b6f-526c883778bb",
"parent_ids": [
"TASK_consistentBinning_62c3b844-f7c0-4be2-a5b7-8727c28ef3a2",
"TASK_readZmass_bbf78065-c259-4b7b-a6b9-2c3c34676ffe",
"TASK_decorrelateStatZmass_08c995d8-9388-4b50-9ac7-822fb98b67cc"
],
"last_edit_date": "2024-02-29T18:27:32.364636",
"edits": [
{
"job_id": "JOB_readZmass_52628607-6fc5-4559-87fc-a1d290d8fbca",
"timestamp": "2024-02-29T18:27:32.364636"
}
],
"version": "0.1",
"validity_days": null,
"validity_seconds": null,
"edit_in_progress": false,
"editor_id": null,
"editor_expiration_date": null,
"data_node_properties": {
"exposed_type": "numpy",
"encoding": "utf-8",
"has_header": true
}
}