{
"id": "DATANODE_Zmass_y_dc362fa9-57f8-4a92-bdfb-2c36bebc1dcb",
"config_id": "Zmass_y",
"scope": "<Scope.SCENARIO: 1>",
"storage_type": "pickle",
"name": null,
"owner_id": "SCENARIO_prebinnedScenario_605c438e-8a57-4267-9d67-ba7a0cafa6b3",
"parent_ids": [
"TASK_readZmass_6eaa3997-859d-403d-bc01-cdfb8ae4a729",
"TASK_consistentBinning_96a6870e-9093-4df5-868f-d0025b30722d",
"TASK_decorrelateStatZmass_8987520a-1141-4754-bb47-2525d7204781"
],
"last_edit_date": null,
"edits": [],
"version": "0.2",
"validity_days": null,
"validity_seconds": null,
"edit_in_progress": false,
"editor_id": null,
"editor_expiration_date": null,
"data_node_properties": {
"is_generated": true
}
}