{
"id": "DATANODE_JpsiSystDecorr_8ddaad0c-20e5-48d7-a661-1a429d3e061d",
"config_id": "JpsiSystDecorr",
"scope": "<Scope.SCENARIO: 1>",
"storage_type": "csv",
"name": null,
"owner_id": "SCENARIO_prebinnedScenario_1ee1f01a-7025-4658-8b6f-526c883778bb",
"parent_ids": [
"TASK_combineHera_744c6c30-b577-467e-9fb4-06e32c0ec097",
"TASK_chiSquared_820c65c6-0010-4e4b-ab6a-1e1be6739292",
"TASK_decorrelateSystJpsi_f9708075-8ac7-47cb-8573-e8d3ccce18c0"
],
"last_edit_date": "2024-02-29T18:29:31.825620",
"edits": [
{
"job_id": "JOB_decorrelateSystJpsi_85251e6b-c21d-4422-8102-b2f320f82af4",
"timestamp": "2024-02-29T18:29:31.825620"
}
],
"version": "0.1",
"validity_days": null,
"validity_seconds": null,
"edit_in_progress": false,
"editor_id": null,
"editor_expiration_date": null,
"data_node_properties": {
"exposed_type": "numpy",
"encoding": "utf-8",
"has_header": true
}
}