{
"id": "DATANODE_Zcomb_x_74c370cc-5de5-4428-a604-0016132730b1",
"config_id": "Zcomb_x",
"scope": "<Scope.SCENARIO: 1>",
"storage_type": "pickle",
"name": null,
"owner_id": "SCENARIO_prebinnedScenario_9c4765b1-5665-4e4a-b728-1f530ef8131e",
"parent_ids": [
"TASK_decorrelateSyst_f5f0b9fc-b937-49fb-a8f8-7ce3c55da685",
"TASK_rebinLowPtZiso_039c13db-0c80-420e-91b9-84b8d8cf8d98",
"TASK_consistentBinning_92a4faf8-8817-4847-92ed-828272d31879",
"TASK_rebinLowPtZmass_38e3a96e-0752-47b3-a0db-ebc6b55a06fe"
],
"last_edit_date": "2024-03-05T17:21:23.630237",
"edits": [
{
"job_id": "JOB_consistentBinning_5010560d-81db-454d-a298-d604f55d02f4",
"timestamp": "2024-03-05T17:21:23.630237"
}
],
"version": "0.2",
"validity_days": null,
"validity_seconds": null,
"edit_in_progress": false,
"editor_id": null,
"editor_expiration_date": null,
"data_node_properties": {
"is_generated": true
}
}