{
"id": "DATANODE_ZisoPath_2ebe0747-7ea6-406d-bcfa-42e4a439362f",
"config_id": "ZisoPath",
"scope": "<Scope.SCENARIO: 1>",
"storage_type": "pickle",
"name": null,
"owner_id": "SCENARIO_prebinnedScenario_1ee1f01a-7025-4658-8b6f-526c883778bb",
"parent_ids": [
"TASK_SetPaths_312664e8-5f79-4630-9a62-05a9ae6f2d14",
"TASK_readZisoStat_9475832b-eb8c-4579-867b-b99e0a1b1a54",
"TASK_readZiso_1ddd7e43-accb-41fc-9291-e59a95d437c3"
],
"last_edit_date": "2024-02-29T18:26:08.234031",
"edits": [
{
"timestamp": "2024-02-29T18:25:29.376960",
"writer_identifier": "TAIPY",
"comments": "Default data written."
},
{
"job_id": "JOB_SetPaths_3026d971-8e01-487f-aa7f-6d5153c39e89",
"timestamp": "2024-02-29T18:26:08.234031"
}
],
"version": "0.1",
"validity_days": null,
"validity_seconds": null,
"edit_in_progress": false,
"editor_id": null,
"editor_expiration_date": null,
"data_node_properties": {
"is_generated": true
}
}