{
"id": "DATANODE_JpsiPathPrebin_46db7577-3024-4924-abbd-83fb27f47390",
"config_id": "JpsiPathPrebin",
"scope": "<Scope.SCENARIO: 1>",
"storage_type": "pickle",
"name": null,
"owner_id": "SCENARIO_prebinnedScenario_1ee1f01a-7025-4658-8b6f-526c883778bb",
"parent_ids": [
"TASK_readJpsiPrebin_59203db7-27a4-446a-ae3b-c785ab3bb635",
"TASK_SetPathsforPrebin_110a52c5-e77d-47ec-a1c7-b411135cdc23"
],
"last_edit_date": "2024-02-29T18:25:33.707060",
"edits": [
{
"job_id": "JOB_SetPathsforPrebin_86555fa4-63bc-403f-83bb-d77995492b47",
"timestamp": "2024-02-29T18:25:33.707060"
}
],
"version": "0.1",
"validity_days": null,
"validity_seconds": null,
"edit_in_progress": false,
"editor_id": null,
"editor_expiration_date": null,
"data_node_properties": {
"is_generated": true
}
}