{
"id": "DATANODE_JpsiPath_35a7636d-e601-4fa0-b082-995c8359b250",
"config_id": "JpsiPath",
"scope": "<Scope.SCENARIO: 1>",
"storage_type": "pickle",
"name": null,
"owner_id": "SCENARIO_prebinnedScenario_b8e48400-1ead-43af-8b47-0e5564d1e919",
"parent_ids": [
"TASK_SetPaths_c779676c-249f-47e4-89c0-dd05b1a53dc4"
],
"last_edit_date": "2024-03-05T17:16:53.366295",
"edits": [
{
"timestamp": "2024-03-05T17:16:53.366295",
"writer_identifier": "TAIPY",
"comments": "Default data written."
}
],
"version": "0.2",
"validity_days": null,
"validity_seconds": null,
"edit_in_progress": false,
"editor_id": null,
"editor_expiration_date": null,
"data_node_properties": {
"is_generated": true
}
}