[#1] INFO:Fitting -- RooAddition::defaultErrorLevel(nllSimRef) Summation contains a RooNLLVar, using its error level
Minuit2Minimizer: Minimize with max-calls 1000 convergence for edm < 1 strategy 2
Info in <Minuit2>: MnSeedGenerator Computing seed using NumericalGradient calculator
 *** Break *** segmentation violation



===========================================================
There was a crash.
This is the entire stack trace of all threads:
===========================================================
#0  0x00007ff9a0259659 in waitpid () from /lib64/libc.so.6
#1  0x00007ff9a01d6f62 in do_system () from /lib64/libc.so.6
#2  0x00007ff9a01d7311 in system () from /lib64/libc.so.6
#3  0x00007ff99f9140bc in TUnixSystem::StackTrace() () from /cvmfs/atlas.cern.ch/repo/sw/software/24.2/AnalysisBaseExternals/24.2.31/InstallArea/x86_64-centos7-gcc11-opt/lib/libCore.so
#4  0x00007ff99fbabec3 in (anonymous namespace)::TExceptionHandlerImp::HandleException(int) () from /cvmfs/atlas.cern.ch/repo/sw/software/24.2/AnalysisBaseExternals/24.2.31/InstallArea/x86_64-centos7-gcc11-opt/lib/libcppyy_backend3_9.so
#5  0x00007ff99f911651 in TUnixSystem::DispatchSignals(ESignals) () from /cvmfs/atlas.cern.ch/repo/sw/software/24.2/AnalysisBaseExternals/24.2.31/InstallArea/x86_64-centos7-gcc11-opt/lib/libCore.so
#6  <signal handler called>
#7  0x00007ff9679a7d28 in RooNLLVar::evaluatePartition(unsigned long, unsigned long, unsigned long) const () from /cvmfs/atlas.cern.ch/repo/sw/software/24.2/AnalysisBaseExternals/24.2.31/InstallArea/x86_64-centos7-gcc11-opt/lib/libRooFitCore.so
#8  0x00007ff96786be91 in RooAbsTestStatistic::evaluate() const () from /cvmfs/atlas.cern.ch/repo/sw/software/24.2/AnalysisBaseExternals/24.2.31/InstallArea/x86_64-centos7-gcc11-opt/lib/libRooFitCore.so
#9  0x00007ff96784a4a3 in RooAbsReal::traceEval(RooArgSet const*) const () from /cvmfs/atlas.cern.ch/repo/sw/software/24.2/AnalysisBaseExternals/24.2.31/InstallArea/x86_64-centos7-gcc11-opt/lib/libRooFitCore.so
#10 0x00007ff96784a6eb in RooAbsReal::getValV(RooArgSet const*) const () from /cvmfs/atlas.cern.ch/repo/sw/software/24.2/AnalysisBaseExternals/24.2.31/InstallArea/x86_64-centos7-gcc11-opt/lib/libRooFitCore.so
#11 0x00007ff9678773ee in RooAddition::evaluate() const () from /cvmfs/atlas.cern.ch/repo/sw/software/24.2/AnalysisBaseExternals/24.2.31/InstallArea/x86_64-centos7-gcc11-opt/lib/libRooFitCore.so
#12 0x00007ff96784a4a3 in RooAbsReal::traceEval(RooArgSet const*) const () from /cvmfs/atlas.cern.ch/repo/sw/software/24.2/AnalysisBaseExternals/24.2.31/InstallArea/x86_64-centos7-gcc11-opt/lib/libRooFitCore.so
#13 0x00007ff96784a6eb in RooAbsReal::getValV(RooArgSet const*) const () from /cvmfs/atlas.cern.ch/repo/sw/software/24.2/AnalysisBaseExternals/24.2.31/InstallArea/x86_64-centos7-gcc11-opt/lib/libRooFitCore.so
#14 0x00007ff9679872ca in RooMinimizerFcn::DoEval(double const*) const () from /cvmfs/atlas.cern.ch/repo/sw/software/24.2/AnalysisBaseExternals/24.2.31/InstallArea/x86_64-centos7-gcc11-opt/lib/libRooFitCore.so
#15 0x00007ff967460fc6 in ROOT::Minuit2::MnUserFcn::operator()(ROOT::Minuit2::LAVector const&) const () from /cvmfs/atlas.cern.ch/repo/sw/software/24.2/AnalysisBaseExternals/24.2.31/InstallArea/x86_64-centos7-gcc11-opt/lib/libMinuit2.so
#16 0x00007ff96745d35b in ROOT::Minuit2::MnSeedGenerator::operator()(ROOT::Minuit2::MnFcn const&, ROOT::Minuit2::GradientCalculator const&, ROOT::Minuit2::MnUserParameterState const&, ROOT::Minuit2::MnStrategy const&) const () from /cvmfs/atlas.cern.ch/repo/sw/software/24.2/AnalysisBaseExternals/24.2.31/InstallArea/x86_64-centos7-gcc11-opt/lib/libMinuit2.so
#17 0x00007ff96746937b in ROOT::Minuit2::ModularFunctionMinimizer::Minimize(ROOT::Minuit2::FCNBase const&, ROOT::Minuit2::MnUserParameterState const&, ROOT::Minuit2::MnStrategy const&, unsigned int, double) const () from /cvmfs/atlas.cern.ch/repo/sw/software/24.2/AnalysisBaseExternals/24.2.31/InstallArea/x86_64-centos7-gcc11-opt/lib/libMinuit2.so
#18 0x00007ff9674280d7 in ROOT::Minuit2::Minuit2Minimizer::Minimize() () from /cvmfs/atlas.cern.ch/repo/sw/software/24.2/AnalysisBaseExternals/24.2.31/InstallArea/x86_64-centos7-gcc11-opt/lib/libMinuit2.so
#19 0x00007ff9825dfb62 in ROOT::Fit::Fitter::DoMinimization(ROOT::Math::IBaseFunctionMultiDimTempl<double> const*) () from /cvmfs/atlas.cern.ch/repo/sw/software/24.2/AnalysisBaseExternals/24.2.31/InstallArea/x86_64-centos7-gcc11-opt/lib/libMathCore.so
#20 0x00007ff967982860 in RooMinimizer::minimize(char const*, char const*) () from /cvmfs/atlas.cern.ch/repo/sw/software/24.2/AnalysisBaseExternals/24.2.31/InstallArea/x86_64-centos7-gcc11-opt/lib/libRooFitCore.so
#21 0x00007ff967255079 in ?? ()
#22 0x0000000200000002 in ?? ()
#23 0x000000000ab36d70 in ?? ()
#24 0x00007ffc1646cf20 in ?? ()
#25 0x00007ffc1646cfac in ?? ()
#26 0x0000000000000002 in ?? ()
#27 0x00007ff99fbac92a in WrapperCall(long, unsigned long, void*, void*, void*) () from /cvmfs/atlas.cern.ch/repo/sw/software/24.2/AnalysisBaseExternals/24.2.31/InstallArea/x86_64-centos7-gcc11-opt/lib/libcppyy_backend3_9.so
#28 0x00007ff99fbad922 in Cppyy::CallI(long, void*, unsigned long, void*) () from /cvmfs/atlas.cern.ch/repo/sw/software/24.2/AnalysisBaseExternals/24.2.31/InstallArea/x86_64-centos7-gcc11-opt/lib/libcppyy_backend3_9.so
#29 0x00007ff99fc3697f in CPyCppyy::(anonymous namespace)::IntExecutor::Execute(long, void*, CPyCppyy::CallContext*) () from /cvmfs/atlas.cern.ch/repo/sw/software/24.2/AnalysisBaseExternals/24.2.31/InstallArea/x86_64-centos7-gcc11-opt/lib/libcppyy3_9.so
#30 0x00007ff99fc23a16 in CPyCppyy::CPPMethod::ExecuteFast(void*, long, CPyCppyy::CallContext*) [clone .isra.0] () from /cvmfs/atlas.cern.ch/repo/sw/software/24.2/AnalysisBaseExternals/24.2.31/InstallArea/x86_64-centos7-gcc11-opt/lib/libcppyy3_9.so
#31 0x00007ff99fc244d9 in CPyCppyy::CPPMethod::Execute(void*, long, CPyCppyy::CallContext*) () from /cvmfs/atlas.cern.ch/repo/sw/software/24.2/AnalysisBaseExternals/24.2.31/InstallArea/x86_64-centos7-gcc11-opt/lib/libcppyy3_9.so
#32 0x00007ff99fc2510c in CPyCppyy::CPPMethod::Call(CPyCppyy::CPPInstance*&, _object*, _object*, CPyCppyy::CallContext*) () from /cvmfs/atlas.cern.ch/repo/sw/software/24.2/AnalysisBaseExternals/24.2.31/InstallArea/x86_64-centos7-gcc11-opt/lib/libcppyy3_9.so
#33 0x00007ff99fc29887 in CPyCppyy::(anonymous namespace)::mp_call(CPyCppyy::CPPOverload*, _object*, _object*) () from /cvmfs/atlas.cern.ch/repo/sw/software/24.2/AnalysisBaseExternals/24.2.31/InstallArea/x86_64-centos7-gcc11-opt/lib/libcppyy3_9.so
#34 0x00007ff9a11765a8 in _PyObject_MakeTpCall () from /cvmfs/atlas.cern.ch/repo/sw/software/24.2/AnalysisBaseExternals/24.2.31/InstallArea/x86_64-centos7-gcc11-opt/bin/../lib/libpython3.9.so.1.0
#35 0x00007ff9a112c209 in _PyEval_EvalFrameDefault () from /cvmfs/atlas.cern.ch/repo/sw/software/24.2/AnalysisBaseExternals/24.2.31/InstallArea/x86_64-centos7-gcc11-opt/bin/../lib/libpython3.9.so.1.0
#36 0x00007ff9a1123bab in function_code_fastcall () from /cvmfs/atlas.cern.ch/repo/sw/software/24.2/AnalysisBaseExternals/24.2.31/InstallArea/x86_64-centos7-gcc11-opt/bin/../lib/libpython3.9.so.1.0
#37 0x00007ff9a112a213 in _PyEval_EvalFrameDefault () from /cvmfs/atlas.cern.ch/repo/sw/software/24.2/AnalysisBaseExternals/24.2.31/InstallArea/x86_64-centos7-gcc11-opt/bin/../lib/libpython3.9.so.1.0
#38 0x00007ff9a125978e in _PyEval_EvalCode () from /cvmfs/atlas.cern.ch/repo/sw/software/24.2/AnalysisBaseExternals/24.2.31/InstallArea/x86_64-centos7-gcc11-opt/bin/../lib/libpython3.9.so.1.0
#39 0x00007ff9a1259ace in _PyEval_EvalCodeWithName () from /cvmfs/atlas.cern.ch/repo/sw/software/24.2/AnalysisBaseExternals/24.2.31/InstallArea/x86_64-centos7-gcc11-opt/bin/../lib/libpython3.9.so.1.0
#40 0x00007ff9a1259b1b in PyEval_EvalCodeEx () from /cvmfs/atlas.cern.ch/repo/sw/software/24.2/AnalysisBaseExternals/24.2.31/InstallArea/x86_64-centos7-gcc11-opt/bin/../lib/libpython3.9.so.1.0
#41 0x00007ff9a1259b4b in PyEval_EvalCode () from /cvmfs/atlas.cern.ch/repo/sw/software/24.2/AnalysisBaseExternals/24.2.31/InstallArea/x86_64-centos7-gcc11-opt/bin/../lib/libpython3.9.so.1.0
#42 0x00007ff9a1299c4e in run_mod () from /cvmfs/atlas.cern.ch/repo/sw/software/24.2/AnalysisBaseExternals/24.2.31/InstallArea/x86_64-centos7-gcc11-opt/bin/../lib/libpython3.9.so.1.0
#43 0x00007ff9a129b663 in PyRun_SimpleFileExFlags () from /cvmfs/atlas.cern.ch/repo/sw/software/24.2/AnalysisBaseExternals/24.2.31/InstallArea/x86_64-centos7-gcc11-opt/bin/../lib/libpython3.9.so.1.0
#44 0x00007ff9a12b89e8 in Py_RunMain () from /cvmfs/atlas.cern.ch/repo/sw/software/24.2/AnalysisBaseExternals/24.2.31/InstallArea/x86_64-centos7-gcc11-opt/bin/../lib/libpython3.9.so.1.0
#45 0x00007ff9a12b8ea7 in Py_BytesMain () from /cvmfs/atlas.cern.ch/repo/sw/software/24.2/AnalysisBaseExternals/24.2.31/InstallArea/x86_64-centos7-gcc11-opt/bin/../lib/libpython3.9.so.1.0
#46 0x00007ff9a01b6555 in __libc_start_main () from /lib64/libc.so.6
#47 0x000000000040108e in _start ()
===========================================================


The lines below might hint at the cause of the crash. If you see question
marks as part of the stack trace, try to recompile with debugging information
enabled and export CLING_DEBUG=1 environment variable before running.
You may get help by asking at the ROOT forum https://root.cern/forum
Only if you are really convinced it is a bug in ROOT then please submit a
report at https://root.cern/bugs Please post the ENTIRE stack trace
from above as an attachment in addition to anything else
that might help us fixing this issue.
===========================================================
#7  0x00007ff9679a7d28 in RooNLLVar::evaluatePartition(unsigned long, unsigned long, unsigned long) const () from /cvmfs/atlas.cern.ch/repo/sw/software/24.2/AnalysisBaseExternals/24.2.31/InstallArea/x86_64-centos7-gcc11-opt/lib/libRooFitCore.so
#8  0x00007ff96786be91 in RooAbsTestStatistic::evaluate() const () from /cvmfs/atlas.cern.ch/repo/sw/software/24.2/AnalysisBaseExternals/24.2.31/InstallArea/x86_64-centos7-gcc11-opt/lib/libRooFitCore.so
#9  0x00007ff96784a4a3 in RooAbsReal::traceEval(RooArgSet const*) const () from /cvmfs/atlas.cern.ch/repo/sw/software/24.2/AnalysisBaseExternals/24.2.31/InstallArea/x86_64-centos7-gcc11-opt/lib/libRooFitCore.so
#10 0x00007ff96784a6eb in RooAbsReal::getValV(RooArgSet const*) const () from /cvmfs/atlas.cern.ch/repo/sw/software/24.2/AnalysisBaseExternals/24.2.31/InstallArea/x86_64-centos7-gcc11-opt/lib/libRooFitCore.so
#11 0x00007ff9678773ee in RooAddition::evaluate() const () from /cvmfs/atlas.cern.ch/repo/sw/software/24.2/AnalysisBaseExternals/24.2.31/InstallArea/x86_64-centos7-gcc11-opt/lib/libRooFitCore.so
#12 0x00007ff96784a4a3 in RooAbsReal::traceEval(RooArgSet const*) const () from /cvmfs/atlas.cern.ch/repo/sw/software/24.2/AnalysisBaseExternals/24.2.31/InstallArea/x86_64-centos7-gcc11-opt/lib/libRooFitCore.so
#13 0x00007ff96784a6eb in RooAbsReal::getValV(RooArgSet const*) const () from /cvmfs/atlas.cern.ch/repo/sw/software/24.2/AnalysisBaseExternals/24.2.31/InstallArea/x86_64-centos7-gcc11-opt/lib/libRooFitCore.so
#14 0x00007ff9679872ca in RooMinimizerFcn::DoEval(double const*) const () from /cvmfs/atlas.cern.ch/repo/sw/software/24.2/AnalysisBaseExternals/24.2.31/InstallArea/x86_64-centos7-gcc11-opt/lib/libRooFitCore.so
#15 0x00007ff967460fc6 in ROOT::Minuit2::MnUserFcn::operator()(ROOT::Minuit2::LAVector const&) const () from /cvmfs/atlas.cern.ch/repo/sw/software/24.2/AnalysisBaseExternals/24.2.31/InstallArea/x86_64-centos7-gcc11-opt/lib/libMinuit2.so
#16 0x00007ff96745d35b in ROOT::Minuit2::MnSeedGenerator::operator()(ROOT::Minuit2::MnFcn const&, ROOT::Minuit2::GradientCalculator const&, ROOT::Minuit2::MnUserParameterState const&, ROOT::Minuit2::MnStrategy const&) const () from /cvmfs/atlas.cern.ch/repo/sw/software/24.2/AnalysisBaseExternals/24.2.31/InstallArea/x86_64-centos7-gcc11-opt/lib/libMinuit2.so
#17 0x00007ff96746937b in ROOT::Minuit2::ModularFunctionMinimizer::Minimize(ROOT::Minuit2::FCNBase const&, ROOT::Minuit2::MnUserParameterState const&, ROOT::Minuit2::MnStrategy const&, unsigned int, double) const () from /cvmfs/atlas.cern.ch/repo/sw/software/24.2/AnalysisBaseExternals/24.2.31/InstallArea/x86_64-centos7-gcc11-opt/lib/libMinuit2.so
#18 0x00007ff9674280d7 in ROOT::Minuit2::Minuit2Minimizer::Minimize() () from /cvmfs/atlas.cern.ch/repo/sw/software/24.2/AnalysisBaseExternals/24.2.31/InstallArea/x86_64-centos7-gcc11-opt/lib/libMinuit2.so
#19 0x00007ff9825dfb62 in ROOT::Fit::Fitter::DoMinimization(ROOT::Math::IBaseFunctionMultiDimTempl<double> const*) () from /cvmfs/atlas.cern.ch/repo/sw/software/24.2/AnalysisBaseExternals/24.2.31/InstallArea/x86_64-centos7-gcc11-opt/lib/libMathCore.so
#20 0x00007ff967982860 in RooMinimizer::minimize(char const*, char const*) () from /cvmfs/atlas.cern.ch/repo/sw/software/24.2/AnalysisBaseExternals/24.2.31/InstallArea/x86_64-centos7-gcc11-opt/lib/libRooFitCore.so
#21 0x00007ff967255079 in ?? ()
#22 0x0000000200000002 in ?? ()
#23 0x000000000ab36d70 in ?? ()
#24 0x00007ffc1646cf20 in ?? ()
#25 0x00007ffc1646cfac in ?? ()
#26 0x0000000000000002 in ?? ()
#27 0x00007ff99fbac92a in WrapperCall(long, unsigned long, void*, void*, void*) () from /cvmfs/atlas.cern.ch/repo/sw/software/24.2/AnalysisBaseExternals/24.2.31/InstallArea/x86_64-centos7-gcc11-opt/lib/libcppyy_backend3_9.so
#28 0x00007ff99fbad922 in Cppyy::CallI(long, void*, unsigned long, void*) () from /cvmfs/atlas.cern.ch/repo/sw/software/24.2/AnalysisBaseExternals/24.2.31/InstallArea/x86_64-centos7-gcc11-opt/lib/libcppyy_backend3_9.so
#29 0x00007ff99fc3697f in CPyCppyy::(anonymous namespace)::IntExecutor::Execute(long, void*, CPyCppyy::CallContext*) () from /cvmfs/atlas.cern.ch/repo/sw/software/24.2/AnalysisBaseExternals/24.2.31/InstallArea/x86_64-centos7-gcc11-opt/lib/libcppyy3_9.so
#30 0x00007ff99fc23a16 in CPyCppyy::CPPMethod::ExecuteFast(void*, long, CPyCppyy::CallContext*) [clone .isra.0] () from /cvmfs/atlas.cern.ch/repo/sw/software/24.2/AnalysisBaseExternals/24.2.31/InstallArea/x86_64-centos7-gcc11-opt/lib/libcppyy3_9.so
#31 0x00007ff99fc244d9 in CPyCppyy::CPPMethod::Execute(void*, long, CPyCppyy::CallContext*) () from /cvmfs/atlas.cern.ch/repo/sw/software/24.2/AnalysisBaseExternals/24.2.31/InstallArea/x86_64-centos7-gcc11-opt/lib/libcppyy3_9.so
#32 0x00007ff99fc2510c in CPyCppyy::CPPMethod::Call(CPyCppyy::CPPInstance*&, _object*, _object*, CPyCppyy::CallContext*) () from /cvmfs/atlas.cern.ch/repo/sw/software/24.2/AnalysisBaseExternals/24.2.31/InstallArea/x86_64-centos7-gcc11-opt/lib/libcppyy3_9.so
#33 0x00007ff99fc29887 in CPyCppyy::(anonymous namespace)::mp_call(CPyCppyy::CPPOverload*, _object*, _object*) () from /cvmfs/atlas.cern.ch/repo/sw/software/24.2/AnalysisBaseExternals/24.2.31/InstallArea/x86_64-centos7-gcc11-opt/lib/libcppyy3_9.so
#34 0x00007ff9a11765a8 in _PyObject_MakeTpCall () from /cvmfs/atlas.cern.ch/repo/sw/software/24.2/AnalysisBaseExternals/24.2.31/InstallArea/x86_64-centos7-gcc11-opt/bin/../lib/libpython3.9.so.1.0
#35 0x00007ff9a112c209 in _PyEval_EvalFrameDefault () from /cvmfs/atlas.cern.ch/repo/sw/software/24.2/AnalysisBaseExternals/24.2.31/InstallArea/x86_64-centos7-gcc11-opt/bin/../lib/libpython3.9.so.1.0
#36 0x00007ff9a1123bab in function_code_fastcall () from /cvmfs/atlas.cern.ch/repo/sw/software/24.2/AnalysisBaseExternals/24.2.31/InstallArea/x86_64-centos7-gcc11-opt/bin/../lib/libpython3.9.so.1.0
#37 0x00007ff9a112a213 in _PyEval_EvalFrameDefault () from /cvmfs/atlas.cern.ch/repo/sw/software/24.2/AnalysisBaseExternals/24.2.31/InstallArea/x86_64-centos7-gcc11-opt/bin/../lib/libpython3.9.so.1.0
#38 0x00007ff9a125978e in _PyEval_EvalCode () from /cvmfs/atlas.cern.ch/repo/sw/software/24.2/AnalysisBaseExternals/24.2.31/InstallArea/x86_64-centos7-gcc11-opt/bin/../lib/libpython3.9.so.1.0
#39 0x00007ff9a1259ace in _PyEval_EvalCodeWithName () from /cvmfs/atlas.cern.ch/repo/sw/software/24.2/AnalysisBaseExternals/24.2.31/InstallArea/x86_64-centos7-gcc11-opt/bin/../lib/libpython3.9.so.1.0
#40 0x00007ff9a1259b1b in PyEval_EvalCodeEx () from /cvmfs/atlas.cern.ch/repo/sw/software/24.2/AnalysisBaseExternals/24.2.31/InstallArea/x86_64-centos7-gcc11-opt/bin/../lib/libpython3.9.so.1.0
#41 0x00007ff9a1259b4b in PyEval_EvalCode () from /cvmfs/atlas.cern.ch/repo/sw/software/24.2/AnalysisBaseExternals/24.2.31/InstallArea/x86_64-centos7-gcc11-opt/bin/../lib/libpython3.9.so.1.0
#42 0x00007ff9a1299c4e in run_mod () from /cvmfs/atlas.cern.ch/repo/sw/software/24.2/AnalysisBaseExternals/24.2.31/InstallArea/x86_64-centos7-gcc11-opt/bin/../lib/libpython3.9.so.1.0
#43 0x00007ff9a129b663 in PyRun_SimpleFileExFlags () from /cvmfs/atlas.cern.ch/repo/sw/software/24.2/AnalysisBaseExternals/24.2.31/InstallArea/x86_64-centos7-gcc11-opt/bin/../lib/libpython3.9.so.1.0
#44 0x00007ff9a12b89e8 in Py_RunMain () from /cvmfs/atlas.cern.ch/repo/sw/software/24.2/AnalysisBaseExternals/24.2.31/InstallArea/x86_64-centos7-gcc11-opt/bin/../lib/libpython3.9.so.1.0
#45 0x00007ff9a12b8ea7 in Py_BytesMain () from /cvmfs/atlas.cern.ch/repo/sw/software/24.2/AnalysisBaseExternals/24.2.31/InstallArea/x86_64-centos7-gcc11-opt/bin/../lib/libpython3.9.so.1.0
#46 0x00007ff9a01b6555 in __libc_start_main () from /lib64/libc.so.6
#47 0x000000000040108e in _start ()
===========================================================


 *** Break *** segmentation violation



===========================================================
There was a crash.
This is the entire stack trace of all threads:
===========================================================
#0  0x00007ff9a0259659 in waitpid () from /lib64/libc.so.6
#1  0x00007ff9a01d6f62 in do_system () from /lib64/libc.so.6
#2  0x00007ff9a01d7311 in system () from /lib64/libc.so.6
#3  0x00007ff99f9140bc in TUnixSystem::StackTrace() () from /cvmfs/atlas.cern.ch/repo/sw/software/24.2/AnalysisBaseExternals/24.2.31/InstallArea/x86_64-centos7-gcc11-opt/lib/libCore.so
#4  0x00007ff99fbabd43 in (anonymous namespace)::TExceptionHandlerImp::HandleException(int) () from /cvmfs/atlas.cern.ch/repo/sw/software/24.2/AnalysisBaseExternals/24.2.31/InstallArea/x86_64-centos7-gcc11-opt/lib/libcppyy_backend3_9.so
#5  0x00007ff99f911651 in TUnixSystem::DispatchSignals(ESignals) () from /cvmfs/atlas.cern.ch/repo/sw/software/24.2/AnalysisBaseExternals/24.2.31/InstallArea/x86_64-centos7-gcc11-opt/lib/libCore.so
#6  <signal handler called>
#7  0x00007ff9679a7d28 in RooNLLVar::evaluatePartition(unsigned long, unsigned long, unsigned long) const () from /cvmfs/atlas.cern.ch/repo/sw/software/24.2/AnalysisBaseExternals/24.2.31/InstallArea/x86_64-centos7-gcc11-opt/lib/libRooFitCore.so
#8  0x00007ff96786be91 in RooAbsTestStatistic::evaluate() const () from /cvmfs/atlas.cern.ch/repo/sw/software/24.2/AnalysisBaseExternals/24.2.31/InstallArea/x86_64-centos7-gcc11-opt/lib/libRooFitCore.so
#9  0x00007ff96784a4a3 in RooAbsReal::traceEval(RooArgSet const*) const () from /cvmfs/atlas.cern.ch/repo/sw/software/24.2/AnalysisBaseExternals/24.2.31/InstallArea/x86_64-centos7-gcc11-opt/lib/libRooFitCore.so
#10 0x00007ff96784a6eb in RooAbsReal::getValV(RooArgSet const*) const () from /cvmfs/atlas.cern.ch/repo/sw/software/24.2/AnalysisBaseExternals/24.2.31/InstallArea/x86_64-centos7-gcc11-opt/lib/libRooFitCore.so
#11 0x00007ff9678773ee in RooAddition::evaluate() const () from /cvmfs/atlas.cern.ch/repo/sw/software/24.2/AnalysisBaseExternals/24.2.31/InstallArea/x86_64-centos7-gcc11-opt/lib/libRooFitCore.so
#12 0x00007ff96784a4a3 in RooAbsReal::traceEval(RooArgSet const*) const () from /cvmfs/atlas.cern.ch/repo/sw/software/24.2/AnalysisBaseExternals/24.2.31/InstallArea/x86_64-centos7-gcc11-opt/lib/libRooFitCore.so
#13 0x00007ff96784a6eb in RooAbsReal::getValV(RooArgSet const*) const () from /cvmfs/atlas.cern.ch/repo/sw/software/24.2/AnalysisBaseExternals/24.2.31/InstallArea/x86_64-centos7-gcc11-opt/lib/libRooFitCore.so
#14 0x00007ff9679872ca in RooMinimizerFcn::DoEval(double const*) const () from /cvmfs/atlas.cern.ch/repo/sw/software/24.2/AnalysisBaseExternals/24.2.31/InstallArea/x86_64-centos7-gcc11-opt/lib/libRooFitCore.so
#15 0x00007ff967460fc6 in ROOT::Minuit2::MnUserFcn::operator()(ROOT::Minuit2::LAVector const&) const () from /cvmfs/atlas.cern.ch/repo/sw/software/24.2/AnalysisBaseExternals/24.2.31/InstallArea/x86_64-centos7-gcc11-opt/lib/libMinuit2.so
#16 0x00007ff96745d35b in ROOT::Minuit2::MnSeedGenerator::operator()(ROOT::Minuit2::MnFcn const&, ROOT::Minuit2::GradientCalculator const&, ROOT::Minuit2::MnUserParameterState const&, ROOT::Minuit2::MnStrategy const&) const () from /cvmfs/atlas.cern.ch/repo/sw/software/24.2/AnalysisBaseExternals/24.2.31/InstallArea/x86_64-centos7-gcc11-opt/lib/libMinuit2.so
#17 0x00007ff96746937b in ROOT::Minuit2::ModularFunctionMinimizer::Minimize(ROOT::Minuit2::FCNBase const&, ROOT::Minuit2::MnUserParameterState const&, ROOT::Minuit2::MnStrategy const&, unsigned int, double) const () from /cvmfs/atlas.cern.ch/repo/sw/software/24.2/AnalysisBaseExternals/24.2.31/InstallArea/x86_64-centos7-gcc11-opt/lib/libMinuit2.so
#18 0x00007ff9674280d7 in ROOT::Minuit2::Minuit2Minimizer::Minimize() () from /cvmfs/atlas.cern.ch/repo/sw/software/24.2/AnalysisBaseExternals/24.2.31/InstallArea/x86_64-centos7-gcc11-opt/lib/libMinuit2.so
#19 0x00007ff9825dfb62 in ROOT::Fit::Fitter::DoMinimization(ROOT::Math::IBaseFunctionMultiDimTempl<double> const*) () from /cvmfs/atlas.cern.ch/repo/sw/software/24.2/AnalysisBaseExternals/24.2.31/InstallArea/x86_64-centos7-gcc11-opt/lib/libMathCore.so
#20 0x00007ff967982860 in RooMinimizer::minimize(char const*, char const*) () from /cvmfs/atlas.cern.ch/repo/sw/software/24.2/AnalysisBaseExternals/24.2.31/InstallArea/x86_64-centos7-gcc11-opt/lib/libRooFitCore.so
#21 0x00007ff967255079 in ?? ()
#22 0x0000000200000002 in ?? ()
#23 0x000000000ab36d70 in ?? ()
#24 0x00007ffc1646cf20 in ?? ()
#25 0x00007ffc1646cfac in ?? ()
#26 0x0000000000000002 in ?? ()
#27 0x00007ff99fbac92a in WrapperCall(long, unsigned long, void*, void*, void*) () from /cvmfs/atlas.cern.ch/repo/sw/software/24.2/AnalysisBaseExternals/24.2.31/InstallArea/x86_64-centos7-gcc11-opt/lib/libcppyy_backend3_9.so
#28 0x00007ff99fbad922 in Cppyy::CallI(long, void*, unsigned long, void*) () from /cvmfs/atlas.cern.ch/repo/sw/software/24.2/AnalysisBaseExternals/24.2.31/InstallArea/x86_64-centos7-gcc11-opt/lib/libcppyy_backend3_9.so
#29 0x00007ff99fc3697f in CPyCppyy::(anonymous namespace)::IntExecutor::Execute(long, void*, CPyCppyy::CallContext*) () from /cvmfs/atlas.cern.ch/repo/sw/software/24.2/AnalysisBaseExternals/24.2.31/InstallArea/x86_64-centos7-gcc11-opt/lib/libcppyy3_9.so
#30 0x00007ff99fc23a16 in CPyCppyy::CPPMethod::ExecuteFast(void*, long, CPyCppyy::CallContext*) [clone .isra.0] () from /cvmfs/atlas.cern.ch/repo/sw/software/24.2/AnalysisBaseExternals/24.2.31/InstallArea/x86_64-centos7-gcc11-opt/lib/libcppyy3_9.so
#31 0x00007ff99fc244d9 in CPyCppyy::CPPMethod::Execute(void*, long, CPyCppyy::CallContext*) () from /cvmfs/atlas.cern.ch/repo/sw/software/24.2/AnalysisBaseExternals/24.2.31/InstallArea/x86_64-centos7-gcc11-opt/lib/libcppyy3_9.so
#32 0x00007ff99fc2510c in CPyCppyy::CPPMethod::Call(CPyCppyy::CPPInstance*&, _object*, _object*, CPyCppyy::CallContext*) () from /cvmfs/atlas.cern.ch/repo/sw/software/24.2/AnalysisBaseExternals/24.2.31/InstallArea/x86_64-centos7-gcc11-opt/lib/libcppyy3_9.so
#33 0x00007ff99fc29887 in CPyCppyy::(anonymous namespace)::mp_call(CPyCppyy::CPPOverload*, _object*, _object*) () from /cvmfs/atlas.cern.ch/repo/sw/software/24.2/AnalysisBaseExternals/24.2.31/InstallArea/x86_64-centos7-gcc11-opt/lib/libcppyy3_9.so
#34 0x00007ff9a11765a8 in _PyObject_MakeTpCall () from /cvmfs/atlas.cern.ch/repo/sw/software/24.2/AnalysisBaseExternals/24.2.31/InstallArea/x86_64-centos7-gcc11-opt/bin/../lib/libpython3.9.so.1.0
#35 0x00007ff9a112c209 in _PyEval_EvalFrameDefault () from /cvmfs/atlas.cern.ch/repo/sw/software/24.2/AnalysisBaseExternals/24.2.31/InstallArea/x86_64-centos7-gcc11-opt/bin/../lib/libpython3.9.so.1.0
#36 0x00007ff9a1123bab in function_code_fastcall () from /cvmfs/atlas.cern.ch/repo/sw/software/24.2/AnalysisBaseExternals/24.2.31/InstallArea/x86_64-centos7-gcc11-opt/bin/../lib/libpython3.9.so.1.0
#37 0x00007ff9a112a213 in _PyEval_EvalFrameDefault () from /cvmfs/atlas.cern.ch/repo/sw/software/24.2/AnalysisBaseExternals/24.2.31/InstallArea/x86_64-centos7-gcc11-opt/bin/../lib/libpython3.9.so.1.0
#38 0x00007ff9a125978e in _PyEval_EvalCode () from /cvmfs/atlas.cern.ch/repo/sw/software/24.2/AnalysisBaseExternals/24.2.31/InstallArea/x86_64-centos7-gcc11-opt/bin/../lib/libpython3.9.so.1.0
#39 0x00007ff9a1259ace in _PyEval_EvalCodeWithName () from /cvmfs/atlas.cern.ch/repo/sw/software/24.2/AnalysisBaseExternals/24.2.31/InstallArea/x86_64-centos7-gcc11-opt/bin/../lib/libpython3.9.so.1.0
#40 0x00007ff9a1259b1b in PyEval_EvalCodeEx () from /cvmfs/atlas.cern.ch/repo/sw/software/24.2/AnalysisBaseExternals/24.2.31/InstallArea/x86_64-centos7-gcc11-opt/bin/../lib/libpython3.9.so.1.0
#41 0x00007ff9a1259b4b in PyEval_EvalCode () from /cvmfs/atlas.cern.ch/repo/sw/software/24.2/AnalysisBaseExternals/24.2.31/InstallArea/x86_64-centos7-gcc11-opt/bin/../lib/libpython3.9.so.1.0
#42 0x00007ff9a1299c4e in run_mod () from /cvmfs/atlas.cern.ch/repo/sw/software/24.2/AnalysisBaseExternals/24.2.31/InstallArea/x86_64-centos7-gcc11-opt/bin/../lib/libpython3.9.so.1.0
#43 0x00007ff9a129b663 in PyRun_SimpleFileExFlags () from /cvmfs/atlas.cern.ch/repo/sw/software/24.2/AnalysisBaseExternals/24.2.31/InstallArea/x86_64-centos7-gcc11-opt/bin/../lib/libpython3.9.so.1.0
#44 0x00007ff9a12b89e8 in Py_RunMain () from /cvmfs/atlas.cern.ch/repo/sw/software/24.2/AnalysisBaseExternals/24.2.31/InstallArea/x86_64-centos7-gcc11-opt/bin/../lib/libpython3.9.so.1.0
#45 0x00007ff9a12b8ea7 in Py_BytesMain () from /cvmfs/atlas.cern.ch/repo/sw/software/24.2/AnalysisBaseExternals/24.2.31/InstallArea/x86_64-centos7-gcc11-opt/bin/../lib/libpython3.9.so.1.0
#46 0x00007ff9a01b6555 in __libc_start_main () from /lib64/libc.so.6
#47 0x000000000040108e in _start ()
===========================================================


The lines below might hint at the cause of the crash. If you see question
marks as part of the stack trace, try to recompile with debugging information
enabled and export CLING_DEBUG=1 environment variable before running.
You may get help by asking at the ROOT forum https://root.cern/forum
Only if you are really convinced it is a bug in ROOT then please submit a
report at https://root.cern/bugs Please post the ENTIRE stack trace
from above as an attachment in addition to anything else
that might help us fixing this issue.
===========================================================
#7  0x00007ff9679a7d28 in RooNLLVar::evaluatePartition(unsigned long, unsigned long, unsigned long) const () from /cvmfs/atlas.cern.ch/repo/sw/software/24.2/AnalysisBaseExternals/24.2.31/InstallArea/x86_64-centos7-gcc11-opt/lib/libRooFitCore.so
#8  0x00007ff96786be91 in RooAbsTestStatistic::evaluate() const () from /cvmfs/atlas.cern.ch/repo/sw/software/24.2/AnalysisBaseExternals/24.2.31/InstallArea/x86_64-centos7-gcc11-opt/lib/libRooFitCore.so
#9  0x00007ff96784a4a3 in RooAbsReal::traceEval(RooArgSet const*) const () from /cvmfs/atlas.cern.ch/repo/sw/software/24.2/AnalysisBaseExternals/24.2.31/InstallArea/x86_64-centos7-gcc11-opt/lib/libRooFitCore.so
#10 0x00007ff96784a6eb in RooAbsReal::getValV(RooArgSet const*) const () from /cvmfs/atlas.cern.ch/repo/sw/software/24.2/AnalysisBaseExternals/24.2.31/InstallArea/x86_64-centos7-gcc11-opt/lib/libRooFitCore.so
#11 0x00007ff9678773ee in RooAddition::evaluate() const () from /cvmfs/atlas.cern.ch/repo/sw/software/24.2/AnalysisBaseExternals/24.2.31/InstallArea/x86_64-centos7-gcc11-opt/lib/libRooFitCore.so
#12 0x00007ff96784a4a3 in RooAbsReal::traceEval(RooArgSet const*) const () from /cvmfs/atlas.cern.ch/repo/sw/software/24.2/AnalysisBaseExternals/24.2.31/InstallArea/x86_64-centos7-gcc11-opt/lib/libRooFitCore.so
#13 0x00007ff96784a6eb in RooAbsReal::getValV(RooArgSet const*) const () from /cvmfs/atlas.cern.ch/repo/sw/software/24.2/AnalysisBaseExternals/24.2.31/InstallArea/x86_64-centos7-gcc11-opt/lib/libRooFitCore.so
#14 0x00007ff9679872ca in RooMinimizerFcn::DoEval(double const*) const () from /cvmfs/atlas.cern.ch/repo/sw/software/24.2/AnalysisBaseExternals/24.2.31/InstallArea/x86_64-centos7-gcc11-opt/lib/libRooFitCore.so
#15 0x00007ff967460fc6 in ROOT::Minuit2::MnUserFcn::operator()(ROOT::Minuit2::LAVector const&) const () from /cvmfs/atlas.cern.ch/repo/sw/software/24.2/AnalysisBaseExternals/24.2.31/InstallArea/x86_64-centos7-gcc11-opt/lib/libMinuit2.so
#16 0x00007ff96745d35b in ROOT::Minuit2::MnSeedGenerator::operator()(ROOT::Minuit2::MnFcn const&, ROOT::Minuit2::GradientCalculator const&, ROOT::Minuit2::MnUserParameterState const&, ROOT::Minuit2::MnStrategy const&) const () from /cvmfs/atlas.cern.ch/repo/sw/software/24.2/AnalysisBaseExternals/24.2.31/InstallArea/x86_64-centos7-gcc11-opt/lib/libMinuit2.so
#17 0x00007ff96746937b in ROOT::Minuit2::ModularFunctionMinimizer::Minimize(ROOT::Minuit2::FCNBase const&, ROOT::Minuit2::MnUserParameterState const&, ROOT::Minuit2::MnStrategy const&, unsigned int, double) const () from /cvmfs/atlas.cern.ch/repo/sw/software/24.2/AnalysisBaseExternals/24.2.31/InstallArea/x86_64-centos7-gcc11-opt/lib/libMinuit2.so
#18 0x00007ff9674280d7 in ROOT::Minuit2::Minuit2Minimizer::Minimize() () from /cvmfs/atlas.cern.ch/repo/sw/software/24.2/AnalysisBaseExternals/24.2.31/InstallArea/x86_64-centos7-gcc11-opt/lib/libMinuit2.so
#19 0x00007ff9825dfb62 in ROOT::Fit::Fitter::DoMinimization(ROOT::Math::IBaseFunctionMultiDimTempl<double> const*) () from /cvmfs/atlas.cern.ch/repo/sw/software/24.2/AnalysisBaseExternals/24.2.31/InstallArea/x86_64-centos7-gcc11-opt/lib/libMathCore.so
#20 0x00007ff967982860 in RooMinimizer::minimize(char const*, char const*) () from /cvmfs/atlas.cern.ch/repo/sw/software/24.2/AnalysisBaseExternals/24.2.31/InstallArea/x86_64-centos7-gcc11-opt/lib/libRooFitCore.so
#21 0x00007ff967255079 in ?? ()
#22 0x0000000200000002 in ?? ()
#23 0x000000000ab36d70 in ?? ()
#24 0x00007ffc1646cf20 in ?? ()
#25 0x00007ffc1646cfac in ?? ()
#26 0x0000000000000002 in ?? ()
#27 0x00007ff99fbac92a in WrapperCall(long, unsigned long, void*, void*, void*) () from /cvmfs/atlas.cern.ch/repo/sw/software/24.2/AnalysisBaseExternals/24.2.31/InstallArea/x86_64-centos7-gcc11-opt/lib/libcppyy_backend3_9.so
#28 0x00007ff99fbad922 in Cppyy::CallI(long, void*, unsigned long, void*) () from /cvmfs/atlas.cern.ch/repo/sw/software/24.2/AnalysisBaseExternals/24.2.31/InstallArea/x86_64-centos7-gcc11-opt/lib/libcppyy_backend3_9.so
#29 0x00007ff99fc3697f in CPyCppyy::(anonymous namespace)::IntExecutor::Execute(long, void*, CPyCppyy::CallContext*) () from /cvmfs/atlas.cern.ch/repo/sw/software/24.2/AnalysisBaseExternals/24.2.31/InstallArea/x86_64-centos7-gcc11-opt/lib/libcppyy3_9.so
#30 0x00007ff99fc23a16 in CPyCppyy::CPPMethod::ExecuteFast(void*, long, CPyCppyy::CallContext*) [clone .isra.0] () from /cvmfs/atlas.cern.ch/repo/sw/software/24.2/AnalysisBaseExternals/24.2.31/InstallArea/x86_64-centos7-gcc11-opt/lib/libcppyy3_9.so
#31 0x00007ff99fc244d9 in CPyCppyy::CPPMethod::Execute(void*, long, CPyCppyy::CallContext*) () from /cvmfs/atlas.cern.ch/repo/sw/software/24.2/AnalysisBaseExternals/24.2.31/InstallArea/x86_64-centos7-gcc11-opt/lib/libcppyy3_9.so
#32 0x00007ff99fc2510c in CPyCppyy::CPPMethod::Call(CPyCppyy::CPPInstance*&, _object*, _object*, CPyCppyy::CallContext*) () from /cvmfs/atlas.cern.ch/repo/sw/software/24.2/AnalysisBaseExternals/24.2.31/InstallArea/x86_64-centos7-gcc11-opt/lib/libcppyy3_9.so
#33 0x00007ff99fc29887 in CPyCppyy::(anonymous namespace)::mp_call(CPyCppyy::CPPOverload*, _object*, _object*) () from /cvmfs/atlas.cern.ch/repo/sw/software/24.2/AnalysisBaseExternals/24.2.31/InstallArea/x86_64-centos7-gcc11-opt/lib/libcppyy3_9.so
#34 0x00007ff9a11765a8 in _PyObject_MakeTpCall () from /cvmfs/atlas.cern.ch/repo/sw/software/24.2/AnalysisBaseExternals/24.2.31/InstallArea/x86_64-centos7-gcc11-opt/bin/../lib/libpython3.9.so.1.0
#35 0x00007ff9a112c209 in _PyEval_EvalFrameDefault () from /cvmfs/atlas.cern.ch/repo/sw/software/24.2/AnalysisBaseExternals/24.2.31/InstallArea/x86_64-centos7-gcc11-opt/bin/../lib/libpython3.9.so.1.0
#36 0x00007ff9a1123bab in function_code_fastcall () from /cvmfs/atlas.cern.ch/repo/sw/software/24.2/AnalysisBaseExternals/24.2.31/InstallArea/x86_64-centos7-gcc11-opt/bin/../lib/libpython3.9.so.1.0
#37 0x00007ff9a112a213 in _PyEval_EvalFrameDefault () from /cvmfs/atlas.cern.ch/repo/sw/software/24.2/AnalysisBaseExternals/24.2.31/InstallArea/x86_64-centos7-gcc11-opt/bin/../lib/libpython3.9.so.1.0
#38 0x00007ff9a125978e in _PyEval_EvalCode () from /cvmfs/atlas.cern.ch/repo/sw/software/24.2/AnalysisBaseExternals/24.2.31/InstallArea/x86_64-centos7-gcc11-opt/bin/../lib/libpython3.9.so.1.0
#39 0x00007ff9a1259ace in _PyEval_EvalCodeWithName () from /cvmfs/atlas.cern.ch/repo/sw/software/24.2/AnalysisBaseExternals/24.2.31/InstallArea/x86_64-centos7-gcc11-opt/bin/../lib/libpython3.9.so.1.0
#40 0x00007ff9a1259b1b in PyEval_EvalCodeEx () from /cvmfs/atlas.cern.ch/repo/sw/software/24.2/AnalysisBaseExternals/24.2.31/InstallArea/x86_64-centos7-gcc11-opt/bin/../lib/libpython3.9.so.1.0
#41 0x00007ff9a1259b4b in PyEval_EvalCode () from /cvmfs/atlas.cern.ch/repo/sw/software/24.2/AnalysisBaseExternals/24.2.31/InstallArea/x86_64-centos7-gcc11-opt/bin/../lib/libpython3.9.so.1.0
#42 0x00007ff9a1299c4e in run_mod () from /cvmfs/atlas.cern.ch/repo/sw/software/24.2/AnalysisBaseExternals/24.2.31/InstallArea/x86_64-centos7-gcc11-opt/bin/../lib/libpython3.9.so.1.0
#43 0x00007ff9a129b663 in PyRun_SimpleFileExFlags () from /cvmfs/atlas.cern.ch/repo/sw/software/24.2/AnalysisBaseExternals/24.2.31/InstallArea/x86_64-centos7-gcc11-opt/bin/../lib/libpython3.9.so.1.0
#44 0x00007ff9a12b89e8 in Py_RunMain () from /cvmfs/atlas.cern.ch/repo/sw/software/24.2/AnalysisBaseExternals/24.2.31/InstallArea/x86_64-centos7-gcc11-opt/bin/../lib/libpython3.9.so.1.0
#45 0x00007ff9a12b8ea7 in Py_BytesMain () from /cvmfs/atlas.cern.ch/repo/sw/software/24.2/AnalysisBaseExternals/24.2.31/InstallArea/x86_64-centos7-gcc11-opt/bin/../lib/libpython3.9.so.1.0
#46 0x00007ff9a01b6555 in __libc_start_main () from /lib64/libc.so.6
#47 0x000000000040108e in _start ()
===========================================================


