Printing parameter values:
- variable "CB_mean" result (initial): 3.07 + 0.01 - -0.01 (3.10)
    -> ratio post/pre: 0.989 + 0.00 - -0.00 , range [2.70, 3.36]
- variable "CB_sigma" result (initial): 0.10 + 0.01 - -0.01 (0.14)
    -> ratio post/pre: 0.680 + 0.10 - -0.10 , range [0.04, 0.60]
- variable "a" result (initial): 1.11 + 0.34 - -0.34 (1.00)
    -> ratio post/pre: 1.114 + 0.34 - -0.34 , range [0.30, 10.00]
- variable "fracCB" result (initial): 0.52 + 0.14 - -0.14 (0.80)
    -> ratio post/pre: 0.655 + 0.17 - -0.17 , range [0.00, 1.00]
- variable "gaus_mean0" result (initial): 3.08 + 0.04 - -0.04 (3.10)
    -> ratio post/pre: 0.994 + 0.01 - -0.01 , range [2.90, 3.50]
- variable "gaus_sigma0" result (initial): 0.27 + 0.02 - -0.02 (0.14)
    -> ratio post/pre: 1.904 + 0.16 - -0.16 , range [0.04, 0.60]
- variable "n" result (initial): 10.00 + -1.00 - 1.00 (10.00)
    -> ratio post/pre: 1.000 + -0.10 - 0.10 , range [1.00, 20.00]
- variable "signalYield" result (initial): 563.51 + 23.74 - -23.74 (479.66)
    -> ratio post/pre: 1.175 + 0.05 - -0.05 , range [0.00, 4796.60]
