+-------------------------+----------+----------+------------+----------+--------+----------+------------------------+----------+------------+
|           Name          | post-fit | error up | error down | initial  |  min   |   max    | ratio post-fit/initial | ratio up | ratio down |
+-------------------------+----------+----------+------------+----------+--------+----------+------------------------+----------+------------+
| background_nominalYield |  653.28  |  112.17  |  -112.17   | 4208.85  | 84.18  | 85860.54 |          0.16          |   0.03   |   -0.03    |
|   signal_nominalYield   | 83523.72 |  308.27  |  -308.27   | 66148.06 | 841.77 | 85860.54 |          1.26          |   0.00   |   -0.00    |
+-------------------------+----------+----------+------------+----------+--------+----------+------------------------+----------+------------+