+-------------------------+-----------+----------+------------+-----------+---------+-----------+------------------------+----------+------------+
|           Name          |  post-fit | error up | error down |  initial  |   min   |    max    | ratio post-fit/initial | ratio up | ratio down |
+-------------------------+-----------+----------+------------+-----------+---------+-----------+------------------------+----------+------------+
| background_nominalYield | 133647.13 |  482.41  |  -482.41   |  39836.70 |  796.73 | 812668.68 |          3.35          |   0.01   |   -0.01    |
|   signal_nominalYield   | 663086.87 |  875.66  |  -875.66   | 655395.24 | 7967.34 | 812668.68 |          1.01          |   0.00   |   -0.00    |
+-------------------------+-----------+----------+------------+-----------+---------+-----------+------------------------+----------+------------+